{
  "ErrorFlag": false,
  "ProductFilters": null,
  "ErrorMessage": null,
  "SearchString": null,
  "SatrtNumber": 1,
  "EndNumber": 500,
  "SiteCategoryRoot": 0,
  "SiteID": 0,
  "LanguageCode": null,
  "PID": 0,
  "ProductIDList": null,
  "BrandID": 0,
  "OrderBy": null,
  "OrderByColumn": 1,
  "GTINs": null,
  "Direction": 1,
  "TotalRecords": 32,
  "PageNumber": 0,
  "PageSize": 0,
  "PageCount": -2147483648,
  "AddedOrModifiedDate": "0001-01-01T00:00:00",
  "Products": [
    {
      "PID": -1,
      "ProductID": null,
      "BrandName": "A.1.",
      "FunctionalName": null,
      "VariantName": null,
      "SubVariant": null,
      "BrandOwnerGLN": null,
      "ConsumerUnitFlag": false,
      "eCommProductName": null,
      "eCommProductFeature": null,
      "GeneralMktDescription": null,
      "GTIN": "00054400000016",
      "Name": "A1 Steak Sauce 128 oz",
      "NetWeightOZ": 0,
      "PackagingTypeCode": null,
      "ParentID": null,
      "PrepTypeName": null,
      "ProductDescriptionShort": null,
      "ProductDescriptionGrid": null,
      "seoFriendlyName": "",
      "ServingsOfTradeItemUnit": null,
      "ServingSuggestions": null,
      "ThumbnailPath": null,
      "UnitDescriptorCode": null,
      "UPC": null,
      "WilkeUPC": null,
      "UserTypeID": null,
      "LanguageCode": null,
      "CreatedDate": "2016-11-14T06:24:18.36",
      "IsNewProduct": false,
      "IsMappedProduct": false
    },
    {
      "PID": -2,
      "ProductID": null,
      "BrandName": "A.1.",
      "FunctionalName": null,
      "VariantName": null,
      "SubVariant": null,
      "BrandOwnerGLN": null,
      "ConsumerUnitFlag": false,
      "eCommProductName": null,
      "eCommProductFeature": null,
      "GeneralMktDescription": null,
      "GTIN": "00054400000023",
      "Name": "A1 10 OZ SAUCE-STEAK BOTTLE EACH 10 oz",
      "NetWeightOZ": 0,
      "PackagingTypeCode": null,
      "ParentID": null,
      "PrepTypeName": null,
      "ProductDescriptionShort": null,
      "ProductDescriptionGrid": null,
      "seoFriendlyName": "",
      "ServingsOfTradeItemUnit": null,
      "ServingSuggestions": null,
      "ThumbnailPath": null,
      "UnitDescriptorCode": null,
      "UPC": null,
      "WilkeUPC": null,
      "UserTypeID": null,
      "LanguageCode": null,
      "CreatedDate": "2016-11-14T06:24:19.223",
      "IsNewProduct": false,
      "IsMappedProduct": false
    },
    {
      "PID": -3,
      "ProductID": null,
      "BrandName": "A.1.",
      "FunctionalName": null,
      "VariantName": null,
      "SubVariant": null,
      "BrandOwnerGLN": null,
      "ConsumerUnitFlag": false,
      "eCommProductName": null,
      "eCommProductFeature": null,
      "GeneralMktDescription": null,
      "GTIN": "00054400000030",
      "Name": "A1 Steak Sauce 5 oz",
      "NetWeightOZ": 0,
      "PackagingTypeCode": null,
      "ParentID": null,
      "PrepTypeName": null,
      "ProductDescriptionShort": null,
      "ProductDescriptionGrid": null,
      "seoFriendlyName": "",
      "ServingsOfTradeItemUnit": null,
      "ServingSuggestions": null,
      "ThumbnailPath": null,
      "UnitDescriptorCode": null,
      "UPC": null,
      "WilkeUPC": null,
      "UserTypeID": null,
      "LanguageCode": null,
      "CreatedDate": "2016-11-14T06:24:20.08",
      "IsNewProduct": false,
      "IsMappedProduct": false
    },
    {
      "PID": -4,
      "ProductID": null,
      "BrandName": "A.1.",
      "FunctionalName": null,
      "VariantName": null,
      "SubVariant": null,
      "BrandOwnerGLN": null,
      "ConsumerUnitFlag": false,
      "eCommProductName": null,
      "eCommProductFeature": null,
      "GeneralMktDescription": null,
      "GTIN": "00054400000047",
      "Name": "A.1. Original Sauce 15 oz. Bottle 15 oz",
      "NetWeightOZ": 0,
      "PackagingTypeCode": null,
      "ParentID": null,
      "PrepTypeName": null,
      "ProductDescriptionShort": null,
      "ProductDescriptionGrid": null,
      "seoFriendlyName": "",
      "ServingsOfTradeItemUnit": null,
      "ServingSuggestions": null,
      "ThumbnailPath": null,
      "UnitDescriptorCode": null,
      "UPC": null,
      "WilkeUPC": null,
      "UserTypeID": null,
      "LanguageCode": null,
      "CreatedDate": "2016-11-14T06:24:21.07",
      "IsNewProduct": false,
      "IsMappedProduct": false
    },
    {
      "PID": -5,
      "ProductID": null,
      "BrandName": "A.1.",
      "FunctionalName": null,
      "VariantName": null,
      "SubVariant": null,
      "BrandOwnerGLN": null,
      "ConsumerUnitFlag": false,
      "eCommProductName": null,
      "eCommProductFeature": null,
      "GeneralMktDescription": null,
      "GTIN": "00054400000054",
      "Name": "A.1. Original Sauce 10 oz. Bottle 10 oz",
      "NetWeightOZ": 0,
      "PackagingTypeCode": null,
      "ParentID": null,
      "PrepTypeName": null,
      "ProductDescriptionShort": null,
      "ProductDescriptionGrid": null,
      "seoFriendlyName": "",
      "ServingsOfTradeItemUnit": null,
      "ServingSuggestions": null,
      "ThumbnailPath": null,
      "UnitDescriptorCode": null,
      "UPC": null,
      "WilkeUPC": null,
      "UserTypeID": null,
      "LanguageCode": null,
      "CreatedDate": "2016-11-14T06:24:21.77",
      "IsNewProduct": false,
      "IsMappedProduct": false
    },
    {
      "PID": -6,
      "ProductID": null,
      "BrandName": "A.1.",
      "FunctionalName": null,
      "VariantName": null,
      "SubVariant": null,
      "BrandOwnerGLN": null,
      "ConsumerUnitFlag": false,
      "eCommProductName": null,
      "eCommProductFeature": null,
      "GeneralMktDescription": null,
      "GTIN": "00054400000092",
      "Name": "A.1. Original Sauce 5 oz. Bottle 5 oz",
      "NetWeightOZ": 0,
      "PackagingTypeCode": null,
      "ParentID": null,
      "PrepTypeName": null,
      "ProductDescriptionShort": null,
      "ProductDescriptionGrid": null,
      "seoFriendlyName": "",
      "ServingsOfTradeItemUnit": null,
      "ServingSuggestions": null,
      "ThumbnailPath": null,
      "UnitDescriptorCode": null,
      "UPC": null,
      "WilkeUPC": null,
      "UserTypeID": null,
      "LanguageCode": null,
      "CreatedDate": "2016-11-14T06:24:22.437",
      "IsNewProduct": false,
      "IsMappedProduct": false
    },
    {
      "PID": -7,
      "ProductID": null,
      "BrandName": "A.1.",
      "FunctionalName": null,
      "VariantName": null,
      "SubVariant": null,
      "BrandOwnerGLN": null,
      "ConsumerUnitFlag": false,
      "eCommProductName": null,
      "eCommProductFeature": null,
      "GeneralMktDescription": null,
      "GTIN": "00054400000108",
      "Name": "A1 Steak Sauce 15 oz",
      "NetWeightOZ": 0,
      "PackagingTypeCode": null,
      "ParentID": null,
      "PrepTypeName": null,
      "ProductDescriptionShort": null,
      "ProductDescriptionGrid": null,
      "seoFriendlyName": "",
      "ServingsOfTradeItemUnit": null,
      "ServingSuggestions": null,
      "ThumbnailPath": null,
      "UnitDescriptorCode": null,
      "UPC": null,
      "WilkeUPC": null,
      "UserTypeID": null,
      "LanguageCode": null,
      "CreatedDate": "2016-11-14T06:24:23.2",
      "IsNewProduct": false,
      "IsMappedProduct": false
    },
    {
      "PID": -8,
      "ProductID": null,
      "BrandName": "A.1.",
      "FunctionalName": null,
      "VariantName": null,
      "SubVariant": null,
      "BrandOwnerGLN": null,
      "ConsumerUnitFlag": false,
      "eCommProductName": null,
      "eCommProductFeature": null,
      "GeneralMktDescription": null,
      "GTIN": "00054400000672",
      "Name": "A1 1.4 OZ SAUCE-STEAK     BAG/POUCH EACH 1.39999997615814 oz",
      "NetWeightOZ": 0,
      "PackagingTypeCode": null,
      "ParentID": null,
      "PrepTypeName": null,
      "ProductDescriptionShort": null,
      "ProductDescriptionGrid": null,
      "seoFriendlyName": "",
      "ServingsOfTradeItemUnit": null,
      "ServingSuggestions": null,
      "ThumbnailPath": null,
      "UnitDescriptorCode": null,
      "UPC": null,
      "WilkeUPC": null,
      "UserTypeID": null,
      "LanguageCode": null,
      "CreatedDate": "2016-11-14T06:24:24.37",
      "IsNewProduct": false,
      "IsMappedProduct": false
    },
    {
      "PID": -9,
      "ProductID": null,
      "BrandName": "A.1.",
      "FunctionalName": null,
      "VariantName": null,
      "SubVariant": null,
      "BrandOwnerGLN": null,
      "ConsumerUnitFlag": false,
      "eCommProductName": null,
      "eCommProductFeature": null,
      "GeneralMktDescription": null,
      "GTIN": "00054400000726",
      "Name": "A1 Bold & Spicy Steak Sauce 10 oz",
      "NetWeightOZ": 0,
      "PackagingTypeCode": null,
      "ParentID": null,
      "PrepTypeName": null,
      "ProductDescriptionShort": null,
      "ProductDescriptionGrid": null,
      "seoFriendlyName": "",
      "ServingsOfTradeItemUnit": null,
      "ServingSuggestions": null,
      "ThumbnailPath": null,
      "UnitDescriptorCode": null,
      "UPC": null,
      "WilkeUPC": null,
      "UserTypeID": null,
      "LanguageCode": null,
      "CreatedDate": "2016-11-14T06:24:25.95",
      "IsNewProduct": false,
      "IsMappedProduct": false
    },
    {
      "PID": -10,
      "ProductID": null,
      "BrandName": "A.1.",
      "FunctionalName": null,
      "VariantName": null,
      "SubVariant": null,
      "BrandOwnerGLN": null,
      "ConsumerUnitFlag": false,
      "eCommProductName": null,
      "eCommProductFeature": null,
      "GeneralMktDescription": null,
      "GTIN": "00054400001624",
      "Name": "A.1. Classic Steakhouse Marinade 16 fl oz Squeeze Bottle 16 oz",
      "NetWeightOZ": 0,
      "PackagingTypeCode": null,
      "ParentID": null,
      "PrepTypeName": null,
      "ProductDescriptionShort": null,
      "ProductDescriptionGrid": null,
      "seoFriendlyName": "",
      "ServingsOfTradeItemUnit": null,
      "ServingSuggestions": null,
      "ThumbnailPath": null,
      "UnitDescriptorCode": null,
      "UPC": null,
      "WilkeUPC": null,
      "UserTypeID": null,
      "LanguageCode": null,
      "CreatedDate": "2016-11-14T06:23:59.88",
      "IsNewProduct": false,
      "IsMappedProduct": false
    },
    {
      "PID": -11,
      "ProductID": null,
      "BrandName": "A.1.",
      "FunctionalName": null,
      "VariantName": null,
      "SubVariant": null,
      "BrandOwnerGLN": null,
      "ConsumerUnitFlag": false,
      "eCommProductName": null,
      "eCommProductFeature": null,
      "GeneralMktDescription": null,
      "GTIN": "00054400001631",
      "Name": "A.1. Garlic & Herb Steakhouse Marinade 16 fl oz Squeeze Bottle 16 oz",
      "NetWeightOZ": 0,
      "PackagingTypeCode": null,
      "ParentID": null,
      "PrepTypeName": null,
      "ProductDescriptionShort": null,
      "ProductDescriptionGrid": null,
      "seoFriendlyName": "",
      "ServingsOfTradeItemUnit": null,
      "ServingSuggestions": null,
      "ThumbnailPath": null,
      "UnitDescriptorCode": null,
      "UPC": null,
      "WilkeUPC": null,
      "UserTypeID": null,
      "LanguageCode": null,
      "CreatedDate": "2016-11-14T06:24:00.707",
      "IsNewProduct": false,
      "IsMappedProduct": false
    },
    {
      "PID": -12,
      "ProductID": null,
      "BrandName": "A.1.",
      "FunctionalName": null,
      "VariantName": null,
      "SubVariant": null,
      "BrandOwnerGLN": null,
      "ConsumerUnitFlag": false,
      "eCommProductName": null,
      "eCommProductFeature": null,
      "GeneralMktDescription": null,
      "GTIN": "00054400001648",
      "Name": "A.1. Texas Mesquite Steakhouse Marinade 16 fl oz Squeeze Bottle 16 oz",
      "NetWeightOZ": 0,
      "PackagingTypeCode": null,
      "ParentID": null,
      "PrepTypeName": null,
      "ProductDescriptionShort": null,
      "ProductDescriptionGrid": null,
      "seoFriendlyName": "",
      "ServingsOfTradeItemUnit": null,
      "ServingSuggestions": null,
      "ThumbnailPath": null,
      "UnitDescriptorCode": null,
      "UPC": null,
      "WilkeUPC": null,
      "UserTypeID": null,
      "LanguageCode": null,
      "CreatedDate": "2016-11-14T06:24:01.59",
      "IsNewProduct": false,
      "IsMappedProduct": false
    },
    {
      "PID": -13,
      "ProductID": null,
      "BrandName": "A.1.",
      "FunctionalName": null,
      "VariantName": null,
      "SubVariant": null,
      "BrandOwnerGLN": null,
      "ConsumerUnitFlag": false,
      "eCommProductName": null,
      "eCommProductFeature": null,
      "GeneralMktDescription": null,
      "GTIN": "00054400001716",
      "Name": "A.1. Chicago Steakhouse Marinade 16  fl oz Squeeze Bottle 16 oz",
      "NetWeightOZ": 0,
      "PackagingTypeCode": null,
      "ParentID": null,
      "PrepTypeName": null,
      "ProductDescriptionShort": null,
      "ProductDescriptionGrid": null,
      "seoFriendlyName": "",
      "ServingsOfTradeItemUnit": null,
      "ServingSuggestions": null,
      "ThumbnailPath": null,
      "UnitDescriptorCode": null,
      "UPC": null,
      "WilkeUPC": null,
      "UserTypeID": null,
      "LanguageCode": null,
      "CreatedDate": "2016-11-14T06:24:03.75",
      "IsNewProduct": false,
      "IsMappedProduct": false
    },
    {
      "PID": -14,
      "ProductID": null,
      "BrandName": "A.1.",
      "FunctionalName": null,
      "VariantName": null,
      "SubVariant": null,
      "BrandOwnerGLN": null,
      "ConsumerUnitFlag": false,
      "eCommProductName": null,
      "eCommProductFeature": null,
      "GeneralMktDescription": null,
      "GTIN": "00054400001723",
      "Name": "A.1. New Orleans Cajun Steakhouse Marinade 16  fl oz Squeeze Bottle 16 oz",
      "NetWeightOZ": 0,
      "PackagingTypeCode": null,
      "ParentID": null,
      "PrepTypeName": null,
      "ProductDescriptionShort": null,
      "ProductDescriptionGrid": null,
      "seoFriendlyName": "",
      "ServingsOfTradeItemUnit": null,
      "ServingSuggestions": null,
      "ThumbnailPath": null,
      "UnitDescriptorCode": null,
      "UPC": null,
      "WilkeUPC": null,
      "UserTypeID": null,
      "LanguageCode": null,
      "CreatedDate": "2016-11-14T06:24:04.88",
      "IsNewProduct": false,
      "IsMappedProduct": false
    },
    {
      "PID": -15,
      "ProductID": null,
      "BrandName": "A.1.",
      "FunctionalName": null,
      "VariantName": null,
      "SubVariant": null,
      "BrandOwnerGLN": null,
      "ConsumerUnitFlag": false,
      "eCommProductName": null,
      "eCommProductFeature": null,
      "GeneralMktDescription": null,
      "GTIN": "00054400001778",
      "Name": "A.1. Cracked Peppercorn Sauce 10 oz. Bottle 10 oz",
      "NetWeightOZ": 0,
      "PackagingTypeCode": null,
      "ParentID": null,
      "PrepTypeName": null,
      "ProductDescriptionShort": null,
      "ProductDescriptionGrid": null,
      "seoFriendlyName": "",
      "ServingsOfTradeItemUnit": null,
      "ServingSuggestions": null,
      "ThumbnailPath": null,
      "UnitDescriptorCode": null,
      "UPC": null,
      "WilkeUPC": null,
      "UserTypeID": null,
      "LanguageCode": null,
      "CreatedDate": "2016-11-14T06:24:30.307",
      "IsNewProduct": false,
      "IsMappedProduct": false
    },
    {
      "PID": -16,
      "ProductID": null,
      "BrandName": "A.1.",
      "FunctionalName": null,
      "VariantName": null,
      "SubVariant": null,
      "BrandOwnerGLN": null,
      "ConsumerUnitFlag": false,
      "eCommProductName": null,
      "eCommProductFeature": null,
      "GeneralMktDescription": null,
      "GTIN": "00054400001785",
      "Name": "A.1. Sweet Hickory Sauce 10 oz. Bottle 10 oz",
      "NetWeightOZ": 0,
      "PackagingTypeCode": null,
      "ParentID": null,
      "PrepTypeName": null,
      "ProductDescriptionShort": null,
      "ProductDescriptionGrid": null,
      "seoFriendlyName": "",
      "ServingsOfTradeItemUnit": null,
      "ServingSuggestions": null,
      "ThumbnailPath": null,
      "UnitDescriptorCode": null,
      "UPC": null,
      "WilkeUPC": null,
      "UserTypeID": null,
      "LanguageCode": null,
      "CreatedDate": "2016-11-14T06:24:31.477",
      "IsNewProduct": false,
      "IsMappedProduct": false
    },
    {
      "PID": -17,
      "ProductID": null,
      "BrandName": "A.1.",
      "FunctionalName": null,
      "VariantName": null,
      "SubVariant": null,
      "BrandOwnerGLN": null,
      "ConsumerUnitFlag": false,
      "eCommProductName": null,
      "eCommProductFeature": null,
      "GeneralMktDescription": null,
      "GTIN": "00054400002010",
      "Name": "A1 1 GA BURGER SAUCE  THICK AND HEARTY     1 BOTTLE EACH 160 oz",
      "NetWeightOZ": 0,
      "PackagingTypeCode": null,
      "ParentID": null,
      "PrepTypeName": null,
      "ProductDescriptionShort": null,
      "ProductDescriptionGrid": null,
      "seoFriendlyName": "",
      "ServingsOfTradeItemUnit": null,
      "ServingSuggestions": null,
      "ThumbnailPath": null,
      "UnitDescriptorCode": null,
      "UPC": null,
      "WilkeUPC": null,
      "UserTypeID": null,
      "LanguageCode": null,
      "CreatedDate": "2016-11-14T06:24:32.16",
      "IsNewProduct": false,
      "IsMappedProduct": false
    },
    {
      "PID": -18,
      "ProductID": null,
      "BrandName": "A.1.",
      "FunctionalName": null,
      "VariantName": null,
      "SubVariant": null,
      "BrandOwnerGLN": null,
      "ConsumerUnitFlag": false,
      "eCommProductName": null,
      "eCommProductFeature": null,
      "GeneralMktDescription": null,
      "GTIN": "00054400002591",
      "Name": "A.1. Bold Original Dry Rub 4.5 oz Shaker Can 4.5 oz",
      "NetWeightOZ": 0,
      "PackagingTypeCode": null,
      "ParentID": null,
      "PrepTypeName": null,
      "ProductDescriptionShort": null,
      "ProductDescriptionGrid": null,
      "seoFriendlyName": "",
      "ServingsOfTradeItemUnit": null,
      "ServingSuggestions": null,
      "ThumbnailPath": null,
      "UnitDescriptorCode": null,
      "UPC": null,
      "WilkeUPC": null,
      "UserTypeID": null,
      "LanguageCode": null,
      "CreatedDate": "2016-11-14T06:24:42.1",
      "IsNewProduct": false,
      "IsMappedProduct": false
    },
    {
      "PID": -19,
      "ProductID": null,
      "BrandName": "A.1.",
      "FunctionalName": null,
      "VariantName": null,
      "SubVariant": null,
      "BrandOwnerGLN": null,
      "ConsumerUnitFlag": false,
      "eCommProductName": null,
      "eCommProductFeature": null,
      "GeneralMktDescription": null,
      "GTIN": "00054400002607",
      "Name": "A.1. Sweet Mesquite BBQ Dry Rub 4.5 oz Shaker Can 4.5 oz",
      "NetWeightOZ": 0,
      "PackagingTypeCode": null,
      "ParentID": null,
      "PrepTypeName": null,
      "ProductDescriptionShort": null,
      "ProductDescriptionGrid": null,
      "seoFriendlyName": "",
      "ServingsOfTradeItemUnit": null,
      "ServingSuggestions": null,
      "ThumbnailPath": null,
      "UnitDescriptorCode": null,
      "UPC": null,
      "WilkeUPC": null,
      "UserTypeID": null,
      "LanguageCode": null,
      "CreatedDate": "2016-11-14T06:24:42.773",
      "IsNewProduct": false,
      "IsMappedProduct": false
    },
    {
      "PID": -20,
      "ProductID": null,
      "BrandName": "A.1.",
      "FunctionalName": null,
      "VariantName": null,
      "SubVariant": null,
      "BrandOwnerGLN": null,
      "ConsumerUnitFlag": false,
      "eCommProductName": null,
      "eCommProductFeature": null,
      "GeneralMktDescription": null,
      "GTIN": "00054400002614",
      "Name": "A.1. Garlic & Classic Herbs Dry Rub 4.5 oz Shaker Can 4.5 oz",
      "NetWeightOZ": 0,
      "PackagingTypeCode": null,
      "ParentID": null,
      "PrepTypeName": null,
      "ProductDescriptionShort": null,
      "ProductDescriptionGrid": null,
      "seoFriendlyName": "",
      "ServingsOfTradeItemUnit": null,
      "ServingSuggestions": null,
      "ThumbnailPath": null,
      "UnitDescriptorCode": null,
      "UPC": null,
      "WilkeUPC": null,
      "UserTypeID": null,
      "LanguageCode": null,
      "CreatedDate": "2016-11-14T06:24:43.83",
      "IsNewProduct": false,
      "IsMappedProduct": false
    },
    {
      "PID": -21,
      "ProductID": null,
      "BrandName": "A.1.",
      "FunctionalName": null,
      "VariantName": null,
      "SubVariant": null,
      "BrandOwnerGLN": null,
      "ConsumerUnitFlag": false,
      "eCommProductName": null,
      "eCommProductFeature": null,
      "GeneralMktDescription": null,
      "GTIN": "00054400002621",
      "Name": "A.1. Cracked Peppercorn Dry Rub 4.5 oz Shaker Can 4.5 oz",
      "NetWeightOZ": 0,
      "PackagingTypeCode": null,
      "ParentID": null,
      "PrepTypeName": null,
      "ProductDescriptionShort": null,
      "ProductDescriptionGrid": null,
      "seoFriendlyName": "",
      "ServingsOfTradeItemUnit": null,
      "ServingSuggestions": null,
      "ThumbnailPath": null,
      "UnitDescriptorCode": null,
      "UPC": null,
      "WilkeUPC": null,
      "UserTypeID": null,
      "LanguageCode": null,
      "CreatedDate": "2016-11-14T06:24:44.55",
      "IsNewProduct": false,
      "IsMappedProduct": false
    },
    {
      "PID": -22,
      "ProductID": null,
      "BrandName": "A.1.",
      "FunctionalName": null,
      "VariantName": null,
      "SubVariant": null,
      "BrandOwnerGLN": null,
      "ConsumerUnitFlag": false,
      "eCommProductName": null,
      "eCommProductFeature": null,
      "GeneralMktDescription": null,
      "GTIN": "00054400003086",
      "Name": "A1 1 GA SAUCE  SMOKY BLACK PEPPER     1 JUG EACH 128 oz",
      "NetWeightOZ": 0,
      "PackagingTypeCode": null,
      "ParentID": null,
      "PrepTypeName": null,
      "ProductDescriptionShort": null,
      "ProductDescriptionGrid": null,
      "seoFriendlyName": "",
      "ServingsOfTradeItemUnit": null,
      "ServingSuggestions": null,
      "ThumbnailPath": null,
      "UnitDescriptorCode": null,
      "UPC": null,
      "WilkeUPC": null,
      "UserTypeID": null,
      "LanguageCode": null,
      "CreatedDate": "2016-11-14T06:24:11.3",
      "IsNewProduct": false,
      "IsMappedProduct": false
    },
    {
      "PID": -23,
      "ProductID": null,
      "BrandName": "A.1.",
      "FunctionalName": null,
      "VariantName": null,
      "SubVariant": null,
      "BrandOwnerGLN": null,
      "ConsumerUnitFlag": false,
      "eCommProductName": null,
      "eCommProductFeature": null,
      "GeneralMktDescription": null,
      "GTIN": "00054400003093",
      "Name": "A1 1 GA SPECIALTY BATCH SAUCE  SPICY CHIPOTLE     1 JUG EACH 128 oz",
      "NetWeightOZ": 0,
      "PackagingTypeCode": null,
      "ParentID": null,
      "PrepTypeName": null,
      "ProductDescriptionShort": null,
      "ProductDescriptionGrid": null,
      "seoFriendlyName": "",
      "ServingsOfTradeItemUnit": null,
      "ServingSuggestions": null,
      "ThumbnailPath": null,
      "UnitDescriptorCode": null,
      "UPC": null,
      "WilkeUPC": null,
      "UserTypeID": null,
      "LanguageCode": null,
      "CreatedDate": "2016-11-14T06:24:12.267",
      "IsNewProduct": false,
      "IsMappedProduct": false
    },
    {
      "PID": -24,
      "ProductID": null,
      "BrandName": "A.1.",
      "FunctionalName": null,
      "VariantName": null,
      "SubVariant": null,
      "BrandOwnerGLN": null,
      "ConsumerUnitFlag": false,
      "eCommProductName": null,
      "eCommProductFeature": null,
      "GeneralMktDescription": null,
      "GTIN": "00054400003147",
      "Name": "A1 1 GA SAUCE-STEAK  SWEET CHILI GARLIC     1 JUG EACH 128 oz",
      "NetWeightOZ": 0,
      "PackagingTypeCode": null,
      "ParentID": null,
      "PrepTypeName": null,
      "ProductDescriptionShort": null,
      "ProductDescriptionGrid": null,
      "seoFriendlyName": "",
      "ServingsOfTradeItemUnit": null,
      "ServingSuggestions": null,
      "ThumbnailPath": null,
      "UnitDescriptorCode": null,
      "UPC": null,
      "WilkeUPC": null,
      "UserTypeID": null,
      "LanguageCode": null,
      "CreatedDate": "2016-11-14T06:24:36.11",
      "IsNewProduct": false,
      "IsMappedProduct": false
    },
    {
      "PID": -25,
      "ProductID": null,
      "BrandName": "A.1.",
      "FunctionalName": null,
      "VariantName": null,
      "SubVariant": null,
      "BrandOwnerGLN": null,
      "ConsumerUnitFlag": false,
      "eCommProductName": null,
      "eCommProductFeature": null,
      "GeneralMktDescription": null,
      "GTIN": "00054400003239",
      "Name": "A.1. Smoky Black Pepper Sauce 10 oz. Bottle 10 oz",
      "NetWeightOZ": 0,
      "PackagingTypeCode": null,
      "ParentID": null,
      "PrepTypeName": null,
      "ProductDescriptionShort": null,
      "ProductDescriptionGrid": null,
      "seoFriendlyName": "",
      "ServingsOfTradeItemUnit": null,
      "ServingSuggestions": null,
      "ThumbnailPath": null,
      "UnitDescriptorCode": null,
      "UPC": null,
      "WilkeUPC": null,
      "UserTypeID": null,
      "LanguageCode": null,
      "CreatedDate": "2016-11-14T06:24:13.237",
      "IsNewProduct": false,
      "IsMappedProduct": false
    },
    {
      "PID": -26,
      "ProductID": null,
      "BrandName": "A.1.",
      "FunctionalName": null,
      "VariantName": null,
      "SubVariant": null,
      "BrandOwnerGLN": null,
      "ConsumerUnitFlag": false,
      "eCommProductName": null,
      "eCommProductFeature": null,
      "GeneralMktDescription": null,
      "GTIN": "00054400003246",
      "Name": "A.1. Spicy Chipotle Sauce 10 oz. Bottle 10 oz",
      "NetWeightOZ": 0,
      "PackagingTypeCode": null,
      "ParentID": null,
      "PrepTypeName": null,
      "ProductDescriptionShort": null,
      "ProductDescriptionGrid": null,
      "seoFriendlyName": "",
      "ServingsOfTradeItemUnit": null,
      "ServingSuggestions": null,
      "ThumbnailPath": null,
      "UnitDescriptorCode": null,
      "UPC": null,
      "WilkeUPC": null,
      "UserTypeID": null,
      "LanguageCode": null,
      "CreatedDate": "2016-11-14T06:24:14.347",
      "IsNewProduct": false,
      "IsMappedProduct": false
    },
    {
      "PID": -27,
      "ProductID": null,
      "BrandName": "A.1.",
      "FunctionalName": null,
      "VariantName": null,
      "SubVariant": null,
      "BrandOwnerGLN": null,
      "ConsumerUnitFlag": false,
      "eCommProductName": null,
      "eCommProductFeature": null,
      "GeneralMktDescription": null,
      "GTIN": "00054400003253",
      "Name": "A.1. Sweet Chili Garlic Sauce 10 oz. Bottle 10 oz",
      "NetWeightOZ": 0,
      "PackagingTypeCode": null,
      "ParentID": null,
      "PrepTypeName": null,
      "ProductDescriptionShort": null,
      "ProductDescriptionGrid": null,
      "seoFriendlyName": "",
      "ServingsOfTradeItemUnit": null,
      "ServingSuggestions": null,
      "ThumbnailPath": null,
      "UnitDescriptorCode": null,
      "UPC": null,
      "WilkeUPC": null,
      "UserTypeID": null,
      "LanguageCode": null,
      "CreatedDate": "2016-11-14T06:24:15.453",
      "IsNewProduct": false,
      "IsMappedProduct": false
    },
    {
      "PID": -28,
      "ProductID": null,
      "BrandName": "A.1.",
      "FunctionalName": null,
      "VariantName": null,
      "SubVariant": null,
      "BrandOwnerGLN": null,
      "ConsumerUnitFlag": false,
      "eCommProductName": null,
      "eCommProductFeature": null,
      "GeneralMktDescription": null,
      "GTIN": "00054400003260",
      "Name": "A.1. Original Sauce 4-10 oz. Bottles 40 oz",
      "NetWeightOZ": 0,
      "PackagingTypeCode": null,
      "ParentID": null,
      "PrepTypeName": null,
      "ProductDescriptionShort": null,
      "ProductDescriptionGrid": null,
      "seoFriendlyName": "",
      "ServingsOfTradeItemUnit": null,
      "ServingSuggestions": null,
      "ThumbnailPath": null,
      "UnitDescriptorCode": null,
      "UPC": null,
      "WilkeUPC": null,
      "UserTypeID": null,
      "LanguageCode": null,
      "CreatedDate": "2016-11-14T06:24:37.007",
      "IsNewProduct": false,
      "IsMappedProduct": false
    },
    {
      "PID": -29,
      "ProductID": null,
      "BrandName": "A.1.",
      "FunctionalName": null,
      "VariantName": null,
      "SubVariant": null,
      "BrandOwnerGLN": null,
      "ConsumerUnitFlag": false,
      "eCommProductName": null,
      "eCommProductFeature": null,
      "GeneralMktDescription": null,
      "GTIN": "00054400012774",
      "Name": "A.1. Bold & Spicy Sauce 10 oz. Bottle 10 oz",
      "NetWeightOZ": 0,
      "PackagingTypeCode": null,
      "ParentID": null,
      "PrepTypeName": null,
      "ProductDescriptionShort": null,
      "ProductDescriptionGrid": null,
      "seoFriendlyName": "",
      "ServingsOfTradeItemUnit": null,
      "ServingSuggestions": null,
      "ThumbnailPath": null,
      "UnitDescriptorCode": null,
      "UPC": null,
      "WilkeUPC": null,
      "UserTypeID": null,
      "LanguageCode": null,
      "CreatedDate": "2016-11-14T06:24:37.83",
      "IsNewProduct": false,
      "IsMappedProduct": false
    },
    {
      "PID": -30,
      "ProductID": null,
      "BrandName": "A.1.",
      "FunctionalName": null,
      "VariantName": null,
      "SubVariant": null,
      "BrandOwnerGLN": null,
      "ConsumerUnitFlag": false,
      "eCommProductName": null,
      "eCommProductFeature": null,
      "GeneralMktDescription": null,
      "GTIN": "00054400012781",
      "Name": "A.1. Thick & Hearty Sauce 10 oz. Bottle 10 oz",
      "NetWeightOZ": 0,
      "PackagingTypeCode": null,
      "ParentID": null,
      "PrepTypeName": null,
      "ProductDescriptionShort": null,
      "ProductDescriptionGrid": null,
      "seoFriendlyName": "",
      "ServingsOfTradeItemUnit": null,
      "ServingSuggestions": null,
      "ThumbnailPath": null,
      "UnitDescriptorCode": null,
      "UPC": null,
      "WilkeUPC": null,
      "UserTypeID": null,
      "LanguageCode": null,
      "CreatedDate": "2016-11-14T06:24:39.093",
      "IsNewProduct": false,
      "IsMappedProduct": false
    },
    {
      "PID": -31,
      "ProductID": null,
      "BrandName": "A.1.",
      "FunctionalName": null,
      "VariantName": null,
      "SubVariant": null,
      "BrandOwnerGLN": null,
      "ConsumerUnitFlag": false,
      "eCommProductName": null,
      "eCommProductFeature": null,
      "GeneralMktDescription": null,
      "GTIN": "00054400200041",
      "Name": "A.1. Original Sauce 2-15 oz. Bottles 30 oz",
      "NetWeightOZ": 0,
      "PackagingTypeCode": null,
      "ParentID": null,
      "PrepTypeName": null,
      "ProductDescriptionShort": null,
      "ProductDescriptionGrid": null,
      "seoFriendlyName": "",
      "ServingsOfTradeItemUnit": null,
      "ServingSuggestions": null,
      "ThumbnailPath": null,
      "UnitDescriptorCode": null,
      "UPC": null,
      "WilkeUPC": null,
      "UserTypeID": null,
      "LanguageCode": null,
      "CreatedDate": "2016-11-14T06:24:41.06",
      "IsNewProduct": false,
      "IsMappedProduct": false
    },
    {
      "PID": -32,
      "ProductID": null,
      "BrandName": "A.1.",
      "FunctionalName": null,
      "VariantName": null,
      "SubVariant": null,
      "BrandOwnerGLN": null,
      "ConsumerUnitFlag": false,
      "eCommProductName": null,
      "eCommProductFeature": null,
      "GeneralMktDescription": null,
      "GTIN": "00054400200218",
      "Name": "A.1. New York Steakhouse Marinade 16 fl oz Squeeze Bottle 16 oz",
      "NetWeightOZ": 0,
      "PackagingTypeCode": null,
      "ParentID": null,
      "PrepTypeName": null,
      "ProductDescriptionShort": null,
      "ProductDescriptionGrid": null,
      "seoFriendlyName": "",
      "ServingsOfTradeItemUnit": null,
      "ServingSuggestions": null,
      "ThumbnailPath": null,
      "UnitDescriptorCode": null,
      "UPC": null,
      "WilkeUPC": null,
      "UserTypeID": null,
      "LanguageCode": null,
      "CreatedDate": "2016-11-14T06:24:09.727",
      "IsNewProduct": false,
      "IsMappedProduct": false
    }
  ],
  "Variants": [],
  "BrandNames": [],
  "SubVariants": [],
  "FunctionalNames": [],
  "ProductBrands": [],
  "ProductImages": [],
  "ProductAllergens": []
}