{
  "ErrorFlag": false,
  "ProductFilters": null,
  "ErrorMessage": null,
  "SearchString": null,
  "SatrtNumber": 1,
  "EndNumber": 500,
  "SiteCategoryRoot": 0,
  "SiteID": 0,
  "LanguageCode": null,
  "PID": 0,
  "ProductIDList": null,
  "BrandID": 0,
  "OrderBy": null,
  "OrderByColumn": 1,
  "GTINs": null,
  "Direction": 1,
  "TotalRecords": 26,
  "PageNumber": 0,
  "PageSize": 0,
  "PageCount": -2147483648,
  "AddedOrModifiedDate": "0001-01-01T00:00:00",
  "Products": [
    {
      "PID": -1,
      "ProductID": null,
      "BrandName": "CAPRI SUN",
      "FunctionalName": null,
      "VariantName": null,
      "SubVariant": null,
      "BrandOwnerGLN": null,
      "ConsumerUnitFlag": false,
      "eCommProductName": null,
      "eCommProductFeature": null,
      "GeneralMktDescription": null,
      "GTIN": "00087684000946",
      "Name": "Capri Sun Original Mountain Cooler 60 fl oz Box (10-6 fl oz Pouches) 60 oz",
      "NetWeightOZ": 0,
      "PackagingTypeCode": null,
      "ParentID": null,
      "PrepTypeName": null,
      "ProductDescriptionShort": null,
      "ProductDescriptionGrid": null,
      "seoFriendlyName": "",
      "ServingsOfTradeItemUnit": null,
      "ServingSuggestions": null,
      "ThumbnailPath": null,
      "UnitDescriptorCode": null,
      "UPC": null,
      "WilkeUPC": null,
      "UserTypeID": null,
      "LanguageCode": null,
      "CreatedDate": "2016-11-14T06:28:35.64",
      "IsNewProduct": false,
      "IsMappedProduct": false
    },
    {
      "PID": -2,
      "ProductID": null,
      "BrandName": "CAPRI SUN",
      "FunctionalName": null,
      "VariantName": null,
      "SubVariant": null,
      "BrandOwnerGLN": null,
      "ConsumerUnitFlag": false,
      "eCommProductName": null,
      "eCommProductFeature": null,
      "GeneralMktDescription": null,
      "GTIN": "00087684000960",
      "Name": "Capri Sun Original Coastal Cooler 60 fl oz Box (10-6 fl oz Pouches) 60 oz",
      "NetWeightOZ": 0,
      "PackagingTypeCode": null,
      "ParentID": null,
      "PrepTypeName": null,
      "ProductDescriptionShort": null,
      "ProductDescriptionGrid": null,
      "seoFriendlyName": "",
      "ServingsOfTradeItemUnit": null,
      "ServingSuggestions": null,
      "ThumbnailPath": null,
      "UnitDescriptorCode": null,
      "UPC": null,
      "WilkeUPC": null,
      "UserTypeID": null,
      "LanguageCode": null,
      "CreatedDate": "2016-11-14T06:28:37.057",
      "IsNewProduct": false,
      "IsMappedProduct": false
    },
    {
      "PID": -3,
      "ProductID": null,
      "BrandName": "CAPRI SUN",
      "FunctionalName": null,
      "VariantName": null,
      "SubVariant": null,
      "BrandOwnerGLN": null,
      "ConsumerUnitFlag": false,
      "eCommProductName": null,
      "eCommProductFeature": null,
      "GeneralMktDescription": null,
      "GTIN": "00087684000977",
      "Name": "Capri Sun Original Splash Cooler 60 fl oz Box (10-6 fl oz Pouches) 60 oz",
      "NetWeightOZ": 0,
      "PackagingTypeCode": null,
      "ParentID": null,
      "PrepTypeName": null,
      "ProductDescriptionShort": null,
      "ProductDescriptionGrid": null,
      "seoFriendlyName": "",
      "ServingsOfTradeItemUnit": null,
      "ServingSuggestions": null,
      "ThumbnailPath": null,
      "UnitDescriptorCode": null,
      "UPC": null,
      "WilkeUPC": null,
      "UserTypeID": null,
      "LanguageCode": null,
      "CreatedDate": "2016-11-14T06:28:38.017",
      "IsNewProduct": false,
      "IsMappedProduct": false
    },
    {
      "PID": -4,
      "ProductID": null,
      "BrandName": "CAPRI SUN",
      "FunctionalName": null,
      "VariantName": null,
      "SubVariant": null,
      "BrandOwnerGLN": null,
      "ConsumerUnitFlag": false,
      "eCommProductName": null,
      "eCommProductFeature": null,
      "GeneralMktDescription": null,
      "GTIN": "00087684000984",
      "Name": "Capri Sun Original Red Berry 60 fl oz Box (10-6 fl oz Pouches) 60 oz",
      "NetWeightOZ": 0,
      "PackagingTypeCode": null,
      "ParentID": null,
      "PrepTypeName": null,
      "ProductDescriptionShort": null,
      "ProductDescriptionGrid": null,
      "seoFriendlyName": "",
      "ServingsOfTradeItemUnit": null,
      "ServingSuggestions": null,
      "ThumbnailPath": null,
      "UnitDescriptorCode": null,
      "UPC": null,
      "WilkeUPC": null,
      "UserTypeID": null,
      "LanguageCode": null,
      "CreatedDate": "2016-11-14T06:28:38.913",
      "IsNewProduct": false,
      "IsMappedProduct": false
    },
    {
      "PID": -5,
      "ProductID": null,
      "BrandName": "CAPRI SUN",
      "FunctionalName": null,
      "VariantName": null,
      "SubVariant": null,
      "BrandOwnerGLN": null,
      "ConsumerUnitFlag": false,
      "eCommProductName": null,
      "eCommProductFeature": null,
      "GeneralMktDescription": null,
      "GTIN": "00087684000991",
      "Name": "Capri Sun Original Strawberry Kiwi 60 fl oz Box (10-6 fl oz Pouches) 60 oz",
      "NetWeightOZ": 0,
      "PackagingTypeCode": null,
      "ParentID": null,
      "PrepTypeName": null,
      "ProductDescriptionShort": null,
      "ProductDescriptionGrid": null,
      "seoFriendlyName": "",
      "ServingsOfTradeItemUnit": null,
      "ServingSuggestions": null,
      "ThumbnailPath": null,
      "UnitDescriptorCode": null,
      "UPC": null,
      "WilkeUPC": null,
      "UserTypeID": null,
      "LanguageCode": null,
      "CreatedDate": "2016-11-14T06:28:39.883",
      "IsNewProduct": false,
      "IsMappedProduct": false
    },
    {
      "PID": -6,
      "ProductID": null,
      "BrandName": "CAPRI SUN",
      "FunctionalName": null,
      "VariantName": null,
      "SubVariant": null,
      "BrandOwnerGLN": null,
      "ConsumerUnitFlag": false,
      "eCommProductName": null,
      "eCommProductFeature": null,
      "GeneralMktDescription": null,
      "GTIN": "00087684001004",
      "Name": "Capri Sun Original Wild Cherry 60 fl oz Box (10-6 fl oz Pouches) 60 oz",
      "NetWeightOZ": 0,
      "PackagingTypeCode": null,
      "ParentID": null,
      "PrepTypeName": null,
      "ProductDescriptionShort": null,
      "ProductDescriptionGrid": null,
      "seoFriendlyName": "",
      "ServingsOfTradeItemUnit": null,
      "ServingSuggestions": null,
      "ThumbnailPath": null,
      "UnitDescriptorCode": null,
      "UPC": null,
      "WilkeUPC": null,
      "UserTypeID": null,
      "LanguageCode": null,
      "CreatedDate": "2016-11-14T06:28:40.997",
      "IsNewProduct": false,
      "IsMappedProduct": false
    },
    {
      "PID": -7,
      "ProductID": null,
      "BrandName": "CAPRI SUN",
      "FunctionalName": null,
      "VariantName": null,
      "SubVariant": null,
      "BrandOwnerGLN": null,
      "ConsumerUnitFlag": false,
      "eCommProductName": null,
      "eCommProductFeature": null,
      "GeneralMktDescription": null,
      "GTIN": "00087684001011",
      "Name": "Capri Sun Original Strawberry 60 fl oz Box (10-6 fl oz Pouches) 60 oz",
      "NetWeightOZ": 0,
      "PackagingTypeCode": null,
      "ParentID": null,
      "PrepTypeName": null,
      "ProductDescriptionShort": null,
      "ProductDescriptionGrid": null,
      "seoFriendlyName": "",
      "ServingsOfTradeItemUnit": null,
      "ServingSuggestions": null,
      "ThumbnailPath": null,
      "UnitDescriptorCode": null,
      "UPC": null,
      "WilkeUPC": null,
      "UserTypeID": null,
      "LanguageCode": null,
      "CreatedDate": "2016-11-14T06:28:42.02",
      "IsNewProduct": false,
      "IsMappedProduct": false
    },
    {
      "PID": -8,
      "ProductID": null,
      "BrandName": "CAPRI SUN",
      "FunctionalName": null,
      "VariantName": null,
      "SubVariant": null,
      "BrandOwnerGLN": null,
      "ConsumerUnitFlag": false,
      "eCommProductName": null,
      "eCommProductFeature": null,
      "GeneralMktDescription": null,
      "GTIN": "00087684001028",
      "Name": "Capri Sun Original Tropical Punch 60 fl oz Box (10-6 fl oz Pouches) 60 oz",
      "NetWeightOZ": 0,
      "PackagingTypeCode": null,
      "ParentID": null,
      "PrepTypeName": null,
      "ProductDescriptionShort": null,
      "ProductDescriptionGrid": null,
      "seoFriendlyName": "",
      "ServingsOfTradeItemUnit": null,
      "ServingSuggestions": null,
      "ThumbnailPath": null,
      "UnitDescriptorCode": null,
      "UPC": null,
      "WilkeUPC": null,
      "UserTypeID": null,
      "LanguageCode": null,
      "CreatedDate": "2016-11-14T06:28:43.097",
      "IsNewProduct": false,
      "IsMappedProduct": false
    },
    {
      "PID": -9,
      "ProductID": null,
      "BrandName": "CAPRI SUN",
      "FunctionalName": null,
      "VariantName": null,
      "SubVariant": null,
      "BrandOwnerGLN": null,
      "ConsumerUnitFlag": false,
      "eCommProductName": null,
      "eCommProductFeature": null,
      "GeneralMktDescription": null,
      "GTIN": "00087684001035",
      "Name": "Capri Sun Original Grape 60 fl oz Box (10-6 fl oz Pouches) 60 oz",
      "NetWeightOZ": 0,
      "PackagingTypeCode": null,
      "ParentID": null,
      "PrepTypeName": null,
      "ProductDescriptionShort": null,
      "ProductDescriptionGrid": null,
      "seoFriendlyName": "",
      "ServingsOfTradeItemUnit": null,
      "ServingSuggestions": null,
      "ThumbnailPath": null,
      "UnitDescriptorCode": null,
      "UPC": null,
      "WilkeUPC": null,
      "UserTypeID": null,
      "LanguageCode": null,
      "CreatedDate": "2016-11-14T06:28:44.143",
      "IsNewProduct": false,
      "IsMappedProduct": false
    },
    {
      "PID": -10,
      "ProductID": null,
      "BrandName": "CAPRI SUN",
      "FunctionalName": null,
      "VariantName": null,
      "SubVariant": null,
      "BrandOwnerGLN": null,
      "ConsumerUnitFlag": false,
      "eCommProductName": null,
      "eCommProductFeature": null,
      "GeneralMktDescription": null,
      "GTIN": "00087684001042",
      "Name": "Capri Sun Original Surfer Cooler 60 fl oz Box (10-6 fl oz Pouches) 60 oz",
      "NetWeightOZ": 0,
      "PackagingTypeCode": null,
      "ParentID": null,
      "PrepTypeName": null,
      "ProductDescriptionShort": null,
      "ProductDescriptionGrid": null,
      "seoFriendlyName": "",
      "ServingsOfTradeItemUnit": null,
      "ServingSuggestions": null,
      "ThumbnailPath": null,
      "UnitDescriptorCode": null,
      "UPC": null,
      "WilkeUPC": null,
      "UserTypeID": null,
      "LanguageCode": null,
      "CreatedDate": "2016-11-14T06:28:45.143",
      "IsNewProduct": false,
      "IsMappedProduct": false
    },
    {
      "PID": -11,
      "ProductID": null,
      "BrandName": "CAPRI SUN",
      "FunctionalName": null,
      "VariantName": null,
      "SubVariant": null,
      "BrandOwnerGLN": null,
      "ConsumerUnitFlag": false,
      "eCommProductName": null,
      "eCommProductFeature": null,
      "GeneralMktDescription": null,
      "GTIN": "00087684001059",
      "Name": "Capri Sun Original Orange 60 fl oz Box (10-6 fl oz Pouches) 60 oz",
      "NetWeightOZ": 0,
      "PackagingTypeCode": null,
      "ParentID": null,
      "PrepTypeName": null,
      "ProductDescriptionShort": null,
      "ProductDescriptionGrid": null,
      "seoFriendlyName": "",
      "ServingsOfTradeItemUnit": null,
      "ServingSuggestions": null,
      "ThumbnailPath": null,
      "UnitDescriptorCode": null,
      "UPC": null,
      "WilkeUPC": null,
      "UserTypeID": null,
      "LanguageCode": null,
      "CreatedDate": "2016-11-14T06:28:46.04",
      "IsNewProduct": false,
      "IsMappedProduct": false
    },
    {
      "PID": -12,
      "ProductID": null,
      "BrandName": "CAPRI SUN",
      "FunctionalName": null,
      "VariantName": null,
      "SubVariant": null,
      "BrandOwnerGLN": null,
      "ConsumerUnitFlag": false,
      "eCommProductName": null,
      "eCommProductFeature": null,
      "GeneralMktDescription": null,
      "GTIN": "00087684001066",
      "Name": "Capri Sun Original Lemonade 60 fl oz Box (10-6 fl oz Pouches) 60 oz",
      "NetWeightOZ": 0,
      "PackagingTypeCode": null,
      "ParentID": null,
      "PrepTypeName": null,
      "ProductDescriptionShort": null,
      "ProductDescriptionGrid": null,
      "seoFriendlyName": "",
      "ServingsOfTradeItemUnit": null,
      "ServingSuggestions": null,
      "ThumbnailPath": null,
      "UnitDescriptorCode": null,
      "UPC": null,
      "WilkeUPC": null,
      "UserTypeID": null,
      "LanguageCode": null,
      "CreatedDate": "2016-11-14T06:28:47.037",
      "IsNewProduct": false,
      "IsMappedProduct": false
    },
    {
      "PID": -13,
      "ProductID": null,
      "BrandName": "CAPRI SUN",
      "FunctionalName": null,
      "VariantName": null,
      "SubVariant": null,
      "BrandOwnerGLN": null,
      "ConsumerUnitFlag": false,
      "eCommProductName": null,
      "eCommProductFeature": null,
      "GeneralMktDescription": null,
      "GTIN": "00087684001073",
      "Name": "Capri Sun Original Fruit Punch 60 fl oz Box (10-6 fl oz Pouches) 60 oz",
      "NetWeightOZ": 0,
      "PackagingTypeCode": null,
      "ParentID": null,
      "PrepTypeName": null,
      "ProductDescriptionShort": null,
      "ProductDescriptionGrid": null,
      "seoFriendlyName": "",
      "ServingsOfTradeItemUnit": null,
      "ServingSuggestions": null,
      "ThumbnailPath": null,
      "UnitDescriptorCode": null,
      "UPC": null,
      "WilkeUPC": null,
      "UserTypeID": null,
      "LanguageCode": null,
      "CreatedDate": "2016-11-14T06:28:47.683",
      "IsNewProduct": false,
      "IsMappedProduct": false
    },
    {
      "PID": -14,
      "ProductID": null,
      "BrandName": "CAPRI SUN",
      "FunctionalName": null,
      "VariantName": null,
      "SubVariant": null,
      "BrandOwnerGLN": null,
      "ConsumerUnitFlag": false,
      "eCommProductName": null,
      "eCommProductFeature": null,
      "GeneralMktDescription": null,
      "GTIN": "00087684001127",
      "Name": "Capri Sun Roarin' Waters Tropical Fruit 60 fl oz Box (10-6 fl oz Pouches) 60 oz",
      "NetWeightOZ": 0,
      "PackagingTypeCode": null,
      "ParentID": null,
      "PrepTypeName": null,
      "ProductDescriptionShort": null,
      "ProductDescriptionGrid": null,
      "seoFriendlyName": "",
      "ServingsOfTradeItemUnit": null,
      "ServingSuggestions": null,
      "ThumbnailPath": null,
      "UnitDescriptorCode": null,
      "UPC": null,
      "WilkeUPC": null,
      "UserTypeID": null,
      "LanguageCode": null,
      "CreatedDate": "2016-11-14T06:29:02.737",
      "IsNewProduct": false,
      "IsMappedProduct": false
    },
    {
      "PID": -15,
      "ProductID": null,
      "BrandName": "CAPRI SUN",
      "FunctionalName": null,
      "VariantName": null,
      "SubVariant": null,
      "BrandOwnerGLN": null,
      "ConsumerUnitFlag": false,
      "eCommProductName": null,
      "eCommProductFeature": null,
      "GeneralMktDescription": null,
      "GTIN": "00087684001134",
      "Name": "Capri Sun Roarin' Waters Wild Cherry 60 fl oz Box (10-6 fl oz Pouches) 60 oz",
      "NetWeightOZ": 0,
      "PackagingTypeCode": null,
      "ParentID": null,
      "PrepTypeName": null,
      "ProductDescriptionShort": null,
      "ProductDescriptionGrid": null,
      "seoFriendlyName": "",
      "ServingsOfTradeItemUnit": null,
      "ServingSuggestions": null,
      "ThumbnailPath": null,
      "UnitDescriptorCode": null,
      "UPC": null,
      "WilkeUPC": null,
      "UserTypeID": null,
      "LanguageCode": null,
      "CreatedDate": "2016-11-14T06:29:03.637",
      "IsNewProduct": false,
      "IsMappedProduct": false
    },
    {
      "PID": -16,
      "ProductID": null,
      "BrandName": "CAPRI SUN",
      "FunctionalName": null,
      "VariantName": null,
      "SubVariant": null,
      "BrandOwnerGLN": null,
      "ConsumerUnitFlag": false,
      "eCommProductName": null,
      "eCommProductFeature": null,
      "GeneralMktDescription": null,
      "GTIN": "00087684001141",
      "Name": "Capri Sun Roarin' Waters Strawberry Kiwi 60 fl oz Box (10-6 fl oz Pouches) 60 oz",
      "NetWeightOZ": 0,
      "PackagingTypeCode": null,
      "ParentID": null,
      "PrepTypeName": null,
      "ProductDescriptionShort": null,
      "ProductDescriptionGrid": null,
      "seoFriendlyName": "",
      "ServingsOfTradeItemUnit": null,
      "ServingSuggestions": null,
      "ThumbnailPath": null,
      "UnitDescriptorCode": null,
      "UPC": null,
      "WilkeUPC": null,
      "UserTypeID": null,
      "LanguageCode": null,
      "CreatedDate": "2016-11-14T06:29:04.433",
      "IsNewProduct": false,
      "IsMappedProduct": false
    },
    {
      "PID": -17,
      "ProductID": null,
      "BrandName": "CAPRI SUN",
      "FunctionalName": null,
      "VariantName": null,
      "SubVariant": null,
      "BrandOwnerGLN": null,
      "ConsumerUnitFlag": false,
      "eCommProductName": null,
      "eCommProductFeature": null,
      "GeneralMktDescription": null,
      "GTIN": "00087684001158",
      "Name": "Capri Sun Roarin' Waters Grape 60 fl oz Box (10-6 fl oz Pouches) 60 oz",
      "NetWeightOZ": 0,
      "PackagingTypeCode": null,
      "ParentID": null,
      "PrepTypeName": null,
      "ProductDescriptionShort": null,
      "ProductDescriptionGrid": null,
      "seoFriendlyName": "",
      "ServingsOfTradeItemUnit": null,
      "ServingSuggestions": null,
      "ThumbnailPath": null,
      "UnitDescriptorCode": null,
      "UPC": null,
      "WilkeUPC": null,
      "UserTypeID": null,
      "LanguageCode": null,
      "CreatedDate": "2016-11-14T06:29:04.983",
      "IsNewProduct": false,
      "IsMappedProduct": false
    },
    {
      "PID": -18,
      "ProductID": null,
      "BrandName": "CAPRI SUN",
      "FunctionalName": null,
      "VariantName": null,
      "SubVariant": null,
      "BrandOwnerGLN": null,
      "ConsumerUnitFlag": false,
      "eCommProductName": null,
      "eCommProductFeature": null,
      "GeneralMktDescription": null,
      "GTIN": "00087684001165",
      "Name": "Capri Sun Roarin' Waters Berry 60 fl oz Box (10-6 fl oz Pouches) 60 oz",
      "NetWeightOZ": 0,
      "PackagingTypeCode": null,
      "ParentID": null,
      "PrepTypeName": null,
      "ProductDescriptionShort": null,
      "ProductDescriptionGrid": null,
      "seoFriendlyName": "",
      "ServingsOfTradeItemUnit": null,
      "ServingSuggestions": null,
      "ThumbnailPath": null,
      "UnitDescriptorCode": null,
      "UPC": null,
      "WilkeUPC": null,
      "UserTypeID": null,
      "LanguageCode": null,
      "CreatedDate": "2016-11-14T06:29:05.74",
      "IsNewProduct": false,
      "IsMappedProduct": false
    },
    {
      "PID": -19,
      "ProductID": null,
      "BrandName": "CAPRI SUN",
      "FunctionalName": null,
      "VariantName": null,
      "SubVariant": null,
      "BrandOwnerGLN": null,
      "ConsumerUnitFlag": false,
      "eCommProductName": null,
      "eCommProductFeature": null,
      "GeneralMktDescription": null,
      "GTIN": "00087684002872",
      "Name": "Capri Sun Roarin' Waters Fruit Punch 60 fl oz Box (10-6 fl oz Pouches) 60 oz",
      "NetWeightOZ": 0,
      "PackagingTypeCode": null,
      "ParentID": null,
      "PrepTypeName": null,
      "ProductDescriptionShort": null,
      "ProductDescriptionGrid": null,
      "seoFriendlyName": "",
      "ServingsOfTradeItemUnit": null,
      "ServingSuggestions": null,
      "ThumbnailPath": null,
      "UnitDescriptorCode": null,
      "UPC": null,
      "WilkeUPC": null,
      "UserTypeID": null,
      "LanguageCode": null,
      "CreatedDate": "2016-11-14T06:29:07.277",
      "IsNewProduct": false,
      "IsMappedProduct": false
    },
    {
      "PID": -20,
      "ProductID": null,
      "BrandName": "CAPRI SUN",
      "FunctionalName": null,
      "VariantName": null,
      "SubVariant": null,
      "BrandOwnerGLN": null,
      "ConsumerUnitFlag": false,
      "eCommProductName": null,
      "eCommProductFeature": null,
      "GeneralMktDescription": null,
      "GTIN": "00087684004166",
      "Name": "Capri Sun SuperV Fruit Punch 60 fl oz Box (10-6 fl oz Pouches) 60 oz",
      "NetWeightOZ": 0,
      "PackagingTypeCode": null,
      "ParentID": null,
      "PrepTypeName": null,
      "ProductDescriptionShort": null,
      "ProductDescriptionGrid": null,
      "seoFriendlyName": "",
      "ServingsOfTradeItemUnit": null,
      "ServingSuggestions": null,
      "ThumbnailPath": null,
      "UnitDescriptorCode": null,
      "UPC": null,
      "WilkeUPC": null,
      "UserTypeID": null,
      "LanguageCode": null,
      "CreatedDate": "2016-11-14T06:29:07.86",
      "IsNewProduct": false,
      "IsMappedProduct": false
    },
    {
      "PID": -21,
      "ProductID": null,
      "BrandName": "CAPRI SUN",
      "FunctionalName": null,
      "VariantName": null,
      "SubVariant": null,
      "BrandOwnerGLN": null,
      "ConsumerUnitFlag": false,
      "eCommProductName": null,
      "eCommProductFeature": null,
      "GeneralMktDescription": null,
      "GTIN": "00087684004173",
      "Name": "Capri Sun SuperV Berry 60 fl oz Box (10-6 fl oz Pouches) 60 oz",
      "NetWeightOZ": 0,
      "PackagingTypeCode": null,
      "ParentID": null,
      "PrepTypeName": null,
      "ProductDescriptionShort": null,
      "ProductDescriptionGrid": null,
      "seoFriendlyName": "",
      "ServingsOfTradeItemUnit": null,
      "ServingSuggestions": null,
      "ThumbnailPath": null,
      "UnitDescriptorCode": null,
      "UPC": null,
      "WilkeUPC": null,
      "UserTypeID": null,
      "LanguageCode": null,
      "CreatedDate": "2016-11-14T06:29:08.67",
      "IsNewProduct": false,
      "IsMappedProduct": false
    },
    {
      "PID": -22,
      "ProductID": null,
      "BrandName": "CAPRI SUN",
      "FunctionalName": null,
      "VariantName": null,
      "SubVariant": null,
      "BrandOwnerGLN": null,
      "ConsumerUnitFlag": false,
      "eCommProductName": null,
      "eCommProductFeature": null,
      "GeneralMktDescription": null,
      "GTIN": "00087684004180",
      "Name": "Capri Sun SuperV Apple 60 fl oz Box (10-6 fl oz Pouches) 60 oz",
      "NetWeightOZ": 0,
      "PackagingTypeCode": null,
      "ParentID": null,
      "PrepTypeName": null,
      "ProductDescriptionShort": null,
      "ProductDescriptionGrid": null,
      "seoFriendlyName": "",
      "ServingsOfTradeItemUnit": null,
      "ServingSuggestions": null,
      "ThumbnailPath": null,
      "UnitDescriptorCode": null,
      "UPC": null,
      "WilkeUPC": null,
      "UserTypeID": null,
      "LanguageCode": null,
      "CreatedDate": "2016-11-14T06:29:09.503",
      "IsNewProduct": false,
      "IsMappedProduct": false
    },
    {
      "PID": -23,
      "ProductID": null,
      "BrandName": "CAPRI SUN",
      "FunctionalName": null,
      "VariantName": null,
      "SubVariant": null,
      "BrandOwnerGLN": null,
      "ConsumerUnitFlag": false,
      "eCommProductName": null,
      "eCommProductFeature": null,
      "GeneralMktDescription": null,
      "GTIN": "00087684006443",
      "Name": "Capri Sun Big Pouch Berry Melon 11.2 fl oz Spouted Pouch 11.1999998092651 oz",
      "NetWeightOZ": 0,
      "PackagingTypeCode": null,
      "ParentID": null,
      "PrepTypeName": null,
      "ProductDescriptionShort": null,
      "ProductDescriptionGrid": null,
      "seoFriendlyName": "",
      "ServingsOfTradeItemUnit": null,
      "ServingSuggestions": null,
      "ThumbnailPath": null,
      "UnitDescriptorCode": null,
      "UPC": null,
      "WilkeUPC": null,
      "UserTypeID": null,
      "LanguageCode": null,
      "CreatedDate": "2016-11-14T06:28:51.85",
      "IsNewProduct": false,
      "IsMappedProduct": false
    },
    {
      "PID": -24,
      "ProductID": null,
      "BrandName": "CAPRI SUN",
      "FunctionalName": null,
      "VariantName": null,
      "SubVariant": null,
      "BrandOwnerGLN": null,
      "ConsumerUnitFlag": false,
      "eCommProductName": null,
      "eCommProductFeature": null,
      "GeneralMktDescription": null,
      "GTIN": "00087684008713",
      "Name": "Capri Sun FRUIT PUNCH ORGANIC 60 fl oz Box (10-6 fl oz Pouches) 60 oz",
      "NetWeightOZ": 0,
      "PackagingTypeCode": null,
      "ParentID": null,
      "PrepTypeName": null,
      "ProductDescriptionShort": null,
      "ProductDescriptionGrid": null,
      "seoFriendlyName": "",
      "ServingsOfTradeItemUnit": null,
      "ServingSuggestions": null,
      "ThumbnailPath": null,
      "UnitDescriptorCode": null,
      "UPC": null,
      "WilkeUPC": null,
      "UserTypeID": null,
      "LanguageCode": null,
      "CreatedDate": "2016-11-14T06:29:00.177",
      "IsNewProduct": false,
      "IsMappedProduct": false
    },
    {
      "PID": -25,
      "ProductID": null,
      "BrandName": "CAPRI SUN",
      "FunctionalName": null,
      "VariantName": null,
      "SubVariant": null,
      "BrandOwnerGLN": null,
      "ConsumerUnitFlag": false,
      "eCommProductName": null,
      "eCommProductFeature": null,
      "GeneralMktDescription": null,
      "GTIN": "00087684008720",
      "Name": "Capri Sun TROPICAL PUNCH ORGANIC 60 fl oz Box (10-6 fl oz Pouches) 60 oz",
      "NetWeightOZ": 0,
      "PackagingTypeCode": null,
      "ParentID": null,
      "PrepTypeName": null,
      "ProductDescriptionShort": null,
      "ProductDescriptionGrid": null,
      "seoFriendlyName": "",
      "ServingsOfTradeItemUnit": null,
      "ServingSuggestions": null,
      "ThumbnailPath": null,
      "UnitDescriptorCode": null,
      "UPC": null,
      "WilkeUPC": null,
      "UserTypeID": null,
      "LanguageCode": null,
      "CreatedDate": "2016-11-14T06:29:00.827",
      "IsNewProduct": false,
      "IsMappedProduct": false
    },
    {
      "PID": -26,
      "ProductID": null,
      "BrandName": "CAPRI SUN",
      "FunctionalName": null,
      "VariantName": null,
      "SubVariant": null,
      "BrandOwnerGLN": null,
      "ConsumerUnitFlag": false,
      "eCommProductName": null,
      "eCommProductFeature": null,
      "GeneralMktDescription": null,
      "GTIN": "00087684008744",
      "Name": "Capri Sun GRAPE ORGANIC 60 fl oz Box (10-6 fl oz Pouches) 60 oz",
      "NetWeightOZ": 0,
      "PackagingTypeCode": null,
      "ParentID": null,
      "PrepTypeName": null,
      "ProductDescriptionShort": null,
      "ProductDescriptionGrid": null,
      "seoFriendlyName": "",
      "ServingsOfTradeItemUnit": null,
      "ServingSuggestions": null,
      "ThumbnailPath": null,
      "UnitDescriptorCode": null,
      "UPC": null,
      "WilkeUPC": null,
      "UserTypeID": null,
      "LanguageCode": null,
      "CreatedDate": "2016-11-14T06:29:01.76",
      "IsNewProduct": false,
      "IsMappedProduct": false
    }
  ],
  "Variants": [],
  "BrandNames": [],
  "SubVariants": [],
  "FunctionalNames": [],
  "ProductBrands": [],
  "ProductImages": [],
  "ProductAllergens": []
}