{
  "ErrorFlag": false,
  "ProductFilters": null,
  "ErrorMessage": null,
  "SearchString": null,
  "SatrtNumber": 1,
  "EndNumber": 500,
  "SiteCategoryRoot": 0,
  "SiteID": 0,
  "LanguageCode": null,
  "PID": 0,
  "ProductIDList": null,
  "BrandID": 0,
  "OrderBy": null,
  "OrderByColumn": 1,
  "GTINs": null,
  "Direction": 1,
  "TotalRecords": 38,
  "PageNumber": 0,
  "PageSize": 0,
  "PageCount": -2147483648,
  "AddedOrModifiedDate": "0001-01-01T00:00:00",
  "Products": [
    {
      "PID": -1,
      "ProductID": null,
      "BrandName": "TGIF",
      "FunctionalName": null,
      "VariantName": null,
      "SubVariant": null,
      "BrandOwnerGLN": null,
      "ConsumerUnitFlag": false,
      "eCommProductName": null,
      "eCommProductFeature": null,
      "GeneralMktDescription": null,
      "GTIN": "00046704033203",
      "Name": "TGI Friday's(r) Cheese & Bacon Loaded Fries 9 oz. Box 9.00800037384033 oz",
      "NetWeightOZ": 0,
      "PackagingTypeCode": null,
      "ParentID": null,
      "PrepTypeName": null,
      "ProductDescriptionShort": null,
      "ProductDescriptionGrid": null,
      "seoFriendlyName": "",
      "ServingsOfTradeItemUnit": null,
      "ServingSuggestions": null,
      "ThumbnailPath": null,
      "UnitDescriptorCode": null,
      "UPC": null,
      "WilkeUPC": null,
      "UserTypeID": null,
      "LanguageCode": null,
      "CreatedDate": "2016-11-14T09:39:17.01",
      "IsNewProduct": false,
      "IsMappedProduct": false
    },
    {
      "PID": -2,
      "ProductID": null,
      "BrandName": "TGIF",
      "FunctionalName": null,
      "VariantName": null,
      "SubVariant": null,
      "BrandOwnerGLN": null,
      "ConsumerUnitFlag": false,
      "eCommProductName": null,
      "eCommProductFeature": null,
      "GeneralMktDescription": null,
      "GTIN": "00046704033609",
      "Name": "TGI Friday's(r) Dill Pickle Chips with Horseradish Dip 11 oz. Box 11.0080003738403 oz",
      "NetWeightOZ": 0,
      "PackagingTypeCode": null,
      "ParentID": null,
      "PrepTypeName": null,
      "ProductDescriptionShort": null,
      "ProductDescriptionGrid": null,
      "seoFriendlyName": "",
      "ServingsOfTradeItemUnit": null,
      "ServingSuggestions": null,
      "ThumbnailPath": null,
      "UnitDescriptorCode": null,
      "UPC": null,
      "WilkeUPC": null,
      "UserTypeID": null,
      "LanguageCode": null,
      "CreatedDate": "2016-11-14T09:35:42.25",
      "IsNewProduct": false,
      "IsMappedProduct": false
    },
    {
      "PID": -3,
      "ProductID": null,
      "BrandName": "TGIF",
      "FunctionalName": null,
      "VariantName": null,
      "SubVariant": null,
      "BrandOwnerGLN": null,
      "ConsumerUnitFlag": false,
      "eCommProductName": null,
      "eCommProductFeature": null,
      "GeneralMktDescription": null,
      "GTIN": "00046704039106",
      "Name": "TGI Fridays(r) Poppers(r) Cream Cheese Stuffed Jalapenos 15 oz. Box 15.0080003738403 oz",
      "NetWeightOZ": 0,
      "PackagingTypeCode": null,
      "ParentID": null,
      "PrepTypeName": null,
      "ProductDescriptionShort": null,
      "ProductDescriptionGrid": null,
      "seoFriendlyName": "",
      "ServingsOfTradeItemUnit": null,
      "ServingSuggestions": null,
      "ThumbnailPath": null,
      "UnitDescriptorCode": null,
      "UPC": null,
      "WilkeUPC": null,
      "UserTypeID": null,
      "LanguageCode": null,
      "CreatedDate": "2016-11-14T09:35:58.8",
      "IsNewProduct": false,
      "IsMappedProduct": false
    },
    {
      "PID": -4,
      "ProductID": null,
      "BrandName": "TGIF",
      "FunctionalName": null,
      "VariantName": null,
      "SubVariant": null,
      "BrandOwnerGLN": null,
      "ConsumerUnitFlag": false,
      "eCommProductName": null,
      "eCommProductFeature": null,
      "GeneralMktDescription": null,
      "GTIN": "00046704039151",
      "Name": "TGI Fridays(r) Poppers(r) Cheddar Cheese Stuffed Jalapenos 15 oz. Box 15.0080003738403 oz",
      "NetWeightOZ": 0,
      "PackagingTypeCode": null,
      "ParentID": null,
      "PrepTypeName": null,
      "ProductDescriptionShort": null,
      "ProductDescriptionGrid": null,
      "seoFriendlyName": "",
      "ServingsOfTradeItemUnit": null,
      "ServingSuggestions": null,
      "ThumbnailPath": null,
      "UnitDescriptorCode": null,
      "UPC": null,
      "WilkeUPC": null,
      "UserTypeID": null,
      "LanguageCode": null,
      "CreatedDate": "2016-11-14T09:36:02.953",
      "IsNewProduct": false,
      "IsMappedProduct": false
    },
    {
      "PID": -5,
      "ProductID": null,
      "BrandName": "TGIF",
      "FunctionalName": null,
      "VariantName": null,
      "SubVariant": null,
      "BrandOwnerGLN": null,
      "ConsumerUnitFlag": false,
      "eCommProductName": null,
      "eCommProductFeature": null,
      "GeneralMktDescription": null,
      "GTIN": "00046704049402",
      "Name": "TGI Fridays(r) Spinach & Artichoke Cheese Dip 8 oz Pack 8.00800037384033 oz",
      "NetWeightOZ": 0,
      "PackagingTypeCode": null,
      "ParentID": null,
      "PrepTypeName": null,
      "ProductDescriptionShort": null,
      "ProductDescriptionGrid": null,
      "seoFriendlyName": "",
      "ServingsOfTradeItemUnit": null,
      "ServingSuggestions": null,
      "ThumbnailPath": null,
      "UnitDescriptorCode": null,
      "UPC": null,
      "WilkeUPC": null,
      "UserTypeID": null,
      "LanguageCode": null,
      "CreatedDate": "2016-11-14T09:37:06.683",
      "IsNewProduct": false,
      "IsMappedProduct": false
    },
    {
      "PID": -6,
      "ProductID": null,
      "BrandName": "TGIF",
      "FunctionalName": null,
      "VariantName": null,
      "SubVariant": null,
      "BrandOwnerGLN": null,
      "ConsumerUnitFlag": false,
      "eCommProductName": null,
      "eCommProductFeature": null,
      "GeneralMktDescription": null,
      "GTIN": "00046704049600",
      "Name": "TGI Fridays(r) Buffalo Style Boneless Chicken Bites 10 oz. Box 10.0080003738403 oz",
      "NetWeightOZ": 0,
      "PackagingTypeCode": null,
      "ParentID": null,
      "PrepTypeName": null,
      "ProductDescriptionShort": null,
      "ProductDescriptionGrid": null,
      "seoFriendlyName": "",
      "ServingsOfTradeItemUnit": null,
      "ServingSuggestions": null,
      "ThumbnailPath": null,
      "UnitDescriptorCode": null,
      "UPC": null,
      "WilkeUPC": null,
      "UserTypeID": null,
      "LanguageCode": null,
      "CreatedDate": "2016-11-14T09:37:28.2",
      "IsNewProduct": false,
      "IsMappedProduct": false
    },
    {
      "PID": -7,
      "ProductID": null,
      "BrandName": "TGIF",
      "FunctionalName": null,
      "VariantName": null,
      "SubVariant": null,
      "BrandOwnerGLN": null,
      "ConsumerUnitFlag": false,
      "eCommProductName": null,
      "eCommProductFeature": null,
      "GeneralMktDescription": null,
      "GTIN": "00046704055205",
      "Name": "TGI Fridays(r) Chicken Parmesan Sliders with Marinara Sauce 12.4 oz. Box 12.4079999923706 oz",
      "NetWeightOZ": 0,
      "PackagingTypeCode": null,
      "ParentID": null,
      "PrepTypeName": null,
      "ProductDescriptionShort": null,
      "ProductDescriptionGrid": null,
      "seoFriendlyName": "",
      "ServingsOfTradeItemUnit": null,
      "ServingSuggestions": null,
      "ThumbnailPath": null,
      "UnitDescriptorCode": null,
      "UPC": null,
      "WilkeUPC": null,
      "UserTypeID": null,
      "LanguageCode": null,
      "CreatedDate": "2016-11-14T09:38:53.82",
      "IsNewProduct": false,
      "IsMappedProduct": false
    },
    {
      "PID": -8,
      "ProductID": null,
      "BrandName": "TGIF",
      "FunctionalName": null,
      "VariantName": null,
      "SubVariant": null,
      "BrandOwnerGLN": null,
      "ConsumerUnitFlag": false,
      "eCommProductName": null,
      "eCommProductFeature": null,
      "GeneralMktDescription": null,
      "GTIN": "00046704063309",
      "Name": "T.G.I. Fridays(r) Poppers(r) Cheddar Cheese Stuffed Jalapenos 8 oz. Box 8.00800037384033 oz",
      "NetWeightOZ": 0,
      "PackagingTypeCode": null,
      "ParentID": null,
      "PrepTypeName": null,
      "ProductDescriptionShort": null,
      "ProductDescriptionGrid": null,
      "seoFriendlyName": "",
      "ServingsOfTradeItemUnit": null,
      "ServingSuggestions": null,
      "ThumbnailPath": null,
      "UnitDescriptorCode": null,
      "UPC": null,
      "WilkeUPC": null,
      "UserTypeID": null,
      "LanguageCode": null,
      "CreatedDate": "2016-11-14T09:38:10.463",
      "IsNewProduct": false,
      "IsMappedProduct": false
    },
    {
      "PID": -9,
      "ProductID": null,
      "BrandName": "TGIF",
      "FunctionalName": null,
      "VariantName": null,
      "SubVariant": null,
      "BrandOwnerGLN": null,
      "ConsumerUnitFlag": false,
      "eCommProductName": null,
      "eCommProductFeature": null,
      "GeneralMktDescription": null,
      "GTIN": "00046704063316",
      "Name": "T.G.I. Fridays(r) Poppers(r) Cream Cheese Stuffed Jalapenos 8 oz. Box 8.00800037384033 oz",
      "NetWeightOZ": 0,
      "PackagingTypeCode": null,
      "ParentID": null,
      "PrepTypeName": null,
      "ProductDescriptionShort": null,
      "ProductDescriptionGrid": null,
      "seoFriendlyName": "",
      "ServingsOfTradeItemUnit": null,
      "ServingSuggestions": null,
      "ThumbnailPath": null,
      "UnitDescriptorCode": null,
      "UPC": null,
      "WilkeUPC": null,
      "UserTypeID": null,
      "LanguageCode": null,
      "CreatedDate": "2016-11-14T09:37:16.91",
      "IsNewProduct": false,
      "IsMappedProduct": false
    },
    {
      "PID": -10,
      "ProductID": null,
      "BrandName": "TGIF",
      "FunctionalName": null,
      "VariantName": null,
      "SubVariant": null,
      "BrandOwnerGLN": null,
      "ConsumerUnitFlag": false,
      "eCommProductName": null,
      "eCommProductFeature": null,
      "GeneralMktDescription": null,
      "GTIN": "00046704063323",
      "Name": "TGI Fridays(r) Poppers(r) Cheddar Cheese Stuffed Jalapenos 32 oz. Box 32.0289993286133 oz",
      "NetWeightOZ": 0,
      "PackagingTypeCode": null,
      "ParentID": null,
      "PrepTypeName": null,
      "ProductDescriptionShort": null,
      "ProductDescriptionGrid": null,
      "seoFriendlyName": "",
      "ServingsOfTradeItemUnit": null,
      "ServingSuggestions": null,
      "ThumbnailPath": null,
      "UnitDescriptorCode": null,
      "UPC": null,
      "WilkeUPC": null,
      "UserTypeID": null,
      "LanguageCode": null,
      "CreatedDate": "2016-11-14T09:38:48.09",
      "IsNewProduct": false,
      "IsMappedProduct": false
    },
    {
      "PID": -11,
      "ProductID": null,
      "BrandName": "TGIF",
      "FunctionalName": null,
      "VariantName": null,
      "SubVariant": null,
      "BrandOwnerGLN": null,
      "ConsumerUnitFlag": false,
      "eCommProductName": null,
      "eCommProductFeature": null,
      "GeneralMktDescription": null,
      "GTIN": "00046704063330",
      "Name": "TGI Fridays(r) Poppers(r) Cream Cheese Stuffed Jalapenos 32 oz. Box 32.0289993286133 oz",
      "NetWeightOZ": 0,
      "PackagingTypeCode": null,
      "ParentID": null,
      "PrepTypeName": null,
      "ProductDescriptionShort": null,
      "ProductDescriptionGrid": null,
      "seoFriendlyName": "",
      "ServingsOfTradeItemUnit": null,
      "ServingSuggestions": null,
      "ThumbnailPath": null,
      "UnitDescriptorCode": null,
      "UPC": null,
      "WilkeUPC": null,
      "UserTypeID": null,
      "LanguageCode": null,
      "CreatedDate": "2016-11-14T09:38:50.983",
      "IsNewProduct": false,
      "IsMappedProduct": false
    },
    {
      "PID": -12,
      "ProductID": null,
      "BrandName": "TGIF",
      "FunctionalName": null,
      "VariantName": null,
      "SubVariant": null,
      "BrandOwnerGLN": null,
      "ConsumerUnitFlag": false,
      "eCommProductName": null,
      "eCommProductFeature": null,
      "GeneralMktDescription": null,
      "GTIN": "00046704065020",
      "Name": "TGIFriday's(r) Spinach & Artichoke Cheese Dip 3 ct Box 23.996000289917 oz",
      "NetWeightOZ": 0,
      "PackagingTypeCode": null,
      "ParentID": null,
      "PrepTypeName": null,
      "ProductDescriptionShort": null,
      "ProductDescriptionGrid": null,
      "seoFriendlyName": "",
      "ServingsOfTradeItemUnit": null,
      "ServingSuggestions": null,
      "ThumbnailPath": null,
      "UnitDescriptorCode": null,
      "UPC": null,
      "WilkeUPC": null,
      "UserTypeID": null,
      "LanguageCode": null,
      "CreatedDate": "2016-11-14T09:39:08.59",
      "IsNewProduct": false,
      "IsMappedProduct": false
    },
    {
      "PID": -13,
      "ProductID": null,
      "BrandName": "TGIF",
      "FunctionalName": null,
      "VariantName": null,
      "SubVariant": null,
      "BrandOwnerGLN": null,
      "ConsumerUnitFlag": false,
      "eCommProductName": null,
      "eCommProductFeature": null,
      "GeneralMktDescription": null,
      "GTIN": "00046704065044",
      "Name": "TGI Fridays(tm) Buffalo Style Chicken Loaded Potato Skins 13.5 oz. Box 13.503999710083 oz",
      "NetWeightOZ": 0,
      "PackagingTypeCode": null,
      "ParentID": null,
      "PrepTypeName": null,
      "ProductDescriptionShort": null,
      "ProductDescriptionGrid": null,
      "seoFriendlyName": "",
      "ServingsOfTradeItemUnit": null,
      "ServingSuggestions": null,
      "ThumbnailPath": null,
      "UnitDescriptorCode": null,
      "UPC": null,
      "WilkeUPC": null,
      "UserTypeID": null,
      "LanguageCode": null,
      "CreatedDate": "2016-11-14T09:38:29.647",
      "IsNewProduct": false,
      "IsMappedProduct": false
    },
    {
      "PID": -14,
      "ProductID": null,
      "BrandName": "TGIF",
      "FunctionalName": null,
      "VariantName": null,
      "SubVariant": null,
      "BrandOwnerGLN": null,
      "ConsumerUnitFlag": false,
      "eCommProductName": null,
      "eCommProductFeature": null,
      "GeneralMktDescription": null,
      "GTIN": "00046704065068",
      "Name": "TGI Fridays(tm) BBQ Pulled Pork Loaded Potato Skins 13.5 oz. Box 13.4989995956421 oz",
      "NetWeightOZ": 0,
      "PackagingTypeCode": null,
      "ParentID": null,
      "PrepTypeName": null,
      "ProductDescriptionShort": null,
      "ProductDescriptionGrid": null,
      "seoFriendlyName": "",
      "ServingsOfTradeItemUnit": null,
      "ServingSuggestions": null,
      "ThumbnailPath": null,
      "UnitDescriptorCode": null,
      "UPC": null,
      "WilkeUPC": null,
      "UserTypeID": null,
      "LanguageCode": null,
      "CreatedDate": "2016-11-14T09:38:26.083",
      "IsNewProduct": false,
      "IsMappedProduct": false
    },
    {
      "PID": -15,
      "ProductID": null,
      "BrandName": "TGIF",
      "FunctionalName": null,
      "VariantName": null,
      "SubVariant": null,
      "BrandOwnerGLN": null,
      "ConsumerUnitFlag": false,
      "eCommProductName": null,
      "eCommProductFeature": null,
      "GeneralMktDescription": null,
      "GTIN": "00046704065167",
      "Name": "TGI Fridays(r) Honey BBQ Boneless Chicken Bites 10 oz. Box 10 oz",
      "NetWeightOZ": 0,
      "PackagingTypeCode": null,
      "ParentID": null,
      "PrepTypeName": null,
      "ProductDescriptionShort": null,
      "ProductDescriptionGrid": null,
      "seoFriendlyName": "",
      "ServingsOfTradeItemUnit": null,
      "ServingSuggestions": null,
      "ThumbnailPath": null,
      "UnitDescriptorCode": null,
      "UPC": null,
      "WilkeUPC": null,
      "UserTypeID": null,
      "LanguageCode": null,
      "CreatedDate": "2016-11-14T09:37:59.767",
      "IsNewProduct": false,
      "IsMappedProduct": false
    },
    {
      "PID": -16,
      "ProductID": null,
      "BrandName": "TGIF",
      "FunctionalName": null,
      "VariantName": null,
      "SubVariant": null,
      "BrandOwnerGLN": null,
      "ConsumerUnitFlag": false,
      "eCommProductName": null,
      "eCommProductFeature": null,
      "GeneralMktDescription": null,
      "GTIN": "00046704068403",
      "Name": "TGI Friday's(r) Cheddar & Bacon Potato Skins 7.6 oz. Box 7.60599994659424 oz",
      "NetWeightOZ": 0,
      "PackagingTypeCode": null,
      "ParentID": null,
      "PrepTypeName": null,
      "ProductDescriptionShort": null,
      "ProductDescriptionGrid": null,
      "seoFriendlyName": "",
      "ServingsOfTradeItemUnit": null,
      "ServingSuggestions": null,
      "ThumbnailPath": null,
      "UnitDescriptorCode": null,
      "UPC": null,
      "WilkeUPC": null,
      "UserTypeID": null,
      "LanguageCode": null,
      "CreatedDate": "2016-11-14T09:37:39.863",
      "IsNewProduct": false,
      "IsMappedProduct": false
    },
    {
      "PID": -17,
      "ProductID": null,
      "BrandName": "TGIF",
      "FunctionalName": null,
      "VariantName": null,
      "SubVariant": null,
      "BrandOwnerGLN": null,
      "ConsumerUnitFlag": false,
      "eCommProductName": null,
      "eCommProductFeature": null,
      "GeneralMktDescription": null,
      "GTIN": "00046704068472",
      "Name": "TGI Friday's(r) Cheddar & Bacon Potato Skins 22.8 oz. Box 22.8209991455078 oz",
      "NetWeightOZ": 0,
      "PackagingTypeCode": null,
      "ParentID": null,
      "PrepTypeName": null,
      "ProductDescriptionShort": null,
      "ProductDescriptionGrid": null,
      "seoFriendlyName": "",
      "ServingsOfTradeItemUnit": null,
      "ServingSuggestions": null,
      "ThumbnailPath": null,
      "UnitDescriptorCode": null,
      "UPC": null,
      "WilkeUPC": null,
      "UserTypeID": null,
      "LanguageCode": null,
      "CreatedDate": "2016-11-14T09:38:33.297",
      "IsNewProduct": false,
      "IsMappedProduct": false
    },
    {
      "PID": -18,
      "ProductID": null,
      "BrandName": "TGIF",
      "FunctionalName": null,
      "VariantName": null,
      "SubVariant": null,
      "BrandOwnerGLN": null,
      "ConsumerUnitFlag": false,
      "eCommProductName": null,
      "eCommProductFeature": null,
      "GeneralMktDescription": null,
      "GTIN": "00046704068502",
      "Name": "T.G.I. Friday's(r) Mozzarella Sticks with Marinara Sauce 11 oz. Box 11.0100002288818 oz",
      "NetWeightOZ": 0,
      "PackagingTypeCode": null,
      "ParentID": null,
      "PrepTypeName": null,
      "ProductDescriptionShort": null,
      "ProductDescriptionGrid": null,
      "seoFriendlyName": "",
      "ServingsOfTradeItemUnit": null,
      "ServingSuggestions": null,
      "ThumbnailPath": null,
      "UnitDescriptorCode": null,
      "UPC": null,
      "WilkeUPC": null,
      "UserTypeID": null,
      "LanguageCode": null,
      "CreatedDate": "2016-11-14T09:37:34.093",
      "IsNewProduct": false,
      "IsMappedProduct": false
    },
    {
      "PID": -19,
      "ProductID": null,
      "BrandName": "TGIF",
      "FunctionalName": null,
      "VariantName": null,
      "SubVariant": null,
      "BrandOwnerGLN": null,
      "ConsumerUnitFlag": false,
      "eCommProductName": null,
      "eCommProductFeature": null,
      "GeneralMktDescription": null,
      "GTIN": "00046704068519",
      "Name": "TGI Friday's(r) Mozzarella Sticks with Marinara Sauce 30 oz. Box 30.0289993286133 oz",
      "NetWeightOZ": 0,
      "PackagingTypeCode": null,
      "ParentID": null,
      "PrepTypeName": null,
      "ProductDescriptionShort": null,
      "ProductDescriptionGrid": null,
      "seoFriendlyName": "",
      "ServingsOfTradeItemUnit": null,
      "ServingSuggestions": null,
      "ThumbnailPath": null,
      "UnitDescriptorCode": null,
      "UPC": null,
      "WilkeUPC": null,
      "UserTypeID": null,
      "LanguageCode": null,
      "CreatedDate": "2016-11-14T09:39:05.64",
      "IsNewProduct": false,
      "IsMappedProduct": false
    },
    {
      "PID": -20,
      "ProductID": null,
      "BrandName": "TGIF",
      "FunctionalName": null,
      "VariantName": null,
      "SubVariant": null,
      "BrandOwnerGLN": null,
      "ConsumerUnitFlag": false,
      "eCommProductName": null,
      "eCommProductFeature": null,
      "GeneralMktDescription": null,
      "GTIN": "00046704068656",
      "Name": "T.G.I. Fridays(r) Boneless Chicken Bites Sweet & Smoky 10 oz. Box 10.0080003738403 oz",
      "NetWeightOZ": 0,
      "PackagingTypeCode": null,
      "ParentID": null,
      "PrepTypeName": null,
      "ProductDescriptionShort": null,
      "ProductDescriptionGrid": null,
      "seoFriendlyName": "",
      "ServingsOfTradeItemUnit": null,
      "ServingSuggestions": null,
      "ThumbnailPath": null,
      "UnitDescriptorCode": null,
      "UPC": null,
      "WilkeUPC": null,
      "UserTypeID": null,
      "LanguageCode": null,
      "CreatedDate": "2016-11-14T09:37:45.013",
      "IsNewProduct": false,
      "IsMappedProduct": false
    },
    {
      "PID": -21,
      "ProductID": null,
      "BrandName": "TGIF",
      "FunctionalName": null,
      "VariantName": null,
      "SubVariant": null,
      "BrandOwnerGLN": null,
      "ConsumerUnitFlag": false,
      "eCommProductName": null,
      "eCommProductFeature": null,
      "GeneralMktDescription": null,
      "GTIN": "00046704076408",
      "Name": "TGI Friday's(r) Bacon & Cheddar Mac & Cheese 2-6 oz. Cups 11.9980001449585 oz",
      "NetWeightOZ": 0,
      "PackagingTypeCode": null,
      "ParentID": null,
      "PrepTypeName": null,
      "ProductDescriptionShort": null,
      "ProductDescriptionGrid": null,
      "seoFriendlyName": "",
      "ServingsOfTradeItemUnit": null,
      "ServingSuggestions": null,
      "ThumbnailPath": null,
      "UnitDescriptorCode": null,
      "UPC": null,
      "WilkeUPC": null,
      "UserTypeID": null,
      "LanguageCode": null,
      "CreatedDate": "2016-11-14T09:37:01.84",
      "IsNewProduct": false,
      "IsMappedProduct": false
    },
    {
      "PID": -22,
      "ProductID": null,
      "BrandName": "TGIF",
      "FunctionalName": null,
      "VariantName": null,
      "SubVariant": null,
      "BrandOwnerGLN": null,
      "ConsumerUnitFlag": false,
      "eCommProductName": null,
      "eCommProductFeature": null,
      "GeneralMktDescription": null,
      "GTIN": "00046704086308",
      "Name": "TGI Friday's(r) Chicken & Cheese Quesadilla Rolls 9 oz. Box 9.00800037384033 oz",
      "NetWeightOZ": 0,
      "PackagingTypeCode": null,
      "ParentID": null,
      "PrepTypeName": null,
      "ProductDescriptionShort": null,
      "ProductDescriptionGrid": null,
      "seoFriendlyName": "",
      "ServingsOfTradeItemUnit": null,
      "ServingSuggestions": null,
      "ThumbnailPath": null,
      "UnitDescriptorCode": null,
      "UPC": null,
      "WilkeUPC": null,
      "UserTypeID": null,
      "LanguageCode": null,
      "CreatedDate": "2016-11-14T09:37:22.183",
      "IsNewProduct": false,
      "IsMappedProduct": false
    },
    {
      "PID": -23,
      "ProductID": null,
      "BrandName": "TGIF",
      "FunctionalName": null,
      "VariantName": null,
      "SubVariant": null,
      "BrandOwnerGLN": null,
      "ConsumerUnitFlag": false,
      "eCommProductName": null,
      "eCommProductFeature": null,
      "GeneralMktDescription": null,
      "GTIN": "00046704096055",
      "Name": "T.G.I. Friday's(r) Buffalo Style Chicken Wings 15 oz. Box 15.0159997940063 oz",
      "NetWeightOZ": 0,
      "PackagingTypeCode": null,
      "ParentID": null,
      "PrepTypeName": null,
      "ProductDescriptionShort": null,
      "ProductDescriptionGrid": null,
      "seoFriendlyName": "",
      "ServingsOfTradeItemUnit": null,
      "ServingSuggestions": null,
      "ThumbnailPath": null,
      "UnitDescriptorCode": null,
      "UPC": null,
      "WilkeUPC": null,
      "UserTypeID": null,
      "LanguageCode": null,
      "CreatedDate": "2016-11-14T09:37:50.2",
      "IsNewProduct": false,
      "IsMappedProduct": false
    },
    {
      "PID": -24,
      "ProductID": null,
      "BrandName": "TGIF",
      "FunctionalName": null,
      "VariantName": null,
      "SubVariant": null,
      "BrandOwnerGLN": null,
      "ConsumerUnitFlag": false,
      "eCommProductName": null,
      "eCommProductFeature": null,
      "GeneralMktDescription": null,
      "GTIN": "00046704096123",
      "Name": "TGI Friday's(r) Loaded Cheddar & Bacon Potato Skins 13.5 oz. Box 13.5200004577637 oz",
      "NetWeightOZ": 0,
      "PackagingTypeCode": null,
      "ParentID": null,
      "PrepTypeName": null,
      "ProductDescriptionShort": null,
      "ProductDescriptionGrid": null,
      "seoFriendlyName": "",
      "ServingsOfTradeItemUnit": null,
      "ServingSuggestions": null,
      "ThumbnailPath": null,
      "UnitDescriptorCode": null,
      "UPC": null,
      "WilkeUPC": null,
      "UserTypeID": null,
      "LanguageCode": null,
      "CreatedDate": "2016-11-14T09:36:31.22",
      "IsNewProduct": false,
      "IsMappedProduct": false
    },
    {
      "PID": -25,
      "ProductID": null,
      "BrandName": "TGIF",
      "FunctionalName": null,
      "VariantName": null,
      "SubVariant": null,
      "BrandOwnerGLN": null,
      "ConsumerUnitFlag": false,
      "eCommProductName": null,
      "eCommProductFeature": null,
      "GeneralMktDescription": null,
      "GTIN": "00046704096406",
      "Name": "T.G.I. Friday's(r) Loaded Cheddar & Bacon Potato Skins 22.3 oz. Box 22.3229999542236 oz",
      "NetWeightOZ": 0,
      "PackagingTypeCode": null,
      "ParentID": null,
      "PrepTypeName": null,
      "ProductDescriptionShort": null,
      "ProductDescriptionGrid": null,
      "seoFriendlyName": "",
      "ServingsOfTradeItemUnit": null,
      "ServingSuggestions": null,
      "ThumbnailPath": null,
      "UnitDescriptorCode": null,
      "UPC": null,
      "WilkeUPC": null,
      "UserTypeID": null,
      "LanguageCode": null,
      "CreatedDate": "2016-11-14T09:38:33.113",
      "IsNewProduct": false,
      "IsMappedProduct": false
    },
    {
      "PID": -26,
      "ProductID": null,
      "BrandName": "TGIF",
      "FunctionalName": null,
      "VariantName": null,
      "SubVariant": null,
      "BrandOwnerGLN": null,
      "ConsumerUnitFlag": false,
      "eCommProductName": null,
      "eCommProductFeature": null,
      "GeneralMktDescription": null,
      "GTIN": "00046704096505",
      "Name": "TGI Fridays(r) Spinach & Artichoke Cheese Dip 4-8 oz. Cartons 32.0289993286133 oz",
      "NetWeightOZ": 0,
      "PackagingTypeCode": null,
      "ParentID": null,
      "PrepTypeName": null,
      "ProductDescriptionShort": null,
      "ProductDescriptionGrid": null,
      "seoFriendlyName": "",
      "ServingsOfTradeItemUnit": null,
      "ServingSuggestions": null,
      "ThumbnailPath": null,
      "UnitDescriptorCode": null,
      "UPC": null,
      "WilkeUPC": null,
      "UserTypeID": null,
      "LanguageCode": null,
      "CreatedDate": "2016-11-14T09:38:33.51",
      "IsNewProduct": false,
      "IsMappedProduct": false
    },
    {
      "PID": -27,
      "ProductID": null,
      "BrandName": "TGIF",
      "FunctionalName": null,
      "VariantName": null,
      "SubVariant": null,
      "BrandOwnerGLN": null,
      "ConsumerUnitFlag": false,
      "eCommProductName": null,
      "eCommProductFeature": null,
      "GeneralMktDescription": null,
      "GTIN": "00046704096802",
      "Name": "TGI Friday's(r) Loaded Cheddar & Bacon Potato Skins 32 oz. Box 32.0279998779297 oz",
      "NetWeightOZ": 0,
      "PackagingTypeCode": null,
      "ParentID": null,
      "PrepTypeName": null,
      "ProductDescriptionShort": null,
      "ProductDescriptionGrid": null,
      "seoFriendlyName": "",
      "ServingsOfTradeItemUnit": null,
      "ServingSuggestions": null,
      "ThumbnailPath": null,
      "UnitDescriptorCode": null,
      "UPC": null,
      "WilkeUPC": null,
      "UserTypeID": null,
      "LanguageCode": null,
      "CreatedDate": "2016-11-14T09:38:36.31",
      "IsNewProduct": false,
      "IsMappedProduct": false
    },
    {
      "PID": -28,
      "ProductID": null,
      "BrandName": "TGIF",
      "FunctionalName": null,
      "VariantName": null,
      "SubVariant": null,
      "BrandOwnerGLN": null,
      "ConsumerUnitFlag": false,
      "eCommProductName": null,
      "eCommProductFeature": null,
      "GeneralMktDescription": null,
      "GTIN": "00046704098424",
      "Name": "T.G.I. Friday's(r) Buffalo Style Chicken Wings 25.5 oz. Box 25.5249996185303 oz",
      "NetWeightOZ": 0,
      "PackagingTypeCode": null,
      "ParentID": null,
      "PrepTypeName": null,
      "ProductDescriptionShort": null,
      "ProductDescriptionGrid": null,
      "seoFriendlyName": "",
      "ServingsOfTradeItemUnit": null,
      "ServingSuggestions": null,
      "ThumbnailPath": null,
      "UnitDescriptorCode": null,
      "UPC": null,
      "WilkeUPC": null,
      "UserTypeID": null,
      "LanguageCode": null,
      "CreatedDate": "2016-11-14T09:38:42.367",
      "IsNewProduct": false,
      "IsMappedProduct": false
    },
    {
      "PID": -29,
      "ProductID": null,
      "BrandName": "TGIF",
      "FunctionalName": null,
      "VariantName": null,
      "SubVariant": null,
      "BrandOwnerGLN": null,
      "ConsumerUnitFlag": false,
      "eCommProductName": null,
      "eCommProductFeature": null,
      "GeneralMktDescription": null,
      "GTIN": "00046704098448",
      "Name": "T.G.I. Friday's(r) Buffalo Style Chicken Wings 9 oz. Box 9.00899982452393 oz",
      "NetWeightOZ": 0,
      "PackagingTypeCode": null,
      "ParentID": null,
      "PrepTypeName": null,
      "ProductDescriptionShort": null,
      "ProductDescriptionGrid": null,
      "seoFriendlyName": "",
      "ServingsOfTradeItemUnit": null,
      "ServingSuggestions": null,
      "ThumbnailPath": null,
      "UnitDescriptorCode": null,
      "UPC": null,
      "WilkeUPC": null,
      "UserTypeID": null,
      "LanguageCode": null,
      "CreatedDate": "2016-11-14T09:38:04.343",
      "IsNewProduct": false,
      "IsMappedProduct": false
    },
    {
      "PID": -30,
      "ProductID": null,
      "BrandName": "TGIF",
      "FunctionalName": null,
      "VariantName": null,
      "SubVariant": null,
      "BrandOwnerGLN": null,
      "ConsumerUnitFlag": false,
      "eCommProductName": null,
      "eCommProductFeature": null,
      "GeneralMktDescription": null,
      "GTIN": "00046704098462",
      "Name": "TGI Fridays(r) Honey BBQ Chicken Wings 25.5 oz Box 25.5249996185303 oz",
      "NetWeightOZ": 0,
      "PackagingTypeCode": null,
      "ParentID": null,
      "PrepTypeName": null,
      "ProductDescriptionShort": null,
      "ProductDescriptionGrid": null,
      "seoFriendlyName": "",
      "ServingsOfTradeItemUnit": null,
      "ServingSuggestions": null,
      "ThumbnailPath": null,
      "UnitDescriptorCode": null,
      "UPC": null,
      "WilkeUPC": null,
      "UserTypeID": null,
      "LanguageCode": null,
      "CreatedDate": "2016-11-14T09:38:39.447",
      "IsNewProduct": false,
      "IsMappedProduct": false
    },
    {
      "PID": -31,
      "ProductID": null,
      "BrandName": "TGIF",
      "FunctionalName": null,
      "VariantName": null,
      "SubVariant": null,
      "BrandOwnerGLN": null,
      "ConsumerUnitFlag": false,
      "eCommProductName": null,
      "eCommProductFeature": null,
      "GeneralMktDescription": null,
      "GTIN": "00046704098486",
      "Name": "T.G.I. Friday's(r) Honey BBQ Chicken Wings 9 oz. Box 9.00899982452393 oz",
      "NetWeightOZ": 0,
      "PackagingTypeCode": null,
      "ParentID": null,
      "PrepTypeName": null,
      "ProductDescriptionShort": null,
      "ProductDescriptionGrid": null,
      "seoFriendlyName": "",
      "ServingsOfTradeItemUnit": null,
      "ServingSuggestions": null,
      "ThumbnailPath": null,
      "UnitDescriptorCode": null,
      "UPC": null,
      "WilkeUPC": null,
      "UserTypeID": null,
      "LanguageCode": null,
      "CreatedDate": "2016-11-14T09:38:07.53",
      "IsNewProduct": false,
      "IsMappedProduct": false
    },
    {
      "PID": -32,
      "ProductID": null,
      "BrandName": "TGIF",
      "FunctionalName": null,
      "VariantName": null,
      "SubVariant": null,
      "BrandOwnerGLN": null,
      "ConsumerUnitFlag": false,
      "eCommProductName": null,
      "eCommProductFeature": null,
      "GeneralMktDescription": null,
      "GTIN": "00046704610251",
      "Name": "T.G.I. Friday's(r) Cheeseburger Sliders with Sweet & Smoky BBQ Sauce 12 oz. Box 12.0120000839233 oz",
      "NetWeightOZ": 0,
      "PackagingTypeCode": null,
      "ParentID": null,
      "PrepTypeName": null,
      "ProductDescriptionShort": null,
      "ProductDescriptionGrid": null,
      "seoFriendlyName": "",
      "ServingsOfTradeItemUnit": null,
      "ServingSuggestions": null,
      "ThumbnailPath": null,
      "UnitDescriptorCode": null,
      "UPC": null,
      "WilkeUPC": null,
      "UserTypeID": null,
      "LanguageCode": null,
      "CreatedDate": "2016-11-14T09:39:08.387",
      "IsNewProduct": false,
      "IsMappedProduct": false
    },
    {
      "PID": -33,
      "ProductID": null,
      "BrandName": "TGIF",
      "FunctionalName": null,
      "VariantName": null,
      "SubVariant": null,
      "BrandOwnerGLN": null,
      "ConsumerUnitFlag": false,
      "eCommProductName": null,
      "eCommProductFeature": null,
      "GeneralMktDescription": null,
      "GTIN": "00046704620656",
      "Name": "T.G.I. Friday's(r) Buffalo Style Boneless Chicken Bites 15 oz. Box 15.0159997940063 oz",
      "NetWeightOZ": 0,
      "PackagingTypeCode": null,
      "ParentID": null,
      "PrepTypeName": null,
      "ProductDescriptionShort": null,
      "ProductDescriptionGrid": null,
      "seoFriendlyName": "",
      "ServingsOfTradeItemUnit": null,
      "ServingSuggestions": null,
      "ThumbnailPath": null,
      "UnitDescriptorCode": null,
      "UPC": null,
      "WilkeUPC": null,
      "UserTypeID": null,
      "LanguageCode": null,
      "CreatedDate": "2016-11-14T09:37:55.933",
      "IsNewProduct": false,
      "IsMappedProduct": false
    },
    {
      "PID": -34,
      "ProductID": null,
      "BrandName": "TGIF",
      "FunctionalName": null,
      "VariantName": null,
      "SubVariant": null,
      "BrandOwnerGLN": null,
      "ConsumerUnitFlag": false,
      "eCommProductName": null,
      "eCommProductFeature": null,
      "GeneralMktDescription": null,
      "GTIN": "00046704620700",
      "Name": "T.G.I. Friday's(r) Buffalo Style Sauce Boneless Chicken Bites 27 oz. Box 27.0270004272461 oz",
      "NetWeightOZ": 0,
      "PackagingTypeCode": null,
      "ParentID": null,
      "PrepTypeName": null,
      "ProductDescriptionShort": null,
      "ProductDescriptionGrid": null,
      "seoFriendlyName": "",
      "ServingsOfTradeItemUnit": null,
      "ServingSuggestions": null,
      "ThumbnailPath": null,
      "UnitDescriptorCode": null,
      "UPC": null,
      "WilkeUPC": null,
      "UserTypeID": null,
      "LanguageCode": null,
      "CreatedDate": "2016-11-14T09:38:45.367",
      "IsNewProduct": false,
      "IsMappedProduct": false
    },
    {
      "PID": -35,
      "ProductID": null,
      "BrandName": "TGIF",
      "FunctionalName": null,
      "VariantName": null,
      "SubVariant": null,
      "BrandOwnerGLN": null,
      "ConsumerUnitFlag": false,
      "eCommProductName": null,
      "eCommProductFeature": null,
      "GeneralMktDescription": null,
      "GTIN": "00046704620755",
      "Name": "TGI Fridays(r) Honey BBQ Boneless Chicken Bites 15 oz. Box 15.0159997940063 oz",
      "NetWeightOZ": 0,
      "PackagingTypeCode": null,
      "ParentID": null,
      "PrepTypeName": null,
      "ProductDescriptionShort": null,
      "ProductDescriptionGrid": null,
      "seoFriendlyName": "",
      "ServingsOfTradeItemUnit": null,
      "ServingSuggestions": null,
      "ThumbnailPath": null,
      "UnitDescriptorCode": null,
      "UPC": null,
      "WilkeUPC": null,
      "UserTypeID": null,
      "LanguageCode": null,
      "CreatedDate": "2016-11-14T09:38:13.503",
      "IsNewProduct": false,
      "IsMappedProduct": false
    },
    {
      "PID": -36,
      "ProductID": null,
      "BrandName": "TGIF",
      "FunctionalName": null,
      "VariantName": null,
      "SubVariant": null,
      "BrandOwnerGLN": null,
      "ConsumerUnitFlag": false,
      "eCommProductName": null,
      "eCommProductFeature": null,
      "GeneralMktDescription": null,
      "GTIN": "00046704620809",
      "Name": "T.G.I. Friday's(r) Green Bean Fries with Wasabi Ranch Dip 15 oz. Box 15.0159997940063 oz",
      "NetWeightOZ": 0,
      "PackagingTypeCode": null,
      "ParentID": null,
      "PrepTypeName": null,
      "ProductDescriptionShort": null,
      "ProductDescriptionGrid": null,
      "seoFriendlyName": "",
      "ServingsOfTradeItemUnit": null,
      "ServingSuggestions": null,
      "ThumbnailPath": null,
      "UnitDescriptorCode": null,
      "UPC": null,
      "WilkeUPC": null,
      "UserTypeID": null,
      "LanguageCode": null,
      "CreatedDate": "2016-11-14T09:38:23.04",
      "IsNewProduct": false,
      "IsMappedProduct": false
    },
    {
      "PID": -37,
      "ProductID": null,
      "BrandName": "TGIF",
      "FunctionalName": null,
      "VariantName": null,
      "SubVariant": null,
      "BrandOwnerGLN": null,
      "ConsumerUnitFlag": false,
      "eCommProductName": null,
      "eCommProductFeature": null,
      "GeneralMktDescription": null,
      "GTIN": "00046704620908",
      "Name": "TGI Friday's(r) Mozzarella Sticks with Marinara Sauce 17.4 oz. Box 17.4130001068115 oz",
      "NetWeightOZ": 0,
      "PackagingTypeCode": null,
      "ParentID": null,
      "PrepTypeName": null,
      "ProductDescriptionShort": null,
      "ProductDescriptionGrid": null,
      "seoFriendlyName": "",
      "ServingsOfTradeItemUnit": null,
      "ServingSuggestions": null,
      "ThumbnailPath": null,
      "UnitDescriptorCode": null,
      "UPC": null,
      "WilkeUPC": null,
      "UserTypeID": null,
      "LanguageCode": null,
      "CreatedDate": "2016-11-14T09:38:16.78",
      "IsNewProduct": false,
      "IsMappedProduct": false
    },
    {
      "PID": -38,
      "ProductID": null,
      "BrandName": "TGIF",
      "FunctionalName": null,
      "VariantName": null,
      "SubVariant": null,
      "BrandOwnerGLN": null,
      "ConsumerUnitFlag": false,
      "eCommProductName": null,
      "eCommProductFeature": null,
      "GeneralMktDescription": null,
      "GTIN": "00046704820605",
      "Name": "TGI Friday's(tm) Nacho Cheese Loaded Tater Tots(r) 13.5 oz. Box 13.5229997634888 oz",
      "NetWeightOZ": 0,
      "PackagingTypeCode": null,
      "ParentID": null,
      "PrepTypeName": null,
      "ProductDescriptionShort": null,
      "ProductDescriptionGrid": null,
      "seoFriendlyName": "",
      "ServingsOfTradeItemUnit": null,
      "ServingSuggestions": null,
      "ThumbnailPath": null,
      "UnitDescriptorCode": null,
      "UPC": null,
      "WilkeUPC": null,
      "UserTypeID": null,
      "LanguageCode": null,
      "CreatedDate": "2016-11-14T09:38:19.91",
      "IsNewProduct": false,
      "IsMappedProduct": false
    }
  ],
  "Variants": [],
  "BrandNames": [],
  "SubVariants": [],
  "FunctionalNames": [],
  "ProductBrands": [],
  "ProductImages": [],
  "ProductAllergens": []
}