{
  "ErrorFlag": false,
  "ProductFilters": null,
  "ErrorMessage": null,
  "SearchString": null,
  "SatrtNumber": 1,
  "EndNumber": 500,
  "SiteCategoryRoot": 0,
  "SiteID": 0,
  "LanguageCode": null,
  "PID": 0,
  "ProductIDList": null,
  "BrandID": 0,
  "OrderBy": null,
  "OrderByColumn": 1,
  "GTINs": null,
  "Direction": 1,
  "TotalRecords": 11,
  "PageNumber": 0,
  "PageSize": 0,
  "PageCount": -2147483648,
  "AddedOrModifiedDate": "0001-01-01T00:00:00",
  "Products": [
    {
      "PID": -1,
      "ProductID": null,
      "BrandName": "BACK TO NATURE",
      "FunctionalName": null,
      "VariantName": null,
      "SubVariant": null,
      "BrandOwnerGLN": null,
      "ConsumerUnitFlag": false,
      "eCommProductName": null,
      "eCommProductFeature": null,
      "GeneralMktDescription": null,
      "GTIN": "00759283001555",
      "Name": "BACK TO NATURE Phineas & Ferb Shapes Macaroni & Cheese 1.89999997615814 oz",
      "NetWeightOZ": 0,
      "PackagingTypeCode": null,
      "ParentID": null,
      "PrepTypeName": null,
      "ProductDescriptionShort": null,
      "ProductDescriptionGrid": null,
      "seoFriendlyName": "",
      "ServingsOfTradeItemUnit": null,
      "ServingSuggestions": null,
      "ThumbnailPath": null,
      "UnitDescriptorCode": null,
      "UPC": null,
      "WilkeUPC": null,
      "UserTypeID": null,
      "LanguageCode": null,
      "CreatedDate": "2016-11-14T06:25:52.56",
      "IsNewProduct": false,
      "IsMappedProduct": false
    },
    {
      "PID": -2,
      "ProductID": null,
      "BrandName": "BACK TO NATURE",
      "FunctionalName": null,
      "VariantName": null,
      "SubVariant": null,
      "BrandOwnerGLN": null,
      "ConsumerUnitFlag": false,
      "eCommProductName": null,
      "eCommProductFeature": null,
      "GeneralMktDescription": null,
      "GTIN": "00759283001586",
      "Name": "BACK TO NATURE Whole Grain Macaroni & Cheese 2 oz",
      "NetWeightOZ": 0,
      "PackagingTypeCode": null,
      "ParentID": null,
      "PrepTypeName": null,
      "ProductDescriptionShort": null,
      "ProductDescriptionGrid": null,
      "seoFriendlyName": "",
      "ServingsOfTradeItemUnit": null,
      "ServingSuggestions": null,
      "ThumbnailPath": null,
      "UnitDescriptorCode": null,
      "UPC": null,
      "WilkeUPC": null,
      "UserTypeID": null,
      "LanguageCode": null,
      "CreatedDate": "2016-11-14T06:25:53.617",
      "IsNewProduct": false,
      "IsMappedProduct": false
    },
    {
      "PID": -3,
      "ProductID": null,
      "BrandName": "BACK TO NATURE",
      "FunctionalName": null,
      "VariantName": null,
      "SubVariant": null,
      "BrandOwnerGLN": null,
      "ConsumerUnitFlag": false,
      "eCommProductName": null,
      "eCommProductFeature": null,
      "GeneralMktDescription": null,
      "GTIN": "00759283001746",
      "Name": "Back to Nature Organic Alphabet Macaroni & Cheese Dinner 6 oz. Box 6 oz",
      "NetWeightOZ": 0,
      "PackagingTypeCode": null,
      "ParentID": null,
      "PrepTypeName": null,
      "ProductDescriptionShort": null,
      "ProductDescriptionGrid": null,
      "seoFriendlyName": "",
      "ServingsOfTradeItemUnit": null,
      "ServingSuggestions": null,
      "ThumbnailPath": null,
      "UnitDescriptorCode": null,
      "UPC": null,
      "WilkeUPC": null,
      "UserTypeID": null,
      "LanguageCode": null,
      "CreatedDate": "2016-11-14T06:26:06.09",
      "IsNewProduct": false,
      "IsMappedProduct": false
    },
    {
      "PID": -4,
      "ProductID": null,
      "BrandName": "BACK TO NATURE",
      "FunctionalName": null,
      "VariantName": null,
      "SubVariant": null,
      "BrandOwnerGLN": null,
      "ConsumerUnitFlag": false,
      "eCommProductName": null,
      "eCommProductFeature": null,
      "GeneralMktDescription": null,
      "GTIN": "00759283001753",
      "Name": "Back to Nature Organic Crazy Bugs Macaroni & Cheese Dinner 6 oz. Box 6 oz",
      "NetWeightOZ": 0,
      "PackagingTypeCode": null,
      "ParentID": null,
      "PrepTypeName": null,
      "ProductDescriptionShort": null,
      "ProductDescriptionGrid": null,
      "seoFriendlyName": "",
      "ServingsOfTradeItemUnit": null,
      "ServingSuggestions": null,
      "ThumbnailPath": null,
      "UnitDescriptorCode": null,
      "UPC": null,
      "WilkeUPC": null,
      "UserTypeID": null,
      "LanguageCode": null,
      "CreatedDate": "2016-11-14T06:26:07.39",
      "IsNewProduct": false,
      "IsMappedProduct": false
    },
    {
      "PID": -5,
      "ProductID": null,
      "BrandName": "BACK TO NATURE",
      "FunctionalName": null,
      "VariantName": null,
      "SubVariant": null,
      "BrandOwnerGLN": null,
      "ConsumerUnitFlag": false,
      "eCommProductName": null,
      "eCommProductFeature": null,
      "GeneralMktDescription": null,
      "GTIN": "00759283001791",
      "Name": "Back to Nature Organic Macaroni & Cheese Dinner Variety Pack 12-6 oz. Boxes 72 oz",
      "NetWeightOZ": 0,
      "PackagingTypeCode": null,
      "ParentID": null,
      "PrepTypeName": null,
      "ProductDescriptionShort": null,
      "ProductDescriptionGrid": null,
      "seoFriendlyName": "",
      "ServingsOfTradeItemUnit": null,
      "ServingSuggestions": null,
      "ThumbnailPath": null,
      "UnitDescriptorCode": null,
      "UPC": null,
      "WilkeUPC": null,
      "UserTypeID": null,
      "LanguageCode": null,
      "CreatedDate": "2016-11-14T06:25:55.353",
      "IsNewProduct": false,
      "IsMappedProduct": false
    },
    {
      "PID": -6,
      "ProductID": null,
      "BrandName": "BACK TO NATURE",
      "FunctionalName": null,
      "VariantName": null,
      "SubVariant": null,
      "BrandOwnerGLN": null,
      "ConsumerUnitFlag": false,
      "eCommProductName": null,
      "eCommProductFeature": null,
      "GeneralMktDescription": null,
      "GTIN": "00759283400037",
      "Name": "BACK TO NATURE Micro Mac & White Cheddar 2 oz",
      "NetWeightOZ": 0,
      "PackagingTypeCode": null,
      "ParentID": null,
      "PrepTypeName": null,
      "ProductDescriptionShort": null,
      "ProductDescriptionGrid": null,
      "seoFriendlyName": "",
      "ServingsOfTradeItemUnit": null,
      "ServingSuggestions": null,
      "ThumbnailPath": null,
      "UnitDescriptorCode": null,
      "UPC": null,
      "WilkeUPC": null,
      "UserTypeID": null,
      "LanguageCode": null,
      "CreatedDate": "2016-11-14T06:25:56.75",
      "IsNewProduct": false,
      "IsMappedProduct": false
    },
    {
      "PID": -7,
      "ProductID": null,
      "BrandName": "BACK TO NATURE",
      "FunctionalName": null,
      "VariantName": null,
      "SubVariant": null,
      "BrandOwnerGLN": null,
      "ConsumerUnitFlag": false,
      "eCommProductName": null,
      "eCommProductFeature": null,
      "GeneralMktDescription": null,
      "GTIN": "00759283400075",
      "Name": "Back to Nature Organic Shells & White Cheddar Macaroni & Cheese Dinner 6 oz. Box 6 oz",
      "NetWeightOZ": 0,
      "PackagingTypeCode": null,
      "ParentID": null,
      "PrepTypeName": null,
      "ProductDescriptionShort": null,
      "ProductDescriptionGrid": null,
      "seoFriendlyName": "",
      "ServingsOfTradeItemUnit": null,
      "ServingSuggestions": null,
      "ThumbnailPath": null,
      "UnitDescriptorCode": null,
      "UPC": null,
      "WilkeUPC": null,
      "UserTypeID": null,
      "LanguageCode": null,
      "CreatedDate": "2016-11-14T06:25:57.757",
      "IsNewProduct": false,
      "IsMappedProduct": false
    },
    {
      "PID": -8,
      "ProductID": null,
      "BrandName": "BACK TO NATURE",
      "FunctionalName": null,
      "VariantName": null,
      "SubVariant": null,
      "BrandOwnerGLN": null,
      "ConsumerUnitFlag": false,
      "eCommProductName": null,
      "eCommProductFeature": null,
      "GeneralMktDescription": null,
      "GTIN": "00759283400082",
      "Name": "Back to Nature Organic Shells & Cheddar Macaroni & Cheese Dinner 6 oz. Box 6 oz",
      "NetWeightOZ": 0,
      "PackagingTypeCode": null,
      "ParentID": null,
      "PrepTypeName": null,
      "ProductDescriptionShort": null,
      "ProductDescriptionGrid": null,
      "seoFriendlyName": "",
      "ServingsOfTradeItemUnit": null,
      "ServingSuggestions": null,
      "ThumbnailPath": null,
      "UnitDescriptorCode": null,
      "UPC": null,
      "WilkeUPC": null,
      "UserTypeID": null,
      "LanguageCode": null,
      "CreatedDate": "2016-11-14T06:25:59.683",
      "IsNewProduct": false,
      "IsMappedProduct": false
    },
    {
      "PID": -9,
      "ProductID": null,
      "BrandName": "BACK TO NATURE",
      "FunctionalName": null,
      "VariantName": null,
      "SubVariant": null,
      "BrandOwnerGLN": null,
      "ConsumerUnitFlag": false,
      "eCommProductName": null,
      "eCommProductFeature": null,
      "GeneralMktDescription": null,
      "GTIN": "00759283400105",
      "Name": "Back to Nature Organic Macaroni & Cheese Dinner 6 oz. Box 6 oz",
      "NetWeightOZ": 0,
      "PackagingTypeCode": null,
      "ParentID": null,
      "PrepTypeName": null,
      "ProductDescriptionShort": null,
      "ProductDescriptionGrid": null,
      "seoFriendlyName": "",
      "ServingsOfTradeItemUnit": null,
      "ServingSuggestions": null,
      "ThumbnailPath": null,
      "UnitDescriptorCode": null,
      "UPC": null,
      "WilkeUPC": null,
      "UserTypeID": null,
      "LanguageCode": null,
      "CreatedDate": "2016-11-14T06:26:01.68",
      "IsNewProduct": false,
      "IsMappedProduct": false
    },
    {
      "PID": -10,
      "ProductID": null,
      "BrandName": "BACK TO NATURE",
      "FunctionalName": null,
      "VariantName": null,
      "SubVariant": null,
      "BrandOwnerGLN": null,
      "ConsumerUnitFlag": false,
      "eCommProductName": null,
      "eCommProductFeature": null,
      "GeneralMktDescription": null,
      "GTIN": "00759283401027",
      "Name": "BACK TO NATURE Macaroni and Cheese Elbows 6.5 oz",
      "NetWeightOZ": 0,
      "PackagingTypeCode": null,
      "ParentID": null,
      "PrepTypeName": null,
      "ProductDescriptionShort": null,
      "ProductDescriptionGrid": null,
      "seoFriendlyName": "",
      "ServingsOfTradeItemUnit": null,
      "ServingSuggestions": null,
      "ThumbnailPath": null,
      "UnitDescriptorCode": null,
      "UPC": null,
      "WilkeUPC": null,
      "UserTypeID": null,
      "LanguageCode": null,
      "CreatedDate": "2016-11-14T06:26:02.967",
      "IsNewProduct": false,
      "IsMappedProduct": false
    },
    {
      "PID": -11,
      "ProductID": null,
      "BrandName": "BACK TO NATURE",
      "FunctionalName": null,
      "VariantName": null,
      "SubVariant": null,
      "BrandOwnerGLN": null,
      "ConsumerUnitFlag": false,
      "eCommProductName": null,
      "eCommProductFeature": null,
      "GeneralMktDescription": null,
      "GTIN": "00759283401133",
      "Name": "BACK TO NATURE Crazy Bugs Macaroni & Cheese 6 oz",
      "NetWeightOZ": 0,
      "PackagingTypeCode": null,
      "ParentID": null,
      "PrepTypeName": null,
      "ProductDescriptionShort": null,
      "ProductDescriptionGrid": null,
      "seoFriendlyName": "",
      "ServingsOfTradeItemUnit": null,
      "ServingSuggestions": null,
      "ThumbnailPath": null,
      "UnitDescriptorCode": null,
      "UPC": null,
      "WilkeUPC": null,
      "UserTypeID": null,
      "LanguageCode": null,
      "CreatedDate": "2016-11-14T06:26:04.087",
      "IsNewProduct": false,
      "IsMappedProduct": false
    }
  ],
  "Variants": [],
  "BrandNames": [],
  "SubVariants": [],
  "FunctionalNames": [],
  "ProductBrands": [],
  "ProductImages": [],
  "ProductAllergens": []
}