{
  "ErrorFlag": false,
  "ProductFilters": null,
  "ErrorMessage": null,
  "SearchString": null,
  "SatrtNumber": 1,
  "EndNumber": 500,
  "SiteCategoryRoot": 0,
  "SiteID": 0,
  "LanguageCode": null,
  "PID": 0,
  "ProductIDList": null,
  "BrandID": 0,
  "OrderBy": null,
  "OrderByColumn": 1,
  "GTINs": null,
  "Direction": 1,
  "TotalRecords": 0,
  "PageNumber": 0,
  "PageSize": 0,
  "PageCount": -2147483648,
  "AddedOrModifiedDate": "0001-01-01T00:00:00",
  "Products": [],
  "Variants": [],
  "BrandNames": [],
  "SubVariants": [],
  "FunctionalNames": [],
  "ProductBrands": [],
  "ProductImages": [],
  "ProductAllergens": []
}