{
  "ErrorFlag": false,
  "ProductFilters": null,
  "ErrorMessage": null,
  "SearchString": null,
  "SatrtNumber": 1,
  "EndNumber": 500,
  "SiteCategoryRoot": 0,
  "SiteID": 0,
  "LanguageCode": null,
  "PID": 0,
  "ProductIDList": null,
  "BrandID": 0,
  "OrderBy": null,
  "OrderByColumn": 1,
  "GTINs": null,
  "Direction": 1,
  "TotalRecords": 38,
  "PageNumber": 0,
  "PageSize": 0,
  "PageCount": -2147483648,
  "AddedOrModifiedDate": "0001-01-01T00:00:00",
  "Products": [
    {
      "PID": -1,
      "ProductID": null,
      "BrandName": "CORN NUTS",
      "FunctionalName": null,
      "VariantName": null,
      "SubVariant": null,
      "BrandOwnerGLN": null,
      "ConsumerUnitFlag": false,
      "eCommProductName": null,
      "eCommProductFeature": null,
      "GeneralMktDescription": null,
      "GTIN": "00071159000111",
      "Name": "CORNNUTS Chorizo Chipotle 0.800000011920929 oz",
      "NetWeightOZ": 0,
      "PackagingTypeCode": null,
      "ParentID": null,
      "PrepTypeName": null,
      "ProductDescriptionShort": null,
      "ProductDescriptionGrid": null,
      "seoFriendlyName": "",
      "ServingsOfTradeItemUnit": null,
      "ServingSuggestions": null,
      "ThumbnailPath": null,
      "UnitDescriptorCode": null,
      "UPC": null,
      "WilkeUPC": null,
      "UserTypeID": null,
      "LanguageCode": null,
      "CreatedDate": "2016-11-14T06:30:18.993",
      "IsNewProduct": false,
      "IsMappedProduct": false
    },
    {
      "PID": -2,
      "ProductID": null,
      "BrandName": "CORN NUTS",
      "FunctionalName": null,
      "VariantName": null,
      "SubVariant": null,
      "BrandOwnerGLN": null,
      "ConsumerUnitFlag": false,
      "eCommProductName": null,
      "eCommProductFeature": null,
      "GeneralMktDescription": null,
      "GTIN": "00071159000197",
      "Name": "Corn Nuts Ranch Crunchy Corn Kernels 1.7 oz Bag 1.70000004768372 oz",
      "NetWeightOZ": 0,
      "PackagingTypeCode": null,
      "ParentID": null,
      "PrepTypeName": null,
      "ProductDescriptionShort": null,
      "ProductDescriptionGrid": null,
      "seoFriendlyName": "",
      "ServingsOfTradeItemUnit": null,
      "ServingSuggestions": null,
      "ThumbnailPath": null,
      "UnitDescriptorCode": null,
      "UPC": null,
      "WilkeUPC": null,
      "UserTypeID": null,
      "LanguageCode": null,
      "CreatedDate": "2016-11-14T06:30:19.097",
      "IsNewProduct": false,
      "IsMappedProduct": false
    },
    {
      "PID": -3,
      "ProductID": null,
      "BrandName": "CORN NUTS",
      "FunctionalName": null,
      "VariantName": null,
      "SubVariant": null,
      "BrandOwnerGLN": null,
      "ConsumerUnitFlag": false,
      "eCommProductName": null,
      "eCommProductFeature": null,
      "GeneralMktDescription": null,
      "GTIN": "00071159000227",
      "Name": "CORNNUTS Ranch 1.39999997615814 oz",
      "NetWeightOZ": 0,
      "PackagingTypeCode": null,
      "ParentID": null,
      "PrepTypeName": null,
      "ProductDescriptionShort": null,
      "ProductDescriptionGrid": null,
      "seoFriendlyName": "",
      "ServingsOfTradeItemUnit": null,
      "ServingSuggestions": null,
      "ThumbnailPath": null,
      "UnitDescriptorCode": null,
      "UPC": null,
      "WilkeUPC": null,
      "UserTypeID": null,
      "LanguageCode": null,
      "CreatedDate": "2016-11-14T06:30:19.81",
      "IsNewProduct": false,
      "IsMappedProduct": false
    },
    {
      "PID": -4,
      "ProductID": null,
      "BrandName": "CORN NUTS",
      "FunctionalName": null,
      "VariantName": null,
      "SubVariant": null,
      "BrandOwnerGLN": null,
      "ConsumerUnitFlag": false,
      "eCommProductName": null,
      "eCommProductFeature": null,
      "GeneralMktDescription": null,
      "GTIN": "00071159000258",
      "Name": "Corn Nuts Ranch Crunchy Corn Kernels 7 oz Bag 7 oz",
      "NetWeightOZ": 0,
      "PackagingTypeCode": null,
      "ParentID": null,
      "PrepTypeName": null,
      "ProductDescriptionShort": null,
      "ProductDescriptionGrid": null,
      "seoFriendlyName": "",
      "ServingsOfTradeItemUnit": null,
      "ServingSuggestions": null,
      "ThumbnailPath": null,
      "UnitDescriptorCode": null,
      "UPC": null,
      "WilkeUPC": null,
      "UserTypeID": null,
      "LanguageCode": null,
      "CreatedDate": "2016-11-14T06:30:20.49",
      "IsNewProduct": false,
      "IsMappedProduct": false
    },
    {
      "PID": -5,
      "ProductID": null,
      "BrandName": "CORN NUTS",
      "FunctionalName": null,
      "VariantName": null,
      "SubVariant": null,
      "BrandOwnerGLN": null,
      "ConsumerUnitFlag": false,
      "eCommProductName": null,
      "eCommProductFeature": null,
      "GeneralMktDescription": null,
      "GTIN": "00071159000807",
      "Name": "Corn Nuts Chile Picante Con Limon Crunchy Corn Kernels 7 oz Bag 7 oz",
      "NetWeightOZ": 0,
      "PackagingTypeCode": null,
      "ParentID": null,
      "PrepTypeName": null,
      "ProductDescriptionShort": null,
      "ProductDescriptionGrid": null,
      "seoFriendlyName": "",
      "ServingsOfTradeItemUnit": null,
      "ServingSuggestions": null,
      "ThumbnailPath": null,
      "UnitDescriptorCode": null,
      "UPC": null,
      "WilkeUPC": null,
      "UserTypeID": null,
      "LanguageCode": null,
      "CreatedDate": "2016-11-14T06:30:22.193",
      "IsNewProduct": false,
      "IsMappedProduct": false
    },
    {
      "PID": -6,
      "ProductID": null,
      "BrandName": "CORN NUTS",
      "FunctionalName": null,
      "VariantName": null,
      "SubVariant": null,
      "BrandOwnerGLN": null,
      "ConsumerUnitFlag": false,
      "eCommProductName": null,
      "eCommProductFeature": null,
      "GeneralMktDescription": null,
      "GTIN": "00071159000869",
      "Name": "Corn Nuts Ultimate Heat Crunchy Corn Kernels 4 oz. Bag 4 oz",
      "NetWeightOZ": 0,
      "PackagingTypeCode": null,
      "ParentID": null,
      "PrepTypeName": null,
      "ProductDescriptionShort": null,
      "ProductDescriptionGrid": null,
      "seoFriendlyName": "",
      "ServingsOfTradeItemUnit": null,
      "ServingSuggestions": null,
      "ThumbnailPath": null,
      "UnitDescriptorCode": null,
      "UPC": null,
      "WilkeUPC": null,
      "UserTypeID": null,
      "LanguageCode": null,
      "CreatedDate": "2016-11-14T06:30:23.27",
      "IsNewProduct": false,
      "IsMappedProduct": false
    },
    {
      "PID": -7,
      "ProductID": null,
      "BrandName": "CORN NUTS",
      "FunctionalName": null,
      "VariantName": null,
      "SubVariant": null,
      "BrandOwnerGLN": null,
      "ConsumerUnitFlag": false,
      "eCommProductName": null,
      "eCommProductFeature": null,
      "GeneralMktDescription": null,
      "GTIN": "00071159000906",
      "Name": "Corn Nuts Crunchy Corn Kernels Variety Pack 12-1 oz. Bags 12 oz",
      "NetWeightOZ": 0,
      "PackagingTypeCode": null,
      "ParentID": null,
      "PrepTypeName": null,
      "ProductDescriptionShort": null,
      "ProductDescriptionGrid": null,
      "seoFriendlyName": "",
      "ServingsOfTradeItemUnit": null,
      "ServingSuggestions": null,
      "ThumbnailPath": null,
      "UnitDescriptorCode": null,
      "UPC": null,
      "WilkeUPC": null,
      "UserTypeID": null,
      "LanguageCode": null,
      "CreatedDate": "2016-11-14T06:30:18.46",
      "IsNewProduct": false,
      "IsMappedProduct": false
    },
    {
      "PID": -8,
      "ProductID": null,
      "BrandName": "CORN NUTS",
      "FunctionalName": null,
      "VariantName": null,
      "SubVariant": null,
      "BrandOwnerGLN": null,
      "ConsumerUnitFlag": false,
      "eCommProductName": null,
      "eCommProductFeature": null,
      "GeneralMktDescription": null,
      "GTIN": "00071159000913",
      "Name": "Corn Nuts Original Crunchy Corn Kernels 1 oz",
      "NetWeightOZ": 0,
      "PackagingTypeCode": null,
      "ParentID": null,
      "PrepTypeName": null,
      "ProductDescriptionShort": null,
      "ProductDescriptionGrid": null,
      "seoFriendlyName": "",
      "ServingsOfTradeItemUnit": null,
      "ServingSuggestions": null,
      "ThumbnailPath": null,
      "UnitDescriptorCode": null,
      "UPC": null,
      "WilkeUPC": null,
      "UserTypeID": null,
      "LanguageCode": null,
      "CreatedDate": "2016-11-14T06:30:15.02",
      "IsNewProduct": false,
      "IsMappedProduct": false
    },
    {
      "PID": -9,
      "ProductID": null,
      "BrandName": "CORN NUTS",
      "FunctionalName": null,
      "VariantName": null,
      "SubVariant": null,
      "BrandOwnerGLN": null,
      "ConsumerUnitFlag": false,
      "eCommProductName": null,
      "eCommProductFeature": null,
      "GeneralMktDescription": null,
      "GTIN": "00071159000951",
      "Name": "Corn Nuts BBQ Crunchy Corn Kernels 1 oz 1 oz",
      "NetWeightOZ": 0,
      "PackagingTypeCode": null,
      "ParentID": null,
      "PrepTypeName": null,
      "ProductDescriptionShort": null,
      "ProductDescriptionGrid": null,
      "seoFriendlyName": "",
      "ServingsOfTradeItemUnit": null,
      "ServingSuggestions": null,
      "ThumbnailPath": null,
      "UnitDescriptorCode": null,
      "UPC": null,
      "WilkeUPC": null,
      "UserTypeID": null,
      "LanguageCode": null,
      "CreatedDate": "2016-11-14T06:30:15.753",
      "IsNewProduct": false,
      "IsMappedProduct": false
    },
    {
      "PID": -10,
      "ProductID": null,
      "BrandName": "CORN NUTS",
      "FunctionalName": null,
      "VariantName": null,
      "SubVariant": null,
      "BrandOwnerGLN": null,
      "ConsumerUnitFlag": false,
      "eCommProductName": null,
      "eCommProductFeature": null,
      "GeneralMktDescription": null,
      "GTIN": "00071159000968",
      "Name": "Corn Nuts Ranch Crunchy Corn Kernels 1 oz",
      "NetWeightOZ": 0,
      "PackagingTypeCode": null,
      "ParentID": null,
      "PrepTypeName": null,
      "ProductDescriptionShort": null,
      "ProductDescriptionGrid": null,
      "seoFriendlyName": "",
      "ServingsOfTradeItemUnit": null,
      "ServingSuggestions": null,
      "ThumbnailPath": null,
      "UnitDescriptorCode": null,
      "UPC": null,
      "WilkeUPC": null,
      "UserTypeID": null,
      "LanguageCode": null,
      "CreatedDate": "2016-11-14T06:30:16.663",
      "IsNewProduct": false,
      "IsMappedProduct": false
    },
    {
      "PID": -11,
      "ProductID": null,
      "BrandName": "CORN NUTS",
      "FunctionalName": null,
      "VariantName": null,
      "SubVariant": null,
      "BrandOwnerGLN": null,
      "ConsumerUnitFlag": false,
      "eCommProductName": null,
      "eCommProductFeature": null,
      "GeneralMktDescription": null,
      "GTIN": "00071159000975",
      "Name": "Corn Nuts Chile Picante Con Limon Crunchy Corn Kernals 1 oz",
      "NetWeightOZ": 0,
      "PackagingTypeCode": null,
      "ParentID": null,
      "PrepTypeName": null,
      "ProductDescriptionShort": null,
      "ProductDescriptionGrid": null,
      "seoFriendlyName": "",
      "ServingsOfTradeItemUnit": null,
      "ServingSuggestions": null,
      "ThumbnailPath": null,
      "UnitDescriptorCode": null,
      "UPC": null,
      "WilkeUPC": null,
      "UserTypeID": null,
      "LanguageCode": null,
      "CreatedDate": "2016-11-14T06:30:17.583",
      "IsNewProduct": false,
      "IsMappedProduct": false
    },
    {
      "PID": -12,
      "ProductID": null,
      "BrandName": "CORN NUTS",
      "FunctionalName": null,
      "VariantName": null,
      "SubVariant": null,
      "BrandOwnerGLN": null,
      "ConsumerUnitFlag": false,
      "eCommProductName": null,
      "eCommProductFeature": null,
      "GeneralMktDescription": null,
      "GTIN": "00071159001149",
      "Name": "Corn Nuts Crunchy Corn Snack Variety Pack 24-1.7 oz. Packs 40.7999992370605 oz",
      "NetWeightOZ": 0,
      "PackagingTypeCode": null,
      "ParentID": null,
      "PrepTypeName": null,
      "ProductDescriptionShort": null,
      "ProductDescriptionGrid": null,
      "seoFriendlyName": "",
      "ServingsOfTradeItemUnit": null,
      "ServingSuggestions": null,
      "ThumbnailPath": null,
      "UnitDescriptorCode": null,
      "UPC": null,
      "WilkeUPC": null,
      "UserTypeID": null,
      "LanguageCode": null,
      "CreatedDate": "2016-11-14T06:31:08.927",
      "IsNewProduct": false,
      "IsMappedProduct": false
    },
    {
      "PID": -13,
      "ProductID": null,
      "BrandName": "CORN NUTS",
      "FunctionalName": null,
      "VariantName": null,
      "SubVariant": null,
      "BrandOwnerGLN": null,
      "ConsumerUnitFlag": false,
      "eCommProductName": null,
      "eCommProductFeature": null,
      "GeneralMktDescription": null,
      "GTIN": "00071159001231",
      "Name": "Corn Nuts Jalapeno Cheddar Crunchy Corn Kernels 4 oz Bag 4 oz",
      "NetWeightOZ": 0,
      "PackagingTypeCode": null,
      "ParentID": null,
      "PrepTypeName": null,
      "ProductDescriptionShort": null,
      "ProductDescriptionGrid": null,
      "seoFriendlyName": "",
      "ServingsOfTradeItemUnit": null,
      "ServingSuggestions": null,
      "ThumbnailPath": null,
      "UnitDescriptorCode": null,
      "UPC": null,
      "WilkeUPC": null,
      "UserTypeID": null,
      "LanguageCode": null,
      "CreatedDate": "2016-11-14T06:30:25.507",
      "IsNewProduct": false,
      "IsMappedProduct": false
    },
    {
      "PID": -14,
      "ProductID": null,
      "BrandName": "CORN NUTS",
      "FunctionalName": null,
      "VariantName": null,
      "SubVariant": null,
      "BrandOwnerGLN": null,
      "ConsumerUnitFlag": false,
      "eCommProductName": null,
      "eCommProductFeature": null,
      "GeneralMktDescription": null,
      "GTIN": "00071159001255",
      "Name": "Corn Nuts Original Crunchy Corn Kernels 1.39999997615814 oz",
      "NetWeightOZ": 0,
      "PackagingTypeCode": null,
      "ParentID": null,
      "PrepTypeName": null,
      "ProductDescriptionShort": null,
      "ProductDescriptionGrid": null,
      "seoFriendlyName": "",
      "ServingsOfTradeItemUnit": null,
      "ServingSuggestions": null,
      "ThumbnailPath": null,
      "UnitDescriptorCode": null,
      "UPC": null,
      "WilkeUPC": null,
      "UserTypeID": null,
      "LanguageCode": null,
      "CreatedDate": "2016-11-14T06:30:27.19",
      "IsNewProduct": false,
      "IsMappedProduct": false
    },
    {
      "PID": -15,
      "ProductID": null,
      "BrandName": "CORN NUTS",
      "FunctionalName": null,
      "VariantName": null,
      "SubVariant": null,
      "BrandOwnerGLN": null,
      "ConsumerUnitFlag": false,
      "eCommProductName": null,
      "eCommProductFeature": null,
      "GeneralMktDescription": null,
      "GTIN": "00071159001262",
      "Name": "CORNNUTS Barbecue 1.39999997615814 oz",
      "NetWeightOZ": 0,
      "PackagingTypeCode": null,
      "ParentID": null,
      "PrepTypeName": null,
      "ProductDescriptionShort": null,
      "ProductDescriptionGrid": null,
      "seoFriendlyName": "",
      "ServingsOfTradeItemUnit": null,
      "ServingSuggestions": null,
      "ThumbnailPath": null,
      "UnitDescriptorCode": null,
      "UPC": null,
      "WilkeUPC": null,
      "UserTypeID": null,
      "LanguageCode": null,
      "CreatedDate": "2016-11-14T06:30:27.963",
      "IsNewProduct": false,
      "IsMappedProduct": false
    },
    {
      "PID": -16,
      "ProductID": null,
      "BrandName": "CORN NUTS",
      "FunctionalName": null,
      "VariantName": null,
      "SubVariant": null,
      "BrandOwnerGLN": null,
      "ConsumerUnitFlag": false,
      "eCommProductName": null,
      "eCommProductFeature": null,
      "GeneralMktDescription": null,
      "GTIN": "00071159001279",
      "Name": "CORNNUTS Nacho Cheese 1.39999997615814 oz",
      "NetWeightOZ": 0,
      "PackagingTypeCode": null,
      "ParentID": null,
      "PrepTypeName": null,
      "ProductDescriptionShort": null,
      "ProductDescriptionGrid": null,
      "seoFriendlyName": "",
      "ServingsOfTradeItemUnit": null,
      "ServingSuggestions": null,
      "ThumbnailPath": null,
      "UnitDescriptorCode": null,
      "UPC": null,
      "WilkeUPC": null,
      "UserTypeID": null,
      "LanguageCode": null,
      "CreatedDate": "2016-11-14T06:30:28.733",
      "IsNewProduct": false,
      "IsMappedProduct": false
    },
    {
      "PID": -17,
      "ProductID": null,
      "BrandName": "CORN NUTS",
      "FunctionalName": null,
      "VariantName": null,
      "SubVariant": null,
      "BrandOwnerGLN": null,
      "ConsumerUnitFlag": false,
      "eCommProductName": null,
      "eCommProductFeature": null,
      "GeneralMktDescription": null,
      "GTIN": "00071159001330",
      "Name": "Corn Nuts Original Crunchy Corn Kernels 1.7 oz Bag 1.70000004768372 oz",
      "NetWeightOZ": 0,
      "PackagingTypeCode": null,
      "ParentID": null,
      "PrepTypeName": null,
      "ProductDescriptionShort": null,
      "ProductDescriptionGrid": null,
      "seoFriendlyName": "",
      "ServingsOfTradeItemUnit": null,
      "ServingSuggestions": null,
      "ThumbnailPath": null,
      "UnitDescriptorCode": null,
      "UPC": null,
      "WilkeUPC": null,
      "UserTypeID": null,
      "LanguageCode": null,
      "CreatedDate": "2016-11-14T06:30:28.837",
      "IsNewProduct": false,
      "IsMappedProduct": false
    },
    {
      "PID": -18,
      "ProductID": null,
      "BrandName": "CORN NUTS",
      "FunctionalName": null,
      "VariantName": null,
      "SubVariant": null,
      "BrandOwnerGLN": null,
      "ConsumerUnitFlag": false,
      "eCommProductName": null,
      "eCommProductFeature": null,
      "GeneralMktDescription": null,
      "GTIN": "00071159001347",
      "Name": "Corn Nuts BBQ Crunchy Corn Kernels 1.7 oz Bag 1.70000004768372 oz",
      "NetWeightOZ": 0,
      "PackagingTypeCode": null,
      "ParentID": null,
      "PrepTypeName": null,
      "ProductDescriptionShort": null,
      "ProductDescriptionGrid": null,
      "seoFriendlyName": "",
      "ServingsOfTradeItemUnit": null,
      "ServingSuggestions": null,
      "ThumbnailPath": null,
      "UnitDescriptorCode": null,
      "UPC": null,
      "WilkeUPC": null,
      "UserTypeID": null,
      "LanguageCode": null,
      "CreatedDate": "2016-11-14T06:30:29.807",
      "IsNewProduct": false,
      "IsMappedProduct": false
    },
    {
      "PID": -19,
      "ProductID": null,
      "BrandName": "CORN NUTS",
      "FunctionalName": null,
      "VariantName": null,
      "SubVariant": null,
      "BrandOwnerGLN": null,
      "ConsumerUnitFlag": false,
      "eCommProductName": null,
      "eCommProductFeature": null,
      "GeneralMktDescription": null,
      "GTIN": "00071159001385",
      "Name": "CORNNUTS 864 GR SNACKS  JALAPENO/CHEDDAR     18 TRAY INNER PACK 30.4769992828369 oz",
      "NetWeightOZ": 0,
      "PackagingTypeCode": null,
      "ParentID": null,
      "PrepTypeName": null,
      "ProductDescriptionShort": null,
      "ProductDescriptionGrid": null,
      "seoFriendlyName": "",
      "ServingsOfTradeItemUnit": null,
      "ServingSuggestions": null,
      "ThumbnailPath": null,
      "UnitDescriptorCode": null,
      "UPC": null,
      "WilkeUPC": null,
      "UserTypeID": null,
      "LanguageCode": null,
      "CreatedDate": "2016-11-14T06:31:09.217",
      "IsNewProduct": false,
      "IsMappedProduct": false
    },
    {
      "PID": -20,
      "ProductID": null,
      "BrandName": "CORN NUTS",
      "FunctionalName": null,
      "VariantName": null,
      "SubVariant": null,
      "BrandOwnerGLN": null,
      "ConsumerUnitFlag": false,
      "eCommProductName": null,
      "eCommProductFeature": null,
      "GeneralMktDescription": null,
      "GTIN": "00071159001392",
      "Name": "CORNNUTS 48 GR SNACKS  JALAPENO/CHEDDAR     1  EACH 1.692999958992 oz",
      "NetWeightOZ": 0,
      "PackagingTypeCode": null,
      "ParentID": null,
      "PrepTypeName": null,
      "ProductDescriptionShort": null,
      "ProductDescriptionGrid": null,
      "seoFriendlyName": "",
      "ServingsOfTradeItemUnit": null,
      "ServingSuggestions": null,
      "ThumbnailPath": null,
      "UnitDescriptorCode": null,
      "UPC": null,
      "WilkeUPC": null,
      "UserTypeID": null,
      "LanguageCode": null,
      "CreatedDate": "2016-11-14T06:30:31.8",
      "IsNewProduct": false,
      "IsMappedProduct": false
    },
    {
      "PID": -21,
      "ProductID": null,
      "BrandName": "CORN NUTS",
      "FunctionalName": null,
      "VariantName": null,
      "SubVariant": null,
      "BrandOwnerGLN": null,
      "ConsumerUnitFlag": false,
      "eCommProductName": null,
      "eCommProductFeature": null,
      "GeneralMktDescription": null,
      "GTIN": "00071159001422",
      "Name": "CORNNUTS 25 LB SNACKS BARBECUE BULK BAG/POUCH EACH 400 oz",
      "NetWeightOZ": 0,
      "PackagingTypeCode": null,
      "ParentID": null,
      "PrepTypeName": null,
      "ProductDescriptionShort": null,
      "ProductDescriptionGrid": null,
      "seoFriendlyName": "",
      "ServingsOfTradeItemUnit": null,
      "ServingSuggestions": null,
      "ThumbnailPath": null,
      "UnitDescriptorCode": null,
      "UPC": null,
      "WilkeUPC": null,
      "UserTypeID": null,
      "LanguageCode": null,
      "CreatedDate": "2016-11-14T06:30:32.87",
      "IsNewProduct": false,
      "IsMappedProduct": false
    },
    {
      "PID": -22,
      "ProductID": null,
      "BrandName": "CORN NUTS",
      "FunctionalName": null,
      "VariantName": null,
      "SubVariant": null,
      "BrandOwnerGLN": null,
      "ConsumerUnitFlag": false,
      "eCommProductName": null,
      "eCommProductFeature": null,
      "GeneralMktDescription": null,
      "GTIN": "00071159001446",
      "Name": "CORNNUTS 1.4 OZ SNACKS  JALAPENO/CHEDDAR     1 BAG/POUCH EACH 1.39999997615814 oz",
      "NetWeightOZ": 0,
      "PackagingTypeCode": null,
      "ParentID": null,
      "PrepTypeName": null,
      "ProductDescriptionShort": null,
      "ProductDescriptionGrid": null,
      "seoFriendlyName": "",
      "ServingsOfTradeItemUnit": null,
      "ServingSuggestions": null,
      "ThumbnailPath": null,
      "UnitDescriptorCode": null,
      "UPC": null,
      "WilkeUPC": null,
      "UserTypeID": null,
      "LanguageCode": null,
      "CreatedDate": "2016-11-14T06:30:33.48",
      "IsNewProduct": false,
      "IsMappedProduct": false
    },
    {
      "PID": -23,
      "ProductID": null,
      "BrandName": "CORN NUTS",
      "FunctionalName": null,
      "VariantName": null,
      "SubVariant": null,
      "BrandOwnerGLN": null,
      "ConsumerUnitFlag": false,
      "eCommProductName": null,
      "eCommProductFeature": null,
      "GeneralMktDescription": null,
      "GTIN": "00071159001750",
      "Name": "Corn Nuts Chile Picante Con Limon Crunchy Corn Kernels 1.7 oz Bag 1.70000004768372 oz",
      "NetWeightOZ": 0,
      "PackagingTypeCode": null,
      "ParentID": null,
      "PrepTypeName": null,
      "ProductDescriptionShort": null,
      "ProductDescriptionGrid": null,
      "seoFriendlyName": "",
      "ServingsOfTradeItemUnit": null,
      "ServingSuggestions": null,
      "ThumbnailPath": null,
      "UnitDescriptorCode": null,
      "UPC": null,
      "WilkeUPC": null,
      "UserTypeID": null,
      "LanguageCode": null,
      "CreatedDate": "2016-11-14T06:30:34.78",
      "IsNewProduct": false,
      "IsMappedProduct": false
    },
    {
      "PID": -24,
      "ProductID": null,
      "BrandName": "CORN NUTS",
      "FunctionalName": null,
      "VariantName": null,
      "SubVariant": null,
      "BrandOwnerGLN": null,
      "ConsumerUnitFlag": false,
      "eCommProductName": null,
      "eCommProductFeature": null,
      "GeneralMktDescription": null,
      "GTIN": "00071159001866",
      "Name": "Corn Nuts Chile Picante Con Limon Crunchy Corn Kernels 1.39999997615814 oz",
      "NetWeightOZ": 0,
      "PackagingTypeCode": null,
      "ParentID": null,
      "PrepTypeName": null,
      "ProductDescriptionShort": null,
      "ProductDescriptionGrid": null,
      "seoFriendlyName": "",
      "ServingsOfTradeItemUnit": null,
      "ServingSuggestions": null,
      "ThumbnailPath": null,
      "UnitDescriptorCode": null,
      "UPC": null,
      "WilkeUPC": null,
      "UserTypeID": null,
      "LanguageCode": null,
      "CreatedDate": "2016-11-14T06:30:35.727",
      "IsNewProduct": false,
      "IsMappedProduct": false
    },
    {
      "PID": -25,
      "ProductID": null,
      "BrandName": "CORN NUTS",
      "FunctionalName": null,
      "VariantName": null,
      "SubVariant": null,
      "BrandOwnerGLN": null,
      "ConsumerUnitFlag": false,
      "eCommProductName": null,
      "eCommProductFeature": null,
      "GeneralMktDescription": null,
      "GTIN": "00071159002245",
      "Name": "CORNNUTS 25 LB SNACKS  CHILI BULK     1  EACH 400 oz",
      "NetWeightOZ": 0,
      "PackagingTypeCode": null,
      "ParentID": null,
      "PrepTypeName": null,
      "ProductDescriptionShort": null,
      "ProductDescriptionGrid": null,
      "seoFriendlyName": "",
      "ServingsOfTradeItemUnit": null,
      "ServingSuggestions": null,
      "ThumbnailPath": null,
      "UnitDescriptorCode": null,
      "UPC": null,
      "WilkeUPC": null,
      "UserTypeID": null,
      "LanguageCode": null,
      "CreatedDate": "2016-11-14T06:30:36.573",
      "IsNewProduct": false,
      "IsMappedProduct": false
    },
    {
      "PID": -26,
      "ProductID": null,
      "BrandName": "CORN NUTS",
      "FunctionalName": null,
      "VariantName": null,
      "SubVariant": null,
      "BrandOwnerGLN": null,
      "ConsumerUnitFlag": false,
      "eCommProductName": null,
      "eCommProductFeature": null,
      "GeneralMktDescription": null,
      "GTIN": "00071159002603",
      "Name": "CORN NUTS 400 oz",
      "NetWeightOZ": 0,
      "PackagingTypeCode": null,
      "ParentID": null,
      "PrepTypeName": null,
      "ProductDescriptionShort": null,
      "ProductDescriptionGrid": null,
      "seoFriendlyName": "",
      "ServingsOfTradeItemUnit": null,
      "ServingSuggestions": null,
      "ThumbnailPath": null,
      "UnitDescriptorCode": null,
      "UPC": null,
      "WilkeUPC": null,
      "UserTypeID": null,
      "LanguageCode": null,
      "CreatedDate": "2016-11-14T06:30:37.373",
      "IsNewProduct": false,
      "IsMappedProduct": false
    },
    {
      "PID": -27,
      "ProductID": null,
      "BrandName": "CORN NUTS",
      "FunctionalName": null,
      "VariantName": null,
      "SubVariant": null,
      "BrandOwnerGLN": null,
      "ConsumerUnitFlag": false,
      "eCommProductName": null,
      "eCommProductFeature": null,
      "GeneralMktDescription": null,
      "GTIN": "00071159002702",
      "Name": "CORN NUTS 400 oz",
      "NetWeightOZ": 0,
      "PackagingTypeCode": null,
      "ParentID": null,
      "PrepTypeName": null,
      "ProductDescriptionShort": null,
      "ProductDescriptionGrid": null,
      "seoFriendlyName": "",
      "ServingsOfTradeItemUnit": null,
      "ServingSuggestions": null,
      "ThumbnailPath": null,
      "UnitDescriptorCode": null,
      "UPC": null,
      "WilkeUPC": null,
      "UserTypeID": null,
      "LanguageCode": null,
      "CreatedDate": "2016-11-14T06:30:39.06",
      "IsNewProduct": false,
      "IsMappedProduct": false
    },
    {
      "PID": -28,
      "ProductID": null,
      "BrandName": "CORN NUTS",
      "FunctionalName": null,
      "VariantName": null,
      "SubVariant": null,
      "BrandOwnerGLN": null,
      "ConsumerUnitFlag": false,
      "eCommProductName": null,
      "eCommProductFeature": null,
      "GeneralMktDescription": null,
      "GTIN": "00071159010196",
      "Name": "Corn Nuts Ranch Crunchy Corn Kernels 18-1.7 oz. Bags 30.6000003814697 oz",
      "NetWeightOZ": 0,
      "PackagingTypeCode": null,
      "ParentID": null,
      "PrepTypeName": null,
      "ProductDescriptionShort": null,
      "ProductDescriptionGrid": null,
      "seoFriendlyName": "",
      "ServingsOfTradeItemUnit": null,
      "ServingSuggestions": null,
      "ThumbnailPath": null,
      "UnitDescriptorCode": null,
      "UPC": null,
      "WilkeUPC": null,
      "UserTypeID": null,
      "LanguageCode": null,
      "CreatedDate": "2016-11-14T06:31:11.723",
      "IsNewProduct": false,
      "IsMappedProduct": false
    },
    {
      "PID": -29,
      "ProductID": null,
      "BrandName": "CORN NUTS",
      "FunctionalName": null,
      "VariantName": null,
      "SubVariant": null,
      "BrandOwnerGLN": null,
      "ConsumerUnitFlag": false,
      "eCommProductName": null,
      "eCommProductFeature": null,
      "GeneralMktDescription": null,
      "GTIN": "00071159011339",
      "Name": "Corn Nuts Original Crunchy Corn Kernels 18-1.7 oz. Bags 30.6000003814697 oz",
      "NetWeightOZ": 0,
      "PackagingTypeCode": null,
      "ParentID": null,
      "PrepTypeName": null,
      "ProductDescriptionShort": null,
      "ProductDescriptionGrid": null,
      "seoFriendlyName": "",
      "ServingsOfTradeItemUnit": null,
      "ServingSuggestions": null,
      "ThumbnailPath": null,
      "UnitDescriptorCode": null,
      "UPC": null,
      "WilkeUPC": null,
      "UserTypeID": null,
      "LanguageCode": null,
      "CreatedDate": "2016-11-14T06:31:15.303",
      "IsNewProduct": false,
      "IsMappedProduct": false
    },
    {
      "PID": -30,
      "ProductID": null,
      "BrandName": "CORN NUTS",
      "FunctionalName": null,
      "VariantName": null,
      "SubVariant": null,
      "BrandOwnerGLN": null,
      "ConsumerUnitFlag": false,
      "eCommProductName": null,
      "eCommProductFeature": null,
      "GeneralMktDescription": null,
      "GTIN": "00071159011346",
      "Name": "Corn Nuts BBQ Crunchy Corn Kernels 18-1.7 oz. Bags 30.6000003814697 oz",
      "NetWeightOZ": 0,
      "PackagingTypeCode": null,
      "ParentID": null,
      "PrepTypeName": null,
      "ProductDescriptionShort": null,
      "ProductDescriptionGrid": null,
      "seoFriendlyName": "",
      "ServingsOfTradeItemUnit": null,
      "ServingSuggestions": null,
      "ThumbnailPath": null,
      "UnitDescriptorCode": null,
      "UPC": null,
      "WilkeUPC": null,
      "UserTypeID": null,
      "LanguageCode": null,
      "CreatedDate": "2016-11-14T06:31:16.227",
      "IsNewProduct": false,
      "IsMappedProduct": false
    },
    {
      "PID": -31,
      "ProductID": null,
      "BrandName": "CORN NUTS",
      "FunctionalName": null,
      "VariantName": null,
      "SubVariant": null,
      "BrandOwnerGLN": null,
      "ConsumerUnitFlag": false,
      "eCommProductName": null,
      "eCommProductFeature": null,
      "GeneralMktDescription": null,
      "GTIN": "00071159011759",
      "Name": "Corn Nuts Chile Picante con Limon Crunchy Corn Kernels 18-1.7 oz. Bags 30.6000003814697 oz",
      "NetWeightOZ": 0,
      "PackagingTypeCode": null,
      "ParentID": null,
      "PrepTypeName": null,
      "ProductDescriptionShort": null,
      "ProductDescriptionGrid": null,
      "seoFriendlyName": "",
      "ServingsOfTradeItemUnit": null,
      "ServingSuggestions": null,
      "ThumbnailPath": null,
      "UnitDescriptorCode": null,
      "UPC": null,
      "WilkeUPC": null,
      "UserTypeID": null,
      "LanguageCode": null,
      "CreatedDate": "2016-11-14T06:31:18.16",
      "IsNewProduct": false,
      "IsMappedProduct": false
    },
    {
      "PID": -32,
      "ProductID": null,
      "BrandName": "CORN NUTS",
      "FunctionalName": null,
      "VariantName": null,
      "SubVariant": null,
      "BrandOwnerGLN": null,
      "ConsumerUnitFlag": false,
      "eCommProductName": null,
      "eCommProductFeature": null,
      "GeneralMktDescription": null,
      "GTIN": "00071159021444",
      "Name": "CORN NUTS 1.6931220293045 oz",
      "NetWeightOZ": 0,
      "PackagingTypeCode": null,
      "ParentID": null,
      "PrepTypeName": null,
      "ProductDescriptionShort": null,
      "ProductDescriptionGrid": null,
      "seoFriendlyName": "",
      "ServingsOfTradeItemUnit": null,
      "ServingSuggestions": null,
      "ThumbnailPath": null,
      "UnitDescriptorCode": null,
      "UPC": null,
      "WilkeUPC": null,
      "UserTypeID": null,
      "LanguageCode": null,
      "CreatedDate": "2016-11-14T06:30:49.637",
      "IsNewProduct": false,
      "IsMappedProduct": false
    },
    {
      "PID": -33,
      "ProductID": null,
      "BrandName": "CORN NUTS",
      "FunctionalName": null,
      "VariantName": null,
      "SubVariant": null,
      "BrandOwnerGLN": null,
      "ConsumerUnitFlag": false,
      "eCommProductName": null,
      "eCommProductFeature": null,
      "GeneralMktDescription": null,
      "GTIN": "00071159021451",
      "Name": "CORN NUTS 48 GR SNACKS  CHILI PICANTE     12 TRAY INNER PACK 30.4761905670166 oz",
      "NetWeightOZ": 0,
      "PackagingTypeCode": null,
      "ParentID": null,
      "PrepTypeName": null,
      "ProductDescriptionShort": null,
      "ProductDescriptionGrid": null,
      "seoFriendlyName": "",
      "ServingsOfTradeItemUnit": null,
      "ServingSuggestions": null,
      "ThumbnailPath": null,
      "UnitDescriptorCode": null,
      "UPC": null,
      "WilkeUPC": null,
      "UserTypeID": null,
      "LanguageCode": null,
      "CreatedDate": "2016-11-14T06:31:19.613",
      "IsNewProduct": false,
      "IsMappedProduct": false
    },
    {
      "PID": -34,
      "ProductID": null,
      "BrandName": "CORN NUTS",
      "FunctionalName": null,
      "VariantName": null,
      "SubVariant": null,
      "BrandOwnerGLN": null,
      "ConsumerUnitFlag": false,
      "eCommProductName": null,
      "eCommProductFeature": null,
      "GeneralMktDescription": null,
      "GTIN": "00071159073115",
      "Name": "Corn Nuts Ranch Crunchy Corn Kernels 4 oz Bag 4 oz",
      "NetWeightOZ": 0,
      "PackagingTypeCode": null,
      "ParentID": null,
      "PrepTypeName": null,
      "ProductDescriptionShort": null,
      "ProductDescriptionGrid": null,
      "seoFriendlyName": "",
      "ServingsOfTradeItemUnit": null,
      "ServingSuggestions": null,
      "ThumbnailPath": null,
      "UnitDescriptorCode": null,
      "UPC": null,
      "WilkeUPC": null,
      "UserTypeID": null,
      "LanguageCode": null,
      "CreatedDate": "2016-11-14T06:30:53.033",
      "IsNewProduct": false,
      "IsMappedProduct": false
    },
    {
      "PID": -35,
      "ProductID": null,
      "BrandName": "CORN NUTS",
      "FunctionalName": null,
      "VariantName": null,
      "SubVariant": null,
      "BrandOwnerGLN": null,
      "ConsumerUnitFlag": false,
      "eCommProductName": null,
      "eCommProductFeature": null,
      "GeneralMktDescription": null,
      "GTIN": "00071159076550",
      "Name": "Corn Nuts Chile Picante con Limon Crunchy Corn Kernels 4 oz Bag 4 oz",
      "NetWeightOZ": 0,
      "PackagingTypeCode": null,
      "ParentID": null,
      "PrepTypeName": null,
      "ProductDescriptionShort": null,
      "ProductDescriptionGrid": null,
      "seoFriendlyName": "",
      "ServingsOfTradeItemUnit": null,
      "ServingSuggestions": null,
      "ThumbnailPath": null,
      "UnitDescriptorCode": null,
      "UPC": null,
      "WilkeUPC": null,
      "UserTypeID": null,
      "LanguageCode": null,
      "CreatedDate": "2016-11-14T06:30:57.567",
      "IsNewProduct": false,
      "IsMappedProduct": false
    },
    {
      "PID": -36,
      "ProductID": null,
      "BrandName": "CORN NUTS",
      "FunctionalName": null,
      "VariantName": null,
      "SubVariant": null,
      "BrandOwnerGLN": null,
      "ConsumerUnitFlag": false,
      "eCommProductName": null,
      "eCommProductFeature": null,
      "GeneralMktDescription": null,
      "GTIN": "00071159078196",
      "Name": "Corn Nuts Original Crunchy Corn Kernels 4 oz. Bag 4 oz",
      "NetWeightOZ": 0,
      "PackagingTypeCode": null,
      "ParentID": null,
      "PrepTypeName": null,
      "ProductDescriptionShort": null,
      "ProductDescriptionGrid": null,
      "seoFriendlyName": "",
      "ServingsOfTradeItemUnit": null,
      "ServingSuggestions": null,
      "ThumbnailPath": null,
      "UnitDescriptorCode": null,
      "UPC": null,
      "WilkeUPC": null,
      "UserTypeID": null,
      "LanguageCode": null,
      "CreatedDate": "2016-11-14T06:31:01.61",
      "IsNewProduct": false,
      "IsMappedProduct": false
    },
    {
      "PID": -37,
      "ProductID": null,
      "BrandName": "CORN NUTS",
      "FunctionalName": null,
      "VariantName": null,
      "SubVariant": null,
      "BrandOwnerGLN": null,
      "ConsumerUnitFlag": false,
      "eCommProductName": null,
      "eCommProductFeature": null,
      "GeneralMktDescription": null,
      "GTIN": "00071159078240",
      "Name": "Corn Nuts BBQ Crunchy Corn Kernels 4 oz Bag 4 oz",
      "NetWeightOZ": 0,
      "PackagingTypeCode": null,
      "ParentID": null,
      "PrepTypeName": null,
      "ProductDescriptionShort": null,
      "ProductDescriptionGrid": null,
      "seoFriendlyName": "",
      "ServingsOfTradeItemUnit": null,
      "ServingSuggestions": null,
      "ThumbnailPath": null,
      "UnitDescriptorCode": null,
      "UPC": null,
      "WilkeUPC": null,
      "UserTypeID": null,
      "LanguageCode": null,
      "CreatedDate": "2016-11-14T06:31:04.243",
      "IsNewProduct": false,
      "IsMappedProduct": false
    },
    {
      "PID": -38,
      "ProductID": null,
      "BrandName": "CORN NUTS",
      "FunctionalName": null,
      "VariantName": null,
      "SubVariant": null,
      "BrandOwnerGLN": null,
      "ConsumerUnitFlag": false,
      "eCommProductName": null,
      "eCommProductFeature": null,
      "GeneralMktDescription": null,
      "GTIN": "00071159079155",
      "Name": "Corn Nuts Original Crunchy Corn Kernels 7 oz Bag 7 oz",
      "NetWeightOZ": 0,
      "PackagingTypeCode": null,
      "ParentID": null,
      "PrepTypeName": null,
      "ProductDescriptionShort": null,
      "ProductDescriptionGrid": null,
      "seoFriendlyName": "",
      "ServingsOfTradeItemUnit": null,
      "ServingSuggestions": null,
      "ThumbnailPath": null,
      "UnitDescriptorCode": null,
      "UPC": null,
      "WilkeUPC": null,
      "UserTypeID": null,
      "LanguageCode": null,
      "CreatedDate": "2016-11-14T06:31:07.3",
      "IsNewProduct": false,
      "IsMappedProduct": false
    }
  ],
  "Variants": [],
  "BrandNames": [],
  "SubVariants": [],
  "FunctionalNames": [],
  "ProductBrands": [],
  "ProductImages": [],
  "ProductAllergens": []
}