{
  "ErrorFlag": false,
  "ErrorMessage": "Product Assets found 3",
  "AuthorizedSellingGroupsName": "Retail",
  "AllergenInformationSpecName": "Food Allergen Labeling and Consumer Protection Act of 2004",
  "AllergenRelevantProvidedFlag": false,
  "BrandName": "YOSHIDA",
  "BrandOwnerGLN": "0044710044602",
  "ConsumerUnitFlag": true,
  "CountryOfProduction": "USA",
  "CountryOfSale": "USA",
  "CrossDistributionChainStatusCode": "03",
  "CrossDistributionChainStatusName": "",
  "CubicVolumeMR3": "0.003",
  "CubicVolumeFT3": "0.101000003516674",
  "DeclaredNetContentUOMCode": "",
  "DeclaredNetContent": 0,
  "DisplayReadyPackagingIndicator": false,
  "eCommProductName": "MR. YOSHIDA'S Original Sweet & Savory Gourmet Sauce 56 OZ PLASTIC BOTTLE",
  "eCommProductFeature": "Same great taste, fresh new look ; Grill, saute, stir fry ; No fat, no cholesterol ; Kosher",
  "FirstAvailableShipDate": "2015-07-02T00:00:00",
  "FunctionalName": "Steak Sauces & Meat Condiments",
  "GeneralMktDescription": "",
  "GlobalProductClassificationCode": "10000280",
  "GrocerySnackIndicatorName": "Grocery",
  "GrossWeight": 0,
  "GrossWeightLB": 5.439000129699707,
  "GrossWeightOZ": 87.02799987792969,
  "GTIN": "00047496001951",
  "GTINVariableWeight": false,
  "HeightMM": 239.26800537109375,
  "HeightIN": 9.420000076293945,
  "MaximumStackingWeight": 0,
  "ID": 0,
  "IngredientInformationStatement": "INGREDIENTS: SOY SAUCE (WATER, WHEAT, SOYBEANS, SALT, ALCOHOL), SUGAR, HIGH FRUCTOSE CORN SYRUP, YOSHIDA’S MIRIN (WATER, DEXTROSE, MIRIN [RICE, ALCOHOL, ENZYMES, SALT], LACTIC ACID, SUCCINIC ACID), WATER, CONTAINS LESS THAN 2% OF: MODIFIED FOOD STARCH, DEHYDRATED GARLIC, SPICES.",
  "IngredientInfoCrossContStatement": "",
  "IngredientInfoDoesContainStatement": "",
  "IngredientInfoHHServingSize": "1 Tbsp (15ml)",
  "IsPackagingMarkedReturnable": false,
  "KosherSuitabilityInfoIndicator": false,
  "KosherSuitabilityCertAgency": "",
  "KosherSuitabilityInfoSymbol": "",
  "KosherSuitabilityInfoDocNumber": "",
  "KraftItemCode": "00474960019570",
  "LenghtDepthMM": 107.94999694824219,
  "LenghtDepthIN": 4.25,
  "Name": "YOSH S&S SCE SAM CLB DRP 270 56OZ",
  "NetWeightLB": 5.2,
  "NetWeightOZ": 82.9,
  "NextLowerLevelUnitsPerTradeUnit": "1",
  "NTRNRlvntPrvdFlag": false,
  "NutrSrv1CalAmt": "45 KCAL",
  "F_NUTRSRV1_CA_AMT": "",
  "NutrSrv1CaRDA": "",
  "NutrSrv1CholRDA": "",
  "NutrSrv1ChoRDA": "3.00",
  "NutrSrv1EnerpfAmt": "0 KCAL",
  "NutrSrv1FastatRDA": "",
  "NutrSrv1FastatAmt": "",
  "NutrSrv1FatAmt": "0 G",
  "NutrSrv1FatRDA": "0.00",
  "NutrSrv1FatrnAmt": "",
  "NutrSrv1FibtswAmt": "0 G",
  "NutrSrv1FibtswRDA": "0.00",
  "NutrSrv1HaemRDA": "",
  "NutrSrv1KAmt": "",
  "NutrSrv1KRDA": null,
  "NutrSrv1NaRDA": "19.00",
  "NutrSrv1NaAmt": "460 MG",
  "NutrSrv1PRDA": "",
  "NutrSrv1Prepstate": "UNPREPARED",
  "NutrSrv1ProAmt": "1 G",
  "NutrSrv1ServSize": "15 ML",
  "NutrSrv1SugarAmt": "8 G",
  "NutrSrv1VitARDA": "0.00",
  "NutrSrv1VitCRDA": "0.00",
  "OrderableUnitFlag": true,
  "OrganicSuitabilityInfoIndicator": false,
  "PackagingLanguage": "ENG",
  "PackagingMaterialTypeCode": "",
  "PackagingTypeCode": "BOTTLE",
  "PID": 8125,
  "ParentID": "C_YOSHIDA|Steak Sauces & Meat Condiments",
  "PrepAndCookSuggestion": "Shake well. Refrigerate after opening",
  "PrepTypeName": "",
  "ProductID": "00047496001951",
  "ProductDescriptionShort": "YOSH S&S SCE SAM CLB DRP 270 56OZ",
  "ProductDescriptionGrid": "YOSHIDA 56 OZ STEAK SAUCES & MEAT CONDIMENTS  SWEET AND SOUR     1 BOTTLE EACH",
  "ProductHierarchyCatalystCode": "",
  "RemoveFromKraftRecipe": false,
  "Referenced": false,
  "Selected": false,
  "seoFriendlyName": "",
  "ServingsOfTradeItemUnit": "",
  "ServingSuggestions": "",
  "SeasonalCode": "",
  "SubVariant": "",
  "TemperatureMinFarenheit": "-50",
  "ThumbnailPath": "",
  "TotalShelfLife": "450",
  "UnitDescriptorCode": "EACH",
  "UserTypeID": "CONSUMER_UNIT",
  "VariantName": "SWEET AND SOUR",
  "WidthMM": 110.74400329589844,
  "WidthIN": 4.360000133514404,
  "CreatedBy": null,
  "Created": "0001-01-01T00:00:00",
  "UPC": "047496001951",
  "WilkeUPC": "004749600195",
  "UpdatedBy": null,
  "Updated": "2017-01-24T13:44:13",
  "DeclaredNetContentFO": "",
  "DeclaredNetContentPT": "",
  "DeclaredNetContentML": "",
  "DeclaredNetContentOZ": "56",
  "DeclaredNetContentGR": "",
  "DeclaredNetContentKG": "",
  "DeclaredNetContentLB": "",
  "DeclaredNetContent1N": "",
  "DeclaredNetContentText": "",
  "GrossWeightKG": "2.467000",
  "GrossWeightGR": "2467.232910",
  "NetWeightKG": "2.350000",
  "NetWeightGR": "2349.631104",
  "TemperatureClassificationCode": "01",
  "FactsPanelLabelType": "",
  "DivisionCatalyst": "50",
  "F_NUTRSRV1_BIOT_AMT": "",
  "F_NUTRSRV1_BIOT_RDA": "",
  "F_NUTRSRV1_CAL_RDA": "0.00",
  "F_NUTRSRV1_CHO_AMT": "10 G",
  "F_NUTRSRV1_CHOAVL_AMT": "",
  "F_NUTRSRV1_CHOL_AMT": "",
  "F_NUTRSRV1_CLD_RDA": "",
  "F_NUTRSRV1_CR_RDA": "",
  "F_NUTRSRV1_CU_RDA": "",
  "F_NUTRSRV1_DIFCA_AMT": "",
  "F_NUTRSRV1_DIFCA_RDA": "",
  "F_NUTRSRV1_ENER_AMT": "",
  "F_NUTRSRV1_ENER_RDA": "",
  "F_NUTRSRV1_ENERPF_RDA": "0.00",
  "F_NUTRSRV1_FAMS_AMT": "",
  "F_NUTRSRV1_FAPU_AMT": "",
  "F_NUTRSRV1_FAPUN3_AMT": "",
  "F_NUTRSRV1_FAPUN6_AMT": "",
  "F_NUTRSRV1_FAPUN6_RDA": "",
  "F_NUTRSRV1_FATRN_RDA": "",
  "F_NUTRSRV1_FIB_RDA": "",
  "F_NUTRSRV1_FIBINS_AMT": "",
  "F_NUTRSRV1_FIBSOL_AMT": "",
  "F_NUTRSRV1_FOL_AMT": "",
  "F_NUTRSRV1_FOL_RDA": "",
  "F_NUTRSRV1_HAEM_AMT": "",
  "F_NUTRSRV1_ID_RDA": "",
  "F_NUTRSRV1_K_AMT": "",
  "F_NUTRSRV1_K_RDA": "",
  "F_NUTRSRV1_MG_AMT": "",
  "F_NUTRSRV1_MG_RDA": "",
  "F_NUTRSRV1_MN_AMT": "",
  "F_NUTRSRV1_MN_RDA": "",
  "F_NUTRSRV1_MO_RDA": "",
  "F_NUTRSRV1_NIA_AMT": "",
  "F_NUTRSRV1_NIA_RDA": "",
  "F_NUTRSRV1_NIAEQ_RDA": "",
  "F_NUTRSRV1_P_AMT": "",
  "F_NUTRSRV1_PANTAC_AMT": "",
  "F_NUTRSRV1_PANTAC_RDA": "",
  "F_NUTRSRV1_PRO_RDA": "",
  "F_NUTRSRV1_RIBF_AMT": "",
  "F_NUTRSRV1_RIBF_RDA": "",
  "F_NUTRSRV1_SATFAT_AMT": "",
  "F_NUTRSRV1_SATFAT_RDA": "",
  "F_NUTRSRV1_SE_RDA": "",
  "F_NUTRSRV1_SUGALC_AMT": "",
  "F_NUTRSRV1_SUGAR_RDA": "0.00",
  "F_NUTRSRV1_THIA_AMT": "",
  "F_NUTRSRV1_THIA_RDA": "",
  "F_NUTRSRV1_VITAA_AMT": "",
  "F_NUTRSRV1_VITAA_RDA": "",
  "F_NUTRSRV1_VITAECA_RDA": "",
  "F_NUTRSRV1_VITB12_AMT": "",
  "F_NUTRSRV1_VITB12_RDA": "",
  "F_NUTRSRV1_VITB6_AMT": "",
  "F_NUTRSRV1_VITB6_RDA": "",
  "F_NUTRSRV1_VITC_AMT": "",
  "F_NUTRSRV1_VITD_AMT": "",
  "F_NUTRSRV1_VITD_RDA": "",
  "F_NUTRSRV1_VITDCA_RDA": "",
  "F_NUTRSRV1_VITE_RDA": "",
  "F_NUTRSRV1_VITK_AMT": "",
  "F_NUTRSRV1_VITK_RDA": "",
  "F_NUTRSRV1_ZN_AMT": "",
  "F_NUTRSRV1_ZN_RDA": "",
  "F_NUTRSRV100G_ADDSUG_AMT": "",
  "F_NUTRSRV100G_BIOT_AMT": "",
  "F_NUTRSRV100G_BIOT_RDA": "",
  "F_NUTRSRV100G_CA_AMT": "",
  "F_NUTRSRV100G_CA_RDA": "",
  "F_NUTRSRV100G_CAL_AMT": "300 KCAL",
  "F_NUTRSRV100G_CAL_RDA": "0.00",
  "F_NUTRSRV100G_CHO_AMT": "",
  "F_NUTRSRV100G_CHO_RDA": "",
  "F_NUTRSRV100G_CHOL_AMT": "",
  "F_NUTRSRV100G_CHOL_RDA": "",
  "F_NUTRSRV100G_CU_RDA": "",
  "F_NUTRSRV100G_DIFCA_AMT": "",
  "F_NUTRSRV100G_DIFCA_RDA": "",
  "F_NUTRSRV100G_ENER_AMT": "",
  "F_NUTRSRV100G_ENERPF_AMT": "0 KCAL",
  "F_NUTRSRV100G_ENERPF_RDA": "0.00",
  "F_NUTRSRV100G_FAMS_AMT": "",
  "F_NUTRSRV100G_FAPU_AMT": "",
  "F_NUTRSRV100G_FAPUN3_AMT": "",
  "F_NUTRSRV100G_FAPUN6_AMT": "",
  "F_NUTRSRV100G_FASAT_AMT": "",
  "F_NUTRSRV100G_FASAT_RDA": "",
  "F_NUTRSRV100G_FAT_AMT": "0 G",
  "F_NUTRSRV100G_FAT_RDA": "0.00",
  "F_NUTRSRV100G_FATRN_AMT": "",
  "F_NUTRSRV100G_FATRN_RDA": "",
  "F_NUTRSRV100G_FIBTSW_AMT": "0 G",
  "F_NUTRSRV100G_FIBTSW_RDA": "0.00",
  "F_NUTRSRV100G_FOL_AMT": "",
  "F_NUTRSRV100G_FOL_RDA": "",
  "F_NUTRSRV100G_HAEM_AMT": "",
  "F_NUTRSRV100G_HAEM_RDA": "",
  "F_NUTRSRV100G_ID_RDA": "",
  "F_NUTRSRV100G_K_AMT": "",
  "F_NUTRSRV100G_K_RDA": "",
  "F_NUTRSRV100G_MG_AMT": "",
  "F_NUTRSRV100G_MG_RDA": "",
  "F_NUTRSRV100G_MN_AMT": "",
  "F_NUTRSRV100G_NA_AMT": "3066.66660308838 MG",
  "F_NUTRSRV100G_NA_RDA": "19.00",
  "F_NUTRSRV100G_NIA_AMT": "",
  "F_NUTRSRV100G_NIA_RDA": "",
  "F_NUTRSRV100G_P_AMT": "",
  "F_NUTRSRV100G_P_RDA": "",
  "F_NUTRSRV100G_PANTAC_AMT": "",
  "F_NUTRSRV100G_PANTAC_RDA": "",
  "F_NUTRSRV100G_PRO_AMT": "",
  "F_NUTRSRV100G_PRO_RDA": "",
  "F_NUTRSRV100G_RIBF_AMT": "",
  "F_NUTRSRV100G_RIBF_RDA": "",
  "F_NUTRSRV100G_SATFAT_AMT": "",
  "F_NUTRSRV100G_SATFAT_RDA": "",
  "F_NUTRSRV100G_SUGALC_AMT": "",
  "F_NUTRSRV100G_SUGAR_AMT": "53.3333361148834 G",
  "F_NUTRSRV100G_SUGAR_RDA": "0.00",
  "F_NUTRSRV100G_THIA_AMT": "",
  "F_NUTRSRV100G_THIA_RDA": "",
  "F_NUTRSRV100G_VITA_AMT": "",
  "F_NUTRSRV100G_VITA_RDA": "",
  "F_NUTRSRV100G_VITAA_AMT": "",
  "F_NUTRSRV100G_VITAA_RDA": "",
  "F_NUTRSRV100G_VITB12_AMT": "",
  "F_NUTRSRV100G_VITB6_AMT": "",
  "F_NUTRSRV100G_VITB6_RDA": "",
  "F_NUTRSRV100G_VITC_AMT": "",
  "F_NUTRSRV100G_VITC_RDA": "",
  "F_NUTRSRV100G_VITD_AMT": "",
  "F_NUTRSRV100G_VITDCA_AMT": "",
  "F_NUTRSRV100G_VITE_AMT": "",
  "F_NUTRSRV100G_ZN_AMT": "",
  "F_NUTRSRV100G_ZN_RDA": "",
  "F_NUTRSRV2_CA_RDA": "",
  "F_NUTRSRV2_CAL_AMT": "",
  "F_NUTRSRV2_CHO_AMT": "",
  "F_NUTRSRV2_CHO_RDA": "",
  "F_NUTRSRV2_CHOL_AMT": "",
  "F_NUTRSRV2_CHOL_RDA": "",
  "F_NUTRSRV2_CU_RDA": "",
  "F_NUTRSRV2_DIFCA_AMT": "",
  "F_NUTRSRV2_DIFCA_RDA": "",
  "F_NUTRSRV2_ENER_AMT": "",
  "F_NUTRSRV2_ENERPF_AMT": "",
  "F_NUTRSRV2_FAMS_AMT": "",
  "F_NUTRSRV2_FAPU_AMT": "",
  "F_NUTRSRV2_FAPUN3_AMT": "",
  "F_NUTRSRV2_FAPUN6_AMT": "",
  "F_NUTRSRV2_FASAT_AMT": "",
  "F_NUTRSRV2_FASAT_RDA": "",
  "F_NUTRSRV2_FAT_AMT": "",
  "F_NUTRSRV2_FAT_RDA": "",
  "F_NUTRSRV2_FATRN_AMT": "",
  "F_NUTRSRV2_FIBTSW_AMT": "",
  "F_NUTRSRV2_FIBTSW_RDA": "",
  "F_NUTRSRV2_FOL_RDA": "",
  "F_NUTRSRV2_HAEM_RDA": "",
  "F_NUTRSRV2_K_AMT": "",
  "F_NUTRSRV2_K_RDA": "",
  "F_NUTRSRV2_MG_RDA": "",
  "F_NUTRSRV2_MN_RDA": "",
  "F_NUTRSRV2_NA_AMT": "",
  "F_NUTRSRV2_NA_RDA": "",
  "F_NUTRSRV2_NIA_RDA": "",
  "F_NUTRSRV2_NIAEQ_RDA": "",
  "F_NUTRSRV2_P_RDA": "",
  "F_NUTRSRV2_PRO_AMT": "",
  "F_NUTRSRV2_PRO_RDA": "",
  "F_NUTRSRV2_RIBF_RDA": "",
  "F_NUTRSRV2_SATFAT_AMT": "",
  "F_NUTRSRV2_SATFAT_RDA": "",
  "F_NUTRSRV2_SUGAR_AMT": "",
  "F_NUTRSRV2_THIA_RDA": "",
  "F_NUTRSRV2_VITA_RDA": "",
  "F_NUTRSRV2_VITAA_RDA": "",
  "F_NUTRSRV2_VITC_AMT": "",
  "F_NUTRSRV2_VITC_RDA": "",
  "F_NUTRSRV2_VITE_RDA": "",
  "F_NUTRSRV2_ZN_RDA": "",
  "F_NUTRSRV3_CA_AMT": "",
  "F_NUTRSRV3_CA_RDA": "",
  "F_NUTRSRV3_CAL_AMT": "",
  "F_NUTRSRV3_CHO_AMT": "",
  "F_NUTRSRV3_CHO_RDA": "",
  "F_NUTRSRV3_CHOL_AMT": "",
  "F_NUTRSRV3_CHOL_RDA": "",
  "F_NUTRSRV3_DIFCA_AMT": "",
  "F_NUTRSRV3_DIFCA_RDA": "",
  "F_NUTRSRV3_ENER_AMT": "",
  "F_NUTRSRV3_ENERPF_AMT": "",
  "F_NUTRSRV3_FAMS_AMT": "",
  "F_NUTRSRV3_FAPU_AMT": "",
  "F_NUTRSRV3_FAPUN3_AMT": "",
  "F_NUTRSRV3_FAPUN6_AMT": "",
  "F_NUTRSRV3_FASAT_AMT": "",
  "F_NUTRSRV3_FASAT_RDA": "",
  "F_NUTRSRV3_FAT_AMT": "",
  "F_NUTRSRV3_FAT_RDA": "",
  "F_NUTRSRV3_FATRN_AMT": "",
  "F_NUTRSRV3_FIBTSW_AMT": "",
  "F_NUTRSRV3_FIBTSW_RDA": "",
  "F_NUTRSRV3_HAEM_AMT": "",
  "F_NUTRSRV3_HAEM_RDA": "",
  "F_NUTRSRV3_K_AMT": "",
  "F_NUTRSRV3_K_RDA": "",
  "F_NUTRSRV3_MG_RDA": "",
  "F_NUTRSRV3_MN_RDA": "",
  "F_NUTRSRV3_NA_AMT": "",
  "F_NUTRSRV3_NA_RDA": "",
  "F_NUTRSRV3_NIA_RDA": "",
  "F_NUTRSRV3_P_AMT": "",
  "F_NUTRSRV3_P_RDA": "",
  "F_NUTRSRV3_PRO_AMT": "",
  "F_NUTRSRV3_PRO_RDA": "",
  "F_NUTRSRV3_SATFAT_RDA": "",
  "F_NUTRSRV3_SUGAR_AMT": "",
  "F_NUTRSRV3_VITA_RDA": "",
  "F_NUTRSRV3_VITAA_RDA": "",
  "F_NUTRSRV3_VITC_RDA": "",
  "F_NUTRSRV3_VITE_RDA": "",
  "F_NUTRSRV1_VITE_AMT": "",
  "F_NUTRSRV2_HAEM_AMT": "",
  "F_NUTRSRV2_VITAA_AMT": "",
  "F_NUTRSRV2_CA_AMT": "",
  "NutrSrv100gDIFCAPrecision": "",
  "NutrSrv100gEnerPrecision": "",
  "NutrSrv100gPAmt": 0,
  "NutrSrv100gCAAmt": 0,
  "LanguageCode": "eng",
  "ProductBrands": [
    {
      "BrandID": 165,
      "Name": "YOSHIDA",
      "SiteId": 0,
      "ParentId": 0,
      "seoFriendlyName": "",
      "Created": "0001-01-01T00:00:00",
      "CreatedBy": null,
      "Updated": "0001-01-01T00:00:00",
      "UpdatedBy": null,
      "ErrorFlag": false,
      "ErrorMessage": null
    }
  ],
  "ProductAssets": [
    {
      "PID": 0,
      "Type": null,
      "RendtitionName": null,
      "Renditions": [
        {
          "Id": 0,
          "AssetId": "21729",
          "RenditionId": 0,
          "RenditionName": "120x84",
          "AssetPath": "http://assets.kraftfoods.com/KHProducts/120x84/00047496001951_A1C1.jpg",
          "Type": "Secondary Image"
        },
        {
          "Id": 0,
          "AssetId": "21729",
          "RenditionId": 0,
          "RenditionName": "1365x960",
          "AssetPath": "http://assets.kraftfoods.com/KHProducts/1365x960/00047496001951_A1C1.jpg",
          "Type": "Secondary Image"
        },
        {
          "Id": 0,
          "AssetId": "21729",
          "RenditionId": 0,
          "RenditionName": "220x225",
          "AssetPath": "http://assets.kraftfoods.com/KHProducts/220x225/00047496001951_A1C1.jpg",
          "Type": "Secondary Image"
        },
        {
          "Id": 0,
          "AssetId": "21729",
          "RenditionId": 0,
          "RenditionName": "290x194",
          "AssetPath": "http://assets.kraftfoods.com/KHProducts/290x194/00047496001951_A1C1.jpg",
          "Type": "Secondary Image"
        },
        {
          "Id": 0,
          "AssetId": "21729",
          "RenditionId": 0,
          "RenditionName": "455x320",
          "AssetPath": "http://assets.kraftfoods.com/KHProducts/455x320/00047496001951_A1C1.jpg",
          "Type": "Secondary Image"
        },
        {
          "Id": 0,
          "AssetId": "21729",
          "RenditionId": 0,
          "RenditionName": "600x250",
          "AssetPath": "http://assets.kraftfoods.com/KHProducts/600x250/00047496001951_A1C1.jpg",
          "Type": "Secondary Image"
        },
        {
          "Id": 0,
          "AssetId": "21729",
          "RenditionId": 0,
          "RenditionName": "960x300",
          "AssetPath": "http://assets.kraftfoods.com/KHProducts/960x300/00047496001951_A1C1.jpg",
          "Type": "Secondary Image"
        },
        {
          "Id": 0,
          "AssetId": "21728",
          "RenditionId": 0,
          "RenditionName": "120x84",
          "AssetPath": "http://assets.kraftfoods.com/KHProducts/120x84/00047496001951_A1R1.jpg",
          "Type": "Secondary Image"
        },
        {
          "Id": 0,
          "AssetId": "21728",
          "RenditionId": 0,
          "RenditionName": "1365x960",
          "AssetPath": "http://assets.kraftfoods.com/KHProducts/1365x960/00047496001951_A1R1.jpg",
          "Type": "Secondary Image"
        },
        {
          "Id": 0,
          "AssetId": "21728",
          "RenditionId": 0,
          "RenditionName": "220x225",
          "AssetPath": "http://assets.kraftfoods.com/KHProducts/220x225/00047496001951_A1R1.jpg",
          "Type": "Secondary Image"
        },
        {
          "Id": 0,
          "AssetId": "21728",
          "RenditionId": 0,
          "RenditionName": "290x194",
          "AssetPath": "http://assets.kraftfoods.com/KHProducts/290x194/00047496001951_A1R1.jpg",
          "Type": "Secondary Image"
        },
        {
          "Id": 0,
          "AssetId": "21728",
          "RenditionId": 0,
          "RenditionName": "455x320",
          "AssetPath": "http://assets.kraftfoods.com/KHProducts/455x320/00047496001951_A1R1.jpg",
          "Type": "Secondary Image"
        },
        {
          "Id": 0,
          "AssetId": "21728",
          "RenditionId": 0,
          "RenditionName": "600x250",
          "AssetPath": "http://assets.kraftfoods.com/KHProducts/600x250/00047496001951_A1R1.jpg",
          "Type": "Secondary Image"
        },
        {
          "Id": 0,
          "AssetId": "21728",
          "RenditionId": 0,
          "RenditionName": "960x300",
          "AssetPath": "http://assets.kraftfoods.com/KHProducts/960x300/00047496001951_A1R1.jpg",
          "Type": "Secondary Image"
        },
        {
          "Id": 0,
          "AssetId": "21730",
          "RenditionId": 0,
          "RenditionName": "120x84",
          "AssetPath": "http://assets.kraftfoods.com/KHProducts/120x84/00047496001951_A1L1.jpg",
          "Type": "Primary Image"
        },
        {
          "Id": 0,
          "AssetId": "21730",
          "RenditionId": 0,
          "RenditionName": "1365x960",
          "AssetPath": "http://assets.kraftfoods.com/KHProducts/1365x960/00047496001951_A1L1.jpg",
          "Type": "Primary Image"
        },
        {
          "Id": 0,
          "AssetId": "21730",
          "RenditionId": 0,
          "RenditionName": "220x225",
          "AssetPath": "http://assets.kraftfoods.com/KHProducts/220x225/00047496001951_A1L1.jpg",
          "Type": "Primary Image"
        },
        {
          "Id": 0,
          "AssetId": "21730",
          "RenditionId": 0,
          "RenditionName": "290x194",
          "AssetPath": "http://assets.kraftfoods.com/KHProducts/290x194/00047496001951_A1L1.jpg",
          "Type": "Primary Image"
        },
        {
          "Id": 0,
          "AssetId": "21730",
          "RenditionId": 0,
          "RenditionName": "455x320",
          "AssetPath": "http://assets.kraftfoods.com/KHProducts/455x320/00047496001951_A1L1.jpg",
          "Type": "Primary Image"
        },
        {
          "Id": 0,
          "AssetId": "21730",
          "RenditionId": 0,
          "RenditionName": "600x250",
          "AssetPath": "http://assets.kraftfoods.com/KHProducts/600x250/00047496001951_A1L1.jpg",
          "Type": "Primary Image"
        },
        {
          "Id": 0,
          "AssetId": "21730",
          "RenditionId": 0,
          "RenditionName": "960x300",
          "AssetPath": "http://assets.kraftfoods.com/KHProducts/960x300/00047496001951_A1L1.jpg",
          "Type": "Primary Image"
        }
      ],
      "ID": 0,
      "AssetID": "21728",
      "UserTypeID": "ECOMMERCE_IMAGES",
      "ParentID": null,
      "Selected": false,
      "Referenced": false,
      "StartDate": "2016-10-14T00:00:00",
      "EndDate": "2025-12-31T00:00:00",
      "FileFormat": null,
      "ImageType": "PRODUCT_IMAGE  ",
      "SourceURL": "https://api.kwikeesystems.com/product_images/00047496001951_A1R1.JPG  ",
      "FileName": "00047496001951_A1R1  "
    },
    {
      "PID": 0,
      "Type": null,
      "RendtitionName": null,
      "Renditions": [
        {
          "Id": 0,
          "AssetId": "21729",
          "RenditionId": 0,
          "RenditionName": "120x84",
          "AssetPath": "http://assets.kraftfoods.com/KHProducts/120x84/00047496001951_A1C1.jpg",
          "Type": "Secondary Image"
        },
        {
          "Id": 0,
          "AssetId": "21729",
          "RenditionId": 0,
          "RenditionName": "1365x960",
          "AssetPath": "http://assets.kraftfoods.com/KHProducts/1365x960/00047496001951_A1C1.jpg",
          "Type": "Secondary Image"
        },
        {
          "Id": 0,
          "AssetId": "21729",
          "RenditionId": 0,
          "RenditionName": "220x225",
          "AssetPath": "http://assets.kraftfoods.com/KHProducts/220x225/00047496001951_A1C1.jpg",
          "Type": "Secondary Image"
        },
        {
          "Id": 0,
          "AssetId": "21729",
          "RenditionId": 0,
          "RenditionName": "290x194",
          "AssetPath": "http://assets.kraftfoods.com/KHProducts/290x194/00047496001951_A1C1.jpg",
          "Type": "Secondary Image"
        },
        {
          "Id": 0,
          "AssetId": "21729",
          "RenditionId": 0,
          "RenditionName": "455x320",
          "AssetPath": "http://assets.kraftfoods.com/KHProducts/455x320/00047496001951_A1C1.jpg",
          "Type": "Secondary Image"
        },
        {
          "Id": 0,
          "AssetId": "21729",
          "RenditionId": 0,
          "RenditionName": "600x250",
          "AssetPath": "http://assets.kraftfoods.com/KHProducts/600x250/00047496001951_A1C1.jpg",
          "Type": "Secondary Image"
        },
        {
          "Id": 0,
          "AssetId": "21729",
          "RenditionId": 0,
          "RenditionName": "960x300",
          "AssetPath": "http://assets.kraftfoods.com/KHProducts/960x300/00047496001951_A1C1.jpg",
          "Type": "Secondary Image"
        },
        {
          "Id": 0,
          "AssetId": "21728",
          "RenditionId": 0,
          "RenditionName": "120x84",
          "AssetPath": "http://assets.kraftfoods.com/KHProducts/120x84/00047496001951_A1R1.jpg",
          "Type": "Secondary Image"
        },
        {
          "Id": 0,
          "AssetId": "21728",
          "RenditionId": 0,
          "RenditionName": "1365x960",
          "AssetPath": "http://assets.kraftfoods.com/KHProducts/1365x960/00047496001951_A1R1.jpg",
          "Type": "Secondary Image"
        },
        {
          "Id": 0,
          "AssetId": "21728",
          "RenditionId": 0,
          "RenditionName": "220x225",
          "AssetPath": "http://assets.kraftfoods.com/KHProducts/220x225/00047496001951_A1R1.jpg",
          "Type": "Secondary Image"
        },
        {
          "Id": 0,
          "AssetId": "21728",
          "RenditionId": 0,
          "RenditionName": "290x194",
          "AssetPath": "http://assets.kraftfoods.com/KHProducts/290x194/00047496001951_A1R1.jpg",
          "Type": "Secondary Image"
        },
        {
          "Id": 0,
          "AssetId": "21728",
          "RenditionId": 0,
          "RenditionName": "455x320",
          "AssetPath": "http://assets.kraftfoods.com/KHProducts/455x320/00047496001951_A1R1.jpg",
          "Type": "Secondary Image"
        },
        {
          "Id": 0,
          "AssetId": "21728",
          "RenditionId": 0,
          "RenditionName": "600x250",
          "AssetPath": "http://assets.kraftfoods.com/KHProducts/600x250/00047496001951_A1R1.jpg",
          "Type": "Secondary Image"
        },
        {
          "Id": 0,
          "AssetId": "21728",
          "RenditionId": 0,
          "RenditionName": "960x300",
          "AssetPath": "http://assets.kraftfoods.com/KHProducts/960x300/00047496001951_A1R1.jpg",
          "Type": "Secondary Image"
        },
        {
          "Id": 0,
          "AssetId": "21730",
          "RenditionId": 0,
          "RenditionName": "120x84",
          "AssetPath": "http://assets.kraftfoods.com/KHProducts/120x84/00047496001951_A1L1.jpg",
          "Type": "Primary Image"
        },
        {
          "Id": 0,
          "AssetId": "21730",
          "RenditionId": 0,
          "RenditionName": "1365x960",
          "AssetPath": "http://assets.kraftfoods.com/KHProducts/1365x960/00047496001951_A1L1.jpg",
          "Type": "Primary Image"
        },
        {
          "Id": 0,
          "AssetId": "21730",
          "RenditionId": 0,
          "RenditionName": "220x225",
          "AssetPath": "http://assets.kraftfoods.com/KHProducts/220x225/00047496001951_A1L1.jpg",
          "Type": "Primary Image"
        },
        {
          "Id": 0,
          "AssetId": "21730",
          "RenditionId": 0,
          "RenditionName": "290x194",
          "AssetPath": "http://assets.kraftfoods.com/KHProducts/290x194/00047496001951_A1L1.jpg",
          "Type": "Primary Image"
        },
        {
          "Id": 0,
          "AssetId": "21730",
          "RenditionId": 0,
          "RenditionName": "455x320",
          "AssetPath": "http://assets.kraftfoods.com/KHProducts/455x320/00047496001951_A1L1.jpg",
          "Type": "Primary Image"
        },
        {
          "Id": 0,
          "AssetId": "21730",
          "RenditionId": 0,
          "RenditionName": "600x250",
          "AssetPath": "http://assets.kraftfoods.com/KHProducts/600x250/00047496001951_A1L1.jpg",
          "Type": "Primary Image"
        },
        {
          "Id": 0,
          "AssetId": "21730",
          "RenditionId": 0,
          "RenditionName": "960x300",
          "AssetPath": "http://assets.kraftfoods.com/KHProducts/960x300/00047496001951_A1L1.jpg",
          "Type": "Primary Image"
        }
      ],
      "ID": 0,
      "AssetID": "21729",
      "UserTypeID": "ECOMMERCE_IMAGES",
      "ParentID": null,
      "Selected": false,
      "Referenced": false,
      "StartDate": "2016-10-14T00:00:00",
      "EndDate": "2025-12-31T00:00:00",
      "FileFormat": null,
      "ImageType": "PRODUCT_IMAGE  ",
      "SourceURL": "https://api.kwikeesystems.com/product_images/00047496001951_A1C1.JPG  ",
      "FileName": "00047496001951_A1C1  "
    },
    {
      "PID": 0,
      "Type": null,
      "RendtitionName": null,
      "Renditions": [
        {
          "Id": 0,
          "AssetId": "21729",
          "RenditionId": 0,
          "RenditionName": "120x84",
          "AssetPath": "http://assets.kraftfoods.com/KHProducts/120x84/00047496001951_A1C1.jpg",
          "Type": "Secondary Image"
        },
        {
          "Id": 0,
          "AssetId": "21729",
          "RenditionId": 0,
          "RenditionName": "1365x960",
          "AssetPath": "http://assets.kraftfoods.com/KHProducts/1365x960/00047496001951_A1C1.jpg",
          "Type": "Secondary Image"
        },
        {
          "Id": 0,
          "AssetId": "21729",
          "RenditionId": 0,
          "RenditionName": "220x225",
          "AssetPath": "http://assets.kraftfoods.com/KHProducts/220x225/00047496001951_A1C1.jpg",
          "Type": "Secondary Image"
        },
        {
          "Id": 0,
          "AssetId": "21729",
          "RenditionId": 0,
          "RenditionName": "290x194",
          "AssetPath": "http://assets.kraftfoods.com/KHProducts/290x194/00047496001951_A1C1.jpg",
          "Type": "Secondary Image"
        },
        {
          "Id": 0,
          "AssetId": "21729",
          "RenditionId": 0,
          "RenditionName": "455x320",
          "AssetPath": "http://assets.kraftfoods.com/KHProducts/455x320/00047496001951_A1C1.jpg",
          "Type": "Secondary Image"
        },
        {
          "Id": 0,
          "AssetId": "21729",
          "RenditionId": 0,
          "RenditionName": "600x250",
          "AssetPath": "http://assets.kraftfoods.com/KHProducts/600x250/00047496001951_A1C1.jpg",
          "Type": "Secondary Image"
        },
        {
          "Id": 0,
          "AssetId": "21729",
          "RenditionId": 0,
          "RenditionName": "960x300",
          "AssetPath": "http://assets.kraftfoods.com/KHProducts/960x300/00047496001951_A1C1.jpg",
          "Type": "Secondary Image"
        },
        {
          "Id": 0,
          "AssetId": "21728",
          "RenditionId": 0,
          "RenditionName": "120x84",
          "AssetPath": "http://assets.kraftfoods.com/KHProducts/120x84/00047496001951_A1R1.jpg",
          "Type": "Secondary Image"
        },
        {
          "Id": 0,
          "AssetId": "21728",
          "RenditionId": 0,
          "RenditionName": "1365x960",
          "AssetPath": "http://assets.kraftfoods.com/KHProducts/1365x960/00047496001951_A1R1.jpg",
          "Type": "Secondary Image"
        },
        {
          "Id": 0,
          "AssetId": "21728",
          "RenditionId": 0,
          "RenditionName": "220x225",
          "AssetPath": "http://assets.kraftfoods.com/KHProducts/220x225/00047496001951_A1R1.jpg",
          "Type": "Secondary Image"
        },
        {
          "Id": 0,
          "AssetId": "21728",
          "RenditionId": 0,
          "RenditionName": "290x194",
          "AssetPath": "http://assets.kraftfoods.com/KHProducts/290x194/00047496001951_A1R1.jpg",
          "Type": "Secondary Image"
        },
        {
          "Id": 0,
          "AssetId": "21728",
          "RenditionId": 0,
          "RenditionName": "455x320",
          "AssetPath": "http://assets.kraftfoods.com/KHProducts/455x320/00047496001951_A1R1.jpg",
          "Type": "Secondary Image"
        },
        {
          "Id": 0,
          "AssetId": "21728",
          "RenditionId": 0,
          "RenditionName": "600x250",
          "AssetPath": "http://assets.kraftfoods.com/KHProducts/600x250/00047496001951_A1R1.jpg",
          "Type": "Secondary Image"
        },
        {
          "Id": 0,
          "AssetId": "21728",
          "RenditionId": 0,
          "RenditionName": "960x300",
          "AssetPath": "http://assets.kraftfoods.com/KHProducts/960x300/00047496001951_A1R1.jpg",
          "Type": "Secondary Image"
        },
        {
          "Id": 0,
          "AssetId": "21730",
          "RenditionId": 0,
          "RenditionName": "120x84",
          "AssetPath": "http://assets.kraftfoods.com/KHProducts/120x84/00047496001951_A1L1.jpg",
          "Type": "Primary Image"
        },
        {
          "Id": 0,
          "AssetId": "21730",
          "RenditionId": 0,
          "RenditionName": "1365x960",
          "AssetPath": "http://assets.kraftfoods.com/KHProducts/1365x960/00047496001951_A1L1.jpg",
          "Type": "Primary Image"
        },
        {
          "Id": 0,
          "AssetId": "21730",
          "RenditionId": 0,
          "RenditionName": "220x225",
          "AssetPath": "http://assets.kraftfoods.com/KHProducts/220x225/00047496001951_A1L1.jpg",
          "Type": "Primary Image"
        },
        {
          "Id": 0,
          "AssetId": "21730",
          "RenditionId": 0,
          "RenditionName": "290x194",
          "AssetPath": "http://assets.kraftfoods.com/KHProducts/290x194/00047496001951_A1L1.jpg",
          "Type": "Primary Image"
        },
        {
          "Id": 0,
          "AssetId": "21730",
          "RenditionId": 0,
          "RenditionName": "455x320",
          "AssetPath": "http://assets.kraftfoods.com/KHProducts/455x320/00047496001951_A1L1.jpg",
          "Type": "Primary Image"
        },
        {
          "Id": 0,
          "AssetId": "21730",
          "RenditionId": 0,
          "RenditionName": "600x250",
          "AssetPath": "http://assets.kraftfoods.com/KHProducts/600x250/00047496001951_A1L1.jpg",
          "Type": "Primary Image"
        },
        {
          "Id": 0,
          "AssetId": "21730",
          "RenditionId": 0,
          "RenditionName": "960x300",
          "AssetPath": "http://assets.kraftfoods.com/KHProducts/960x300/00047496001951_A1L1.jpg",
          "Type": "Primary Image"
        }
      ],
      "ID": 0,
      "AssetID": "21730",
      "UserTypeID": "ECOMMERCE_IMAGES",
      "ParentID": null,
      "Selected": false,
      "Referenced": false,
      "StartDate": "2016-10-14T00:00:00",
      "EndDate": "2025-12-31T00:00:00",
      "FileFormat": null,
      "ImageType": "PRODUCT_IMAGE  ",
      "SourceURL": "https://api.kwikeesystems.com/product_images/00047496001951_A1L1.JPG  ",
      "FileName": "00047496001951_A1L1  "
    }
  ],
  "ProductAllergens": [
    {
      "AllergenID": "3",
      "Allergen": "Soya"
    },
    {
      "AllergenID": "14",
      "Allergen": "Wheat"
    }
  ],
  "ProductVariants": [
    {
      "VariantName": "SWEET AND SOUR",
      "SubVariant": "",
      "Count": 1,
      "DefaultProductGTIN": "00070346000095"
    }
  ],
  "SizeVariants": [
    {
      "SizeVariantOZ": 82.87999725341797,
      "Count": 1,
      "DefaultProductGTIN": "00047496001951"
    }
  ]
}