{
  "ErrorFlag": false,
  "ErrorMessage": "Product Assets found 1",
  "AuthorizedSellingGroupsName": "Retail",
  "AllergenInformationSpecName": "Food Allergen Labeling and Consumer Protection Act of 2004",
  "AllergenRelevantProvidedFlag": false,
  "BrandName": "WYLERS",
  "BrandOwnerGLN": "0044710044602",
  "ConsumerUnitFlag": true,
  "CountryOfProduction": "USA",
  "CountryOfSale": "USA",
  "CrossDistributionChainStatusCode": "03",
  "CrossDistributionChainStatusName": "",
  "CubicVolumeMR3": "0.000",
  "CubicVolumeFT3": "0.0130000002682209",
  "DeclaredNetContentUOMCode": "",
  "DeclaredNetContent": 0,
  "DisplayReadyPackagingIndicator": false,
  "eCommProductName": "Wyler's(r) Chicken Bouillon Cubes 3.25 oz. Jar",
  "eCommProductFeature": "Makes 25 Cups",
  "FirstAvailableShipDate": "2015-07-02T00:00:00",
  "FunctionalName": "SOUP",
  "GeneralMktDescription": "",
  "GlobalProductClassificationCode": "10000262",
  "GrocerySnackIndicatorName": "Grocery",
  "GrossWeight": 0,
  "GrossWeightLB": 0.6200000047683716,
  "GrossWeightOZ": 9.920000076293945,
  "GTIN": "00041258751153",
  "GTINVariableWeight": false,
  "HeightMM": 82.98200225830078,
  "HeightIN": 3.2669999599456787,
  "MaximumStackingWeight": 0,
  "ID": 0,
  "IngredientInformationStatement": "INGREDIENTS: SALT, SUGAR, MONOSODIUM GLUTAMATE, CORN SYRUP SOLIDS, CHICKEN FLAVOR (HYDROLYZED CORN PROTEIN, DEHYDRATED COOKED CHICKEN, AUTOLYZED YEAST EXTRACT, HYDROLYZED SOY PROTEIN, SALT, RENDERED CHICKEN FAT, FLAVOR [CONTAINS MILK], DISODIUM INOSINATE, DISODIUM GUANYLATE, ARTIFICIAL FLAVOR, SPICE, THIAMINE HYDROCHLORIDE, BUTTER, BUTTER OIL), ONION POWDER, CORN MALTODEXTRIN, HYDROLYZED VEGETABLE PROTEIN (HYDROLYZED CORN GLUTEN, YEAST EXTRACT, PARTIALLY HYDROGENATED SOYBEAN OIL, DISODIUM INOSIN",
  "IngredientInfoCrossContStatement": "",
  "IngredientInfoDoesContainStatement": "",
  "IngredientInfoHHServingSize": "1 Cube (3.7g), 1 Cup (245g)",
  "IsPackagingMarkedReturnable": false,
  "KosherSuitabilityInfoIndicator": false,
  "KosherSuitabilityCertAgency": "",
  "KosherSuitabilityInfoSymbol": "",
  "KosherSuitabilityInfoDocNumber": "",
  "KraftItemCode": "00412587511570",
  "LenghtDepthMM": 67.46299743652344,
  "LenghtDepthIN": 2.6559998989105225,
  "Name": "WYL CHICKEN BOUILLON CUBES 8 3.25OZ",
  "NetWeightLB": 0.2,
  "NetWeightOZ": 3.3,
  "NextLowerLevelUnitsPerTradeUnit": "1",
  "NTRNRlvntPrvdFlag": false,
  "NutrSrv1CalAmt": "",
  "F_NUTRSRV1_CA_AMT": "",
  "NutrSrv1CaRDA": "",
  "NutrSrv1CholRDA": "",
  "NutrSrv1ChoRDA": "",
  "NutrSrv1EnerpfAmt": "",
  "NutrSrv1FastatRDA": "",
  "NutrSrv1FastatAmt": "",
  "NutrSrv1FatAmt": "",
  "NutrSrv1FatRDA": "",
  "NutrSrv1FatrnAmt": "",
  "NutrSrv1FibtswAmt": "",
  "NutrSrv1FibtswRDA": "",
  "NutrSrv1HaemRDA": "",
  "NutrSrv1KAmt": "",
  "NutrSrv1KRDA": null,
  "NutrSrv1NaRDA": "",
  "NutrSrv1NaAmt": "",
  "NutrSrv1PRDA": "",
  "NutrSrv1Prepstate": "",
  "NutrSrv1ProAmt": "",
  "NutrSrv1ServSize": "",
  "NutrSrv1SugarAmt": "",
  "NutrSrv1VitARDA": "0.00",
  "NutrSrv1VitCRDA": "0.00",
  "OrderableUnitFlag": true,
  "OrganicSuitabilityInfoIndicator": false,
  "PackagingLanguage": "ENG",
  "PackagingMaterialTypeCode": "",
  "PackagingTypeCode": "JAR",
  "PID": 8518,
  "ParentID": "C_WYLERS|SOUP",
  "PrepAndCookSuggestion": "Directions: Dissolve 1 bouillon cube in 1 cup (8 fl. oz.) boiling water. For Recipes: 1 bouillon cube = 1 cup broth.",
  "PrepTypeName": "",
  "ProductID": "00041258751153",
  "ProductDescriptionShort": "WYL CHICKEN BOUILLON CUBES 8 3.25OZ",
  "ProductDescriptionGrid": "WYLERS 3.25 OZ SOUP  CHICKEN BOUILLON CUBES     1 JAR EACH",
  "ProductHierarchyCatalystCode": "",
  "RemoveFromKraftRecipe": false,
  "Referenced": false,
  "Selected": false,
  "seoFriendlyName": "",
  "ServingsOfTradeItemUnit": "",
  "ServingSuggestions": "",
  "SeasonalCode": "",
  "SubVariant": "",
  "TemperatureMinFarenheit": "-50",
  "ThumbnailPath": "",
  "TotalShelfLife": "720",
  "UnitDescriptorCode": "EACH",
  "UserTypeID": "CONSUMER_UNIT",
  "VariantName": "CHICKEN BOUILLON CUBES",
  "WidthMM": 67.46299743652344,
  "WidthIN": 2.6559998989105225,
  "CreatedBy": null,
  "Created": "0001-01-01T00:00:00",
  "UPC": "041258751153",
  "WilkeUPC": "004125875115",
  "UpdatedBy": null,
  "Updated": "2017-01-25T21:40:45",
  "DeclaredNetContentFO": "",
  "DeclaredNetContentPT": "",
  "DeclaredNetContentML": "",
  "DeclaredNetContentOZ": "3.25",
  "DeclaredNetContentGR": "",
  "DeclaredNetContentKG": "",
  "DeclaredNetContentLB": "",
  "DeclaredNetContent1N": "",
  "DeclaredNetContentText": "",
  "GrossWeightKG": "0.281000",
  "GrossWeightGR": "281.230011",
  "NetWeightKG": "0.092000",
  "NetWeightGR": "92.250000",
  "TemperatureClassificationCode": "01",
  "FactsPanelLabelType": "",
  "DivisionCatalyst": "50",
  "F_NUTRSRV1_BIOT_AMT": "",
  "F_NUTRSRV1_BIOT_RDA": "",
  "F_NUTRSRV1_CAL_RDA": "",
  "F_NUTRSRV1_CHO_AMT": "",
  "F_NUTRSRV1_CHOAVL_AMT": "",
  "F_NUTRSRV1_CHOL_AMT": "",
  "F_NUTRSRV1_CLD_RDA": "",
  "F_NUTRSRV1_CR_RDA": "",
  "F_NUTRSRV1_CU_RDA": "",
  "F_NUTRSRV1_DIFCA_AMT": "",
  "F_NUTRSRV1_DIFCA_RDA": "",
  "F_NUTRSRV1_ENER_AMT": "",
  "F_NUTRSRV1_ENER_RDA": "",
  "F_NUTRSRV1_ENERPF_RDA": "",
  "F_NUTRSRV1_FAMS_AMT": "",
  "F_NUTRSRV1_FAPU_AMT": "",
  "F_NUTRSRV1_FAPUN3_AMT": "",
  "F_NUTRSRV1_FAPUN6_AMT": "",
  "F_NUTRSRV1_FAPUN6_RDA": "",
  "F_NUTRSRV1_FATRN_RDA": "",
  "F_NUTRSRV1_FIB_RDA": "",
  "F_NUTRSRV1_FIBINS_AMT": "",
  "F_NUTRSRV1_FIBSOL_AMT": "",
  "F_NUTRSRV1_FOL_AMT": "",
  "F_NUTRSRV1_FOL_RDA": "",
  "F_NUTRSRV1_HAEM_AMT": "",
  "F_NUTRSRV1_ID_RDA": "",
  "F_NUTRSRV1_K_AMT": "",
  "F_NUTRSRV1_K_RDA": "",
  "F_NUTRSRV1_MG_AMT": "",
  "F_NUTRSRV1_MG_RDA": "",
  "F_NUTRSRV1_MN_AMT": "",
  "F_NUTRSRV1_MN_RDA": "",
  "F_NUTRSRV1_MO_RDA": "",
  "F_NUTRSRV1_NIA_AMT": "",
  "F_NUTRSRV1_NIA_RDA": "",
  "F_NUTRSRV1_NIAEQ_RDA": "",
  "F_NUTRSRV1_P_AMT": "",
  "F_NUTRSRV1_PANTAC_AMT": "",
  "F_NUTRSRV1_PANTAC_RDA": "",
  "F_NUTRSRV1_PRO_RDA": "",
  "F_NUTRSRV1_RIBF_AMT": "",
  "F_NUTRSRV1_RIBF_RDA": "",
  "F_NUTRSRV1_SATFAT_AMT": "",
  "F_NUTRSRV1_SATFAT_RDA": "",
  "F_NUTRSRV1_SE_RDA": "",
  "F_NUTRSRV1_SUGALC_AMT": "",
  "F_NUTRSRV1_SUGAR_RDA": "",
  "F_NUTRSRV1_THIA_AMT": "",
  "F_NUTRSRV1_THIA_RDA": "",
  "F_NUTRSRV1_VITAA_AMT": "",
  "F_NUTRSRV1_VITAA_RDA": "",
  "F_NUTRSRV1_VITAECA_RDA": "",
  "F_NUTRSRV1_VITB12_AMT": "",
  "F_NUTRSRV1_VITB12_RDA": "",
  "F_NUTRSRV1_VITB6_AMT": "",
  "F_NUTRSRV1_VITB6_RDA": "",
  "F_NUTRSRV1_VITC_AMT": "",
  "F_NUTRSRV1_VITD_AMT": "",
  "F_NUTRSRV1_VITD_RDA": "",
  "F_NUTRSRV1_VITDCA_RDA": "",
  "F_NUTRSRV1_VITE_RDA": "",
  "F_NUTRSRV1_VITK_AMT": "",
  "F_NUTRSRV1_VITK_RDA": "",
  "F_NUTRSRV1_ZN_AMT": "",
  "F_NUTRSRV1_ZN_RDA": "",
  "F_NUTRSRV100G_ADDSUG_AMT": "",
  "F_NUTRSRV100G_BIOT_AMT": "",
  "F_NUTRSRV100G_BIOT_RDA": "",
  "F_NUTRSRV100G_CA_AMT": "",
  "F_NUTRSRV100G_CA_RDA": "",
  "F_NUTRSRV100G_CAL_AMT": "",
  "F_NUTRSRV100G_CAL_RDA": "",
  "F_NUTRSRV100G_CHO_AMT": "",
  "F_NUTRSRV100G_CHO_RDA": "",
  "F_NUTRSRV100G_CHOL_AMT": "",
  "F_NUTRSRV100G_CHOL_RDA": "",
  "F_NUTRSRV100G_CU_RDA": "",
  "F_NUTRSRV100G_DIFCA_AMT": "",
  "F_NUTRSRV100G_DIFCA_RDA": "",
  "F_NUTRSRV100G_ENER_AMT": "",
  "F_NUTRSRV100G_ENERPF_AMT": "",
  "F_NUTRSRV100G_ENERPF_RDA": "",
  "F_NUTRSRV100G_FAMS_AMT": "",
  "F_NUTRSRV100G_FAPU_AMT": "",
  "F_NUTRSRV100G_FAPUN3_AMT": "",
  "F_NUTRSRV100G_FAPUN6_AMT": "",
  "F_NUTRSRV100G_FASAT_AMT": "",
  "F_NUTRSRV100G_FASAT_RDA": "",
  "F_NUTRSRV100G_FAT_AMT": "",
  "F_NUTRSRV100G_FAT_RDA": "",
  "F_NUTRSRV100G_FATRN_AMT": "",
  "F_NUTRSRV100G_FATRN_RDA": "",
  "F_NUTRSRV100G_FIBTSW_AMT": "",
  "F_NUTRSRV100G_FIBTSW_RDA": "",
  "F_NUTRSRV100G_FOL_AMT": "",
  "F_NUTRSRV100G_FOL_RDA": "",
  "F_NUTRSRV100G_HAEM_AMT": "",
  "F_NUTRSRV100G_HAEM_RDA": "",
  "F_NUTRSRV100G_ID_RDA": "",
  "F_NUTRSRV100G_K_AMT": "",
  "F_NUTRSRV100G_K_RDA": "",
  "F_NUTRSRV100G_MG_AMT": "",
  "F_NUTRSRV100G_MG_RDA": "",
  "F_NUTRSRV100G_MN_AMT": "",
  "F_NUTRSRV100G_NA_AMT": "",
  "F_NUTRSRV100G_NA_RDA": "",
  "F_NUTRSRV100G_NIA_AMT": "",
  "F_NUTRSRV100G_NIA_RDA": "",
  "F_NUTRSRV100G_P_AMT": "",
  "F_NUTRSRV100G_P_RDA": "",
  "F_NUTRSRV100G_PANTAC_AMT": "",
  "F_NUTRSRV100G_PANTAC_RDA": "",
  "F_NUTRSRV100G_PRO_AMT": "",
  "F_NUTRSRV100G_PRO_RDA": "",
  "F_NUTRSRV100G_RIBF_AMT": "",
  "F_NUTRSRV100G_RIBF_RDA": "",
  "F_NUTRSRV100G_SATFAT_AMT": "",
  "F_NUTRSRV100G_SATFAT_RDA": "",
  "F_NUTRSRV100G_SUGALC_AMT": "",
  "F_NUTRSRV100G_SUGAR_AMT": "",
  "F_NUTRSRV100G_SUGAR_RDA": "",
  "F_NUTRSRV100G_THIA_AMT": "",
  "F_NUTRSRV100G_THIA_RDA": "",
  "F_NUTRSRV100G_VITA_AMT": "",
  "F_NUTRSRV100G_VITA_RDA": "",
  "F_NUTRSRV100G_VITAA_AMT": "",
  "F_NUTRSRV100G_VITAA_RDA": "",
  "F_NUTRSRV100G_VITB12_AMT": "",
  "F_NUTRSRV100G_VITB6_AMT": "",
  "F_NUTRSRV100G_VITB6_RDA": "",
  "F_NUTRSRV100G_VITC_AMT": "",
  "F_NUTRSRV100G_VITC_RDA": "",
  "F_NUTRSRV100G_VITD_AMT": "",
  "F_NUTRSRV100G_VITDCA_AMT": "",
  "F_NUTRSRV100G_VITE_AMT": "",
  "F_NUTRSRV100G_ZN_AMT": "",
  "F_NUTRSRV100G_ZN_RDA": "",
  "F_NUTRSRV2_CA_RDA": "",
  "F_NUTRSRV2_CAL_AMT": "",
  "F_NUTRSRV2_CHO_AMT": "",
  "F_NUTRSRV2_CHO_RDA": "",
  "F_NUTRSRV2_CHOL_AMT": "",
  "F_NUTRSRV2_CHOL_RDA": "",
  "F_NUTRSRV2_CU_RDA": "",
  "F_NUTRSRV2_DIFCA_AMT": "",
  "F_NUTRSRV2_DIFCA_RDA": "",
  "F_NUTRSRV2_ENER_AMT": "",
  "F_NUTRSRV2_ENERPF_AMT": "",
  "F_NUTRSRV2_FAMS_AMT": "",
  "F_NUTRSRV2_FAPU_AMT": "",
  "F_NUTRSRV2_FAPUN3_AMT": "",
  "F_NUTRSRV2_FAPUN6_AMT": "",
  "F_NUTRSRV2_FASAT_AMT": "",
  "F_NUTRSRV2_FASAT_RDA": "",
  "F_NUTRSRV2_FAT_AMT": "",
  "F_NUTRSRV2_FAT_RDA": "",
  "F_NUTRSRV2_FATRN_AMT": "",
  "F_NUTRSRV2_FIBTSW_AMT": "",
  "F_NUTRSRV2_FIBTSW_RDA": "",
  "F_NUTRSRV2_FOL_RDA": "",
  "F_NUTRSRV2_HAEM_RDA": "",
  "F_NUTRSRV2_K_AMT": "",
  "F_NUTRSRV2_K_RDA": "",
  "F_NUTRSRV2_MG_RDA": "",
  "F_NUTRSRV2_MN_RDA": "",
  "F_NUTRSRV2_NA_AMT": "",
  "F_NUTRSRV2_NA_RDA": "",
  "F_NUTRSRV2_NIA_RDA": "",
  "F_NUTRSRV2_NIAEQ_RDA": "",
  "F_NUTRSRV2_P_RDA": "",
  "F_NUTRSRV2_PRO_AMT": "",
  "F_NUTRSRV2_PRO_RDA": "",
  "F_NUTRSRV2_RIBF_RDA": "",
  "F_NUTRSRV2_SATFAT_AMT": "",
  "F_NUTRSRV2_SATFAT_RDA": "",
  "F_NUTRSRV2_SUGAR_AMT": "",
  "F_NUTRSRV2_THIA_RDA": "",
  "F_NUTRSRV2_VITA_RDA": "",
  "F_NUTRSRV2_VITAA_RDA": "",
  "F_NUTRSRV2_VITC_AMT": "",
  "F_NUTRSRV2_VITC_RDA": "",
  "F_NUTRSRV2_VITE_RDA": "",
  "F_NUTRSRV2_ZN_RDA": "",
  "F_NUTRSRV3_CA_AMT": "",
  "F_NUTRSRV3_CA_RDA": "",
  "F_NUTRSRV3_CAL_AMT": "",
  "F_NUTRSRV3_CHO_AMT": "",
  "F_NUTRSRV3_CHO_RDA": "",
  "F_NUTRSRV3_CHOL_AMT": "",
  "F_NUTRSRV3_CHOL_RDA": "",
  "F_NUTRSRV3_DIFCA_AMT": "",
  "F_NUTRSRV3_DIFCA_RDA": "",
  "F_NUTRSRV3_ENER_AMT": "",
  "F_NUTRSRV3_ENERPF_AMT": "",
  "F_NUTRSRV3_FAMS_AMT": "",
  "F_NUTRSRV3_FAPU_AMT": "",
  "F_NUTRSRV3_FAPUN3_AMT": "",
  "F_NUTRSRV3_FAPUN6_AMT": "",
  "F_NUTRSRV3_FASAT_AMT": "",
  "F_NUTRSRV3_FASAT_RDA": "",
  "F_NUTRSRV3_FAT_AMT": "",
  "F_NUTRSRV3_FAT_RDA": "",
  "F_NUTRSRV3_FATRN_AMT": "",
  "F_NUTRSRV3_FIBTSW_AMT": "",
  "F_NUTRSRV3_FIBTSW_RDA": "",
  "F_NUTRSRV3_HAEM_AMT": "",
  "F_NUTRSRV3_HAEM_RDA": "",
  "F_NUTRSRV3_K_AMT": "",
  "F_NUTRSRV3_K_RDA": "",
  "F_NUTRSRV3_MG_RDA": "",
  "F_NUTRSRV3_MN_RDA": "",
  "F_NUTRSRV3_NA_AMT": "",
  "F_NUTRSRV3_NA_RDA": "",
  "F_NUTRSRV3_NIA_RDA": "",
  "F_NUTRSRV3_P_AMT": "",
  "F_NUTRSRV3_P_RDA": "",
  "F_NUTRSRV3_PRO_AMT": "",
  "F_NUTRSRV3_PRO_RDA": "",
  "F_NUTRSRV3_SATFAT_RDA": "",
  "F_NUTRSRV3_SUGAR_AMT": "",
  "F_NUTRSRV3_VITA_RDA": "",
  "F_NUTRSRV3_VITAA_RDA": "",
  "F_NUTRSRV3_VITC_RDA": "",
  "F_NUTRSRV3_VITE_RDA": "",
  "F_NUTRSRV1_VITE_AMT": "",
  "F_NUTRSRV2_HAEM_AMT": "",
  "F_NUTRSRV2_VITAA_AMT": "",
  "F_NUTRSRV2_CA_AMT": "",
  "NutrSrv100gDIFCAPrecision": "",
  "NutrSrv100gEnerPrecision": "",
  "NutrSrv100gPAmt": 0,
  "NutrSrv100gCAAmt": 0,
  "LanguageCode": "eng",
  "ProductBrands": [
    {
      "BrandID": 217,
      "Name": "WYLERS",
      "SiteId": 0,
      "ParentId": 0,
      "seoFriendlyName": "",
      "Created": "0001-01-01T00:00:00",
      "CreatedBy": null,
      "Updated": "0001-01-01T00:00:00",
      "UpdatedBy": null,
      "ErrorFlag": false,
      "ErrorMessage": null
    }
  ],
  "ProductAssets": [
    {
      "PID": 0,
      "Type": null,
      "RendtitionName": null,
      "Renditions": [
        {
          "Id": 0,
          "AssetId": "21798",
          "RenditionId": 0,
          "RenditionName": "120x84",
          "AssetPath": "http://assets.kraftfoods.com/KHProducts/120x84/00041258751153_A1C1.jpg",
          "Type": "Secondary Image"
        },
        {
          "Id": 0,
          "AssetId": "21798",
          "RenditionId": 0,
          "RenditionName": "1365x960",
          "AssetPath": "http://assets.kraftfoods.com/KHProducts/1365x960/00041258751153_A1C1.jpg",
          "Type": "Secondary Image"
        },
        {
          "Id": 0,
          "AssetId": "21798",
          "RenditionId": 0,
          "RenditionName": "220x225",
          "AssetPath": "http://assets.kraftfoods.com/KHProducts/220x225/00041258751153_A1C1.jpg",
          "Type": "Secondary Image"
        },
        {
          "Id": 0,
          "AssetId": "21798",
          "RenditionId": 0,
          "RenditionName": "290x194",
          "AssetPath": "http://assets.kraftfoods.com/KHProducts/290x194/00041258751153_A1C1.jpg",
          "Type": "Secondary Image"
        },
        {
          "Id": 0,
          "AssetId": "21798",
          "RenditionId": 0,
          "RenditionName": "455x320",
          "AssetPath": "http://assets.kraftfoods.com/KHProducts/455x320/00041258751153_A1C1.jpg",
          "Type": "Secondary Image"
        },
        {
          "Id": 0,
          "AssetId": "21798",
          "RenditionId": 0,
          "RenditionName": "600x250",
          "AssetPath": "http://assets.kraftfoods.com/KHProducts/600x250/00041258751153_A1C1.jpg",
          "Type": "Secondary Image"
        },
        {
          "Id": 0,
          "AssetId": "21798",
          "RenditionId": 0,
          "RenditionName": "960x300",
          "AssetPath": "http://assets.kraftfoods.com/KHProducts/960x300/00041258751153_A1C1.jpg",
          "Type": "Secondary Image"
        }
      ],
      "ID": 0,
      "AssetID": "21798",
      "UserTypeID": "ECOMMERCE_IMAGES",
      "ParentID": null,
      "Selected": false,
      "Referenced": false,
      "StartDate": "2016-10-14T00:00:00",
      "EndDate": "2025-12-31T00:00:00",
      "FileFormat": null,
      "ImageType": "PRODUCT_IMAGE  ",
      "SourceURL": "https://api.kwikeesystems.com/product_images/00041258751153_A1C1.JPG  ",
      "FileName": "00041258751153_A1C1  "
    }
  ],
  "ProductAllergens": [
    {
      "AllergenID": "1",
      "Allergen": "Milk"
    },
    {
      "AllergenID": "3",
      "Allergen": "Soya"
    }
  ],
  "ProductVariants": [
    {
      "VariantName": "CHICKEN BOUILLON CUBES",
      "SubVariant": "",
      "Count": 1,
      "DefaultProductGTIN": "00070346000095"
    },
    {
      "VariantName": "CHICKEN BOUILLON CUBES",
      "SubVariant": "REDUCED SODIUM",
      "Count": 1,
      "DefaultProductGTIN": "00041258751191"
    }
  ],
  "SizeVariants": [
    {
      "SizeVariantOZ": 3.253999948501587,
      "Count": 1,
      "DefaultProductGTIN": "00041258751153"
    }
  ]
}