{
  "ErrorFlag": false,
  "ErrorMessage": "Product Assets found 1",
  "AuthorizedSellingGroupsName": "Retail",
  "AllergenInformationSpecName": "Food Allergen Labeling and Consumer Protection Act of 2004",
  "AllergenRelevantProvidedFlag": false,
  "BrandName": "YOSHIDA",
  "BrandOwnerGLN": "0044710044602",
  "ConsumerUnitFlag": true,
  "CountryOfProduction": "USA",
  "CountryOfSale": "USA",
  "CrossDistributionChainStatusCode": "03",
  "CrossDistributionChainStatusName": "",
  "CubicVolumeMR3": "0.001",
  "CubicVolumeFT3": "0.0379999987781048",
  "DeclaredNetContentUOMCode": "",
  "DeclaredNetContent": 0,
  "DisplayReadyPackagingIndicator": false,
  "eCommProductName": "MR. YOSHIDA'S Original Gourmet Sweet Teriyaki Marinade & Cooking Sauce 17 OZ PLASTIC BOTTLE",
  "eCommProductFeature": "No fat ; No cholesterol ; Kosher",
  "FirstAvailableShipDate": "2015-07-02T00:00:00",
  "FunctionalName": "Steak Sauces & Meat Condiments",
  "GeneralMktDescription": "A versatile marinade and cooking sauce used for beef, chicken, fish or vegetables.",
  "GlobalProductClassificationCode": "10000280",
  "GrocerySnackIndicatorName": "Grocery",
  "GrossWeight": 0,
  "GrossWeightLB": 1.7419999837875366,
  "GrossWeightOZ": 27.867000579833984,
  "GTIN": "00047496480855",
  "GTINVariableWeight": false,
  "HeightMM": 209.5500030517578,
  "HeightIN": 8.25,
  "MaximumStackingWeight": 0,
  "ID": 0,
  "IngredientInformationStatement": "INGREDIENTS:  SOY SAUCE (WATER, WHEAT, SOYBEANS, SALT), SUGAR, HIGH FRUCTOSE CORN SYRUP, YOSHIDA’S MIRIN (WATER, DEXTROSE, MIRIN [RICE, ALCOHOL, ENZYMES, SALT], LACTIC AND SUCCINIC ACIDS), WATER, DEHYDRATED GARLIC, SPICE, MODIFIED CORN STARCH, SUNFLOWER OIL.",
  "IngredientInfoCrossContStatement": "",
  "IngredientInfoDoesContainStatement": "",
  "IngredientInfoHHServingSize": "1 tbsp(15ml)",
  "IsPackagingMarkedReturnable": false,
  "KosherSuitabilityInfoIndicator": true,
  "KosherSuitabilityCertAgency": "OU",
  "KosherSuitabilityInfoSymbol": "OU",
  "KosherSuitabilityInfoDocNumber": "",
  "KraftItemCode": "00474964808570",
  "LenghtDepthMM": 51.05400085449219,
  "LenghtDepthIN": 2.009999990463257,
  "Name": "YOSH ORIG GOURM SWT TERIYAKI 1217FL",
  "NetWeightLB": 1.1,
  "NetWeightOZ": 17,
  "NextLowerLevelUnitsPerTradeUnit": "1",
  "NTRNRlvntPrvdFlag": false,
  "NutrSrv1CalAmt": "",
  "F_NUTRSRV1_CA_AMT": "",
  "NutrSrv1CaRDA": "",
  "NutrSrv1CholRDA": "",
  "NutrSrv1ChoRDA": "",
  "NutrSrv1EnerpfAmt": "",
  "NutrSrv1FastatRDA": "",
  "NutrSrv1FastatAmt": "",
  "NutrSrv1FatAmt": "",
  "NutrSrv1FatRDA": "",
  "NutrSrv1FatrnAmt": "",
  "NutrSrv1FibtswAmt": "",
  "NutrSrv1FibtswRDA": "",
  "NutrSrv1HaemRDA": "",
  "NutrSrv1KAmt": "",
  "NutrSrv1KRDA": null,
  "NutrSrv1NaRDA": "",
  "NutrSrv1NaAmt": "",
  "NutrSrv1PRDA": "",
  "NutrSrv1Prepstate": "",
  "NutrSrv1ProAmt": "",
  "NutrSrv1ServSize": "",
  "NutrSrv1SugarAmt": "",
  "NutrSrv1VitARDA": "0.00",
  "NutrSrv1VitCRDA": "0.00",
  "OrderableUnitFlag": true,
  "OrganicSuitabilityInfoIndicator": false,
  "PackagingLanguage": "ENG",
  "PackagingMaterialTypeCode": "",
  "PackagingTypeCode": "BOTTLE",
  "PID": 8122,
  "ParentID": "C_YOSHIDA|Steak Sauces & Meat Condiments",
  "PrepAndCookSuggestion": "For beef and pork, marinate scored fillets or steaks for 20-30 minutes, cook or grill as usual. For poultry, simply pour enough sauce to coat the skin, cook or grill as usual.",
  "PrepTypeName": "",
  "ProductID": "00047496480855",
  "ProductDescriptionShort": "YOSH ORIG GOURM SWT TERIYAKI 1217FL",
  "ProductDescriptionGrid": "YOSHIDA 17 FO STEAK SAUCES & MEAT CONDIMENTS  SOUTHWEST TERIYAKI     1 BOTTLE EACH",
  "ProductHierarchyCatalystCode": "",
  "RemoveFromKraftRecipe": false,
  "Referenced": false,
  "Selected": false,
  "seoFriendlyName": "",
  "ServingsOfTradeItemUnit": "",
  "ServingSuggestions": "",
  "SeasonalCode": "",
  "SubVariant": "",
  "TemperatureMinFarenheit": "-50",
  "ThumbnailPath": "",
  "TotalShelfLife": "450",
  "UnitDescriptorCode": "EACH",
  "UserTypeID": "CONSUMER_UNIT",
  "VariantName": "SOUTHWEST TERIYAKI",
  "WidthMM": 101.5999984741211,
  "WidthIN": 4,
  "CreatedBy": null,
  "Created": "0001-01-01T00:00:00",
  "UPC": "047496480855",
  "WilkeUPC": "004749648085",
  "UpdatedBy": null,
  "Updated": "2017-01-24T11:42:44",
  "DeclaredNetContentFO": "17",
  "DeclaredNetContentPT": "",
  "DeclaredNetContentML": "",
  "DeclaredNetContentOZ": "",
  "DeclaredNetContentGR": "",
  "DeclaredNetContentKG": "",
  "DeclaredNetContentLB": "",
  "DeclaredNetContent1N": "",
  "DeclaredNetContentText": "",
  "GrossWeightKG": "0.790000",
  "GrossWeightGR": "790.015015",
  "NetWeightKG": "0.482000",
  "NetWeightGR": "482.437988",
  "TemperatureClassificationCode": "01",
  "FactsPanelLabelType": "",
  "DivisionCatalyst": "50",
  "F_NUTRSRV1_BIOT_AMT": "",
  "F_NUTRSRV1_BIOT_RDA": "",
  "F_NUTRSRV1_CAL_RDA": "",
  "F_NUTRSRV1_CHO_AMT": "",
  "F_NUTRSRV1_CHOAVL_AMT": "",
  "F_NUTRSRV1_CHOL_AMT": "",
  "F_NUTRSRV1_CLD_RDA": "",
  "F_NUTRSRV1_CR_RDA": "",
  "F_NUTRSRV1_CU_RDA": "",
  "F_NUTRSRV1_DIFCA_AMT": "",
  "F_NUTRSRV1_DIFCA_RDA": "",
  "F_NUTRSRV1_ENER_AMT": "",
  "F_NUTRSRV1_ENER_RDA": "",
  "F_NUTRSRV1_ENERPF_RDA": "",
  "F_NUTRSRV1_FAMS_AMT": "",
  "F_NUTRSRV1_FAPU_AMT": "",
  "F_NUTRSRV1_FAPUN3_AMT": "",
  "F_NUTRSRV1_FAPUN6_AMT": "",
  "F_NUTRSRV1_FAPUN6_RDA": "",
  "F_NUTRSRV1_FATRN_RDA": "",
  "F_NUTRSRV1_FIB_RDA": "",
  "F_NUTRSRV1_FIBINS_AMT": "",
  "F_NUTRSRV1_FIBSOL_AMT": "",
  "F_NUTRSRV1_FOL_AMT": "",
  "F_NUTRSRV1_FOL_RDA": "",
  "F_NUTRSRV1_HAEM_AMT": "",
  "F_NUTRSRV1_ID_RDA": "",
  "F_NUTRSRV1_K_AMT": "",
  "F_NUTRSRV1_K_RDA": "",
  "F_NUTRSRV1_MG_AMT": "",
  "F_NUTRSRV1_MG_RDA": "",
  "F_NUTRSRV1_MN_AMT": "",
  "F_NUTRSRV1_MN_RDA": "",
  "F_NUTRSRV1_MO_RDA": "",
  "F_NUTRSRV1_NIA_AMT": "",
  "F_NUTRSRV1_NIA_RDA": "",
  "F_NUTRSRV1_NIAEQ_RDA": "",
  "F_NUTRSRV1_P_AMT": "",
  "F_NUTRSRV1_PANTAC_AMT": "",
  "F_NUTRSRV1_PANTAC_RDA": "",
  "F_NUTRSRV1_PRO_RDA": "",
  "F_NUTRSRV1_RIBF_AMT": "",
  "F_NUTRSRV1_RIBF_RDA": "",
  "F_NUTRSRV1_SATFAT_AMT": "",
  "F_NUTRSRV1_SATFAT_RDA": "",
  "F_NUTRSRV1_SE_RDA": "",
  "F_NUTRSRV1_SUGALC_AMT": "",
  "F_NUTRSRV1_SUGAR_RDA": "",
  "F_NUTRSRV1_THIA_AMT": "",
  "F_NUTRSRV1_THIA_RDA": "",
  "F_NUTRSRV1_VITAA_AMT": "",
  "F_NUTRSRV1_VITAA_RDA": "",
  "F_NUTRSRV1_VITAECA_RDA": "",
  "F_NUTRSRV1_VITB12_AMT": "",
  "F_NUTRSRV1_VITB12_RDA": "",
  "F_NUTRSRV1_VITB6_AMT": "",
  "F_NUTRSRV1_VITB6_RDA": "",
  "F_NUTRSRV1_VITC_AMT": "",
  "F_NUTRSRV1_VITD_AMT": "",
  "F_NUTRSRV1_VITD_RDA": "",
  "F_NUTRSRV1_VITDCA_RDA": "",
  "F_NUTRSRV1_VITE_RDA": "",
  "F_NUTRSRV1_VITK_AMT": "",
  "F_NUTRSRV1_VITK_RDA": "",
  "F_NUTRSRV1_ZN_AMT": "",
  "F_NUTRSRV1_ZN_RDA": "",
  "F_NUTRSRV100G_ADDSUG_AMT": "",
  "F_NUTRSRV100G_BIOT_AMT": "",
  "F_NUTRSRV100G_BIOT_RDA": "",
  "F_NUTRSRV100G_CA_AMT": "",
  "F_NUTRSRV100G_CA_RDA": "",
  "F_NUTRSRV100G_CAL_AMT": "",
  "F_NUTRSRV100G_CAL_RDA": "",
  "F_NUTRSRV100G_CHO_AMT": "",
  "F_NUTRSRV100G_CHO_RDA": "",
  "F_NUTRSRV100G_CHOL_AMT": "",
  "F_NUTRSRV100G_CHOL_RDA": "",
  "F_NUTRSRV100G_CU_RDA": "",
  "F_NUTRSRV100G_DIFCA_AMT": "",
  "F_NUTRSRV100G_DIFCA_RDA": "",
  "F_NUTRSRV100G_ENER_AMT": "",
  "F_NUTRSRV100G_ENERPF_AMT": "",
  "F_NUTRSRV100G_ENERPF_RDA": "",
  "F_NUTRSRV100G_FAMS_AMT": "",
  "F_NUTRSRV100G_FAPU_AMT": "",
  "F_NUTRSRV100G_FAPUN3_AMT": "",
  "F_NUTRSRV100G_FAPUN6_AMT": "",
  "F_NUTRSRV100G_FASAT_AMT": "",
  "F_NUTRSRV100G_FASAT_RDA": "",
  "F_NUTRSRV100G_FAT_AMT": "",
  "F_NUTRSRV100G_FAT_RDA": "",
  "F_NUTRSRV100G_FATRN_AMT": "",
  "F_NUTRSRV100G_FATRN_RDA": "",
  "F_NUTRSRV100G_FIBTSW_AMT": "",
  "F_NUTRSRV100G_FIBTSW_RDA": "",
  "F_NUTRSRV100G_FOL_AMT": "",
  "F_NUTRSRV100G_FOL_RDA": "",
  "F_NUTRSRV100G_HAEM_AMT": "",
  "F_NUTRSRV100G_HAEM_RDA": "",
  "F_NUTRSRV100G_ID_RDA": "",
  "F_NUTRSRV100G_K_AMT": "",
  "F_NUTRSRV100G_K_RDA": "",
  "F_NUTRSRV100G_MG_AMT": "",
  "F_NUTRSRV100G_MG_RDA": "",
  "F_NUTRSRV100G_MN_AMT": "",
  "F_NUTRSRV100G_NA_AMT": "",
  "F_NUTRSRV100G_NA_RDA": "",
  "F_NUTRSRV100G_NIA_AMT": "",
  "F_NUTRSRV100G_NIA_RDA": "",
  "F_NUTRSRV100G_P_AMT": "",
  "F_NUTRSRV100G_P_RDA": "",
  "F_NUTRSRV100G_PANTAC_AMT": "",
  "F_NUTRSRV100G_PANTAC_RDA": "",
  "F_NUTRSRV100G_PRO_AMT": "",
  "F_NUTRSRV100G_PRO_RDA": "",
  "F_NUTRSRV100G_RIBF_AMT": "",
  "F_NUTRSRV100G_RIBF_RDA": "",
  "F_NUTRSRV100G_SATFAT_AMT": "",
  "F_NUTRSRV100G_SATFAT_RDA": "",
  "F_NUTRSRV100G_SUGALC_AMT": "",
  "F_NUTRSRV100G_SUGAR_AMT": "",
  "F_NUTRSRV100G_SUGAR_RDA": "",
  "F_NUTRSRV100G_THIA_AMT": "",
  "F_NUTRSRV100G_THIA_RDA": "",
  "F_NUTRSRV100G_VITA_AMT": "",
  "F_NUTRSRV100G_VITA_RDA": "",
  "F_NUTRSRV100G_VITAA_AMT": "",
  "F_NUTRSRV100G_VITAA_RDA": "",
  "F_NUTRSRV100G_VITB12_AMT": "",
  "F_NUTRSRV100G_VITB6_AMT": "",
  "F_NUTRSRV100G_VITB6_RDA": "",
  "F_NUTRSRV100G_VITC_AMT": "",
  "F_NUTRSRV100G_VITC_RDA": "",
  "F_NUTRSRV100G_VITD_AMT": "",
  "F_NUTRSRV100G_VITDCA_AMT": "",
  "F_NUTRSRV100G_VITE_AMT": "",
  "F_NUTRSRV100G_ZN_AMT": "",
  "F_NUTRSRV100G_ZN_RDA": "",
  "F_NUTRSRV2_CA_RDA": "",
  "F_NUTRSRV2_CAL_AMT": "",
  "F_NUTRSRV2_CHO_AMT": "",
  "F_NUTRSRV2_CHO_RDA": "",
  "F_NUTRSRV2_CHOL_AMT": "",
  "F_NUTRSRV2_CHOL_RDA": "",
  "F_NUTRSRV2_CU_RDA": "",
  "F_NUTRSRV2_DIFCA_AMT": "",
  "F_NUTRSRV2_DIFCA_RDA": "",
  "F_NUTRSRV2_ENER_AMT": "",
  "F_NUTRSRV2_ENERPF_AMT": "",
  "F_NUTRSRV2_FAMS_AMT": "",
  "F_NUTRSRV2_FAPU_AMT": "",
  "F_NUTRSRV2_FAPUN3_AMT": "",
  "F_NUTRSRV2_FAPUN6_AMT": "",
  "F_NUTRSRV2_FASAT_AMT": "",
  "F_NUTRSRV2_FASAT_RDA": "",
  "F_NUTRSRV2_FAT_AMT": "",
  "F_NUTRSRV2_FAT_RDA": "",
  "F_NUTRSRV2_FATRN_AMT": "",
  "F_NUTRSRV2_FIBTSW_AMT": "",
  "F_NUTRSRV2_FIBTSW_RDA": "",
  "F_NUTRSRV2_FOL_RDA": "",
  "F_NUTRSRV2_HAEM_RDA": "",
  "F_NUTRSRV2_K_AMT": "",
  "F_NUTRSRV2_K_RDA": "",
  "F_NUTRSRV2_MG_RDA": "",
  "F_NUTRSRV2_MN_RDA": "",
  "F_NUTRSRV2_NA_AMT": "",
  "F_NUTRSRV2_NA_RDA": "",
  "F_NUTRSRV2_NIA_RDA": "",
  "F_NUTRSRV2_NIAEQ_RDA": "",
  "F_NUTRSRV2_P_RDA": "",
  "F_NUTRSRV2_PRO_AMT": "",
  "F_NUTRSRV2_PRO_RDA": "",
  "F_NUTRSRV2_RIBF_RDA": "",
  "F_NUTRSRV2_SATFAT_AMT": "",
  "F_NUTRSRV2_SATFAT_RDA": "",
  "F_NUTRSRV2_SUGAR_AMT": "",
  "F_NUTRSRV2_THIA_RDA": "",
  "F_NUTRSRV2_VITA_RDA": "",
  "F_NUTRSRV2_VITAA_RDA": "",
  "F_NUTRSRV2_VITC_AMT": "",
  "F_NUTRSRV2_VITC_RDA": "",
  "F_NUTRSRV2_VITE_RDA": "",
  "F_NUTRSRV2_ZN_RDA": "",
  "F_NUTRSRV3_CA_AMT": "",
  "F_NUTRSRV3_CA_RDA": "",
  "F_NUTRSRV3_CAL_AMT": "",
  "F_NUTRSRV3_CHO_AMT": "",
  "F_NUTRSRV3_CHO_RDA": "",
  "F_NUTRSRV3_CHOL_AMT": "",
  "F_NUTRSRV3_CHOL_RDA": "",
  "F_NUTRSRV3_DIFCA_AMT": "",
  "F_NUTRSRV3_DIFCA_RDA": "",
  "F_NUTRSRV3_ENER_AMT": "",
  "F_NUTRSRV3_ENERPF_AMT": "",
  "F_NUTRSRV3_FAMS_AMT": "",
  "F_NUTRSRV3_FAPU_AMT": "",
  "F_NUTRSRV3_FAPUN3_AMT": "",
  "F_NUTRSRV3_FAPUN6_AMT": "",
  "F_NUTRSRV3_FASAT_AMT": "",
  "F_NUTRSRV3_FASAT_RDA": "",
  "F_NUTRSRV3_FAT_AMT": "",
  "F_NUTRSRV3_FAT_RDA": "",
  "F_NUTRSRV3_FATRN_AMT": "",
  "F_NUTRSRV3_FIBTSW_AMT": "",
  "F_NUTRSRV3_FIBTSW_RDA": "",
  "F_NUTRSRV3_HAEM_AMT": "",
  "F_NUTRSRV3_HAEM_RDA": "",
  "F_NUTRSRV3_K_AMT": "",
  "F_NUTRSRV3_K_RDA": "",
  "F_NUTRSRV3_MG_RDA": "",
  "F_NUTRSRV3_MN_RDA": "",
  "F_NUTRSRV3_NA_AMT": "",
  "F_NUTRSRV3_NA_RDA": "",
  "F_NUTRSRV3_NIA_RDA": "",
  "F_NUTRSRV3_P_AMT": "",
  "F_NUTRSRV3_P_RDA": "",
  "F_NUTRSRV3_PRO_AMT": "",
  "F_NUTRSRV3_PRO_RDA": "",
  "F_NUTRSRV3_SATFAT_RDA": "",
  "F_NUTRSRV3_SUGAR_AMT": "",
  "F_NUTRSRV3_VITA_RDA": "",
  "F_NUTRSRV3_VITAA_RDA": "",
  "F_NUTRSRV3_VITC_RDA": "",
  "F_NUTRSRV3_VITE_RDA": "",
  "F_NUTRSRV1_VITE_AMT": "",
  "F_NUTRSRV2_HAEM_AMT": "",
  "F_NUTRSRV2_VITAA_AMT": "",
  "F_NUTRSRV2_CA_AMT": "",
  "NutrSrv100gDIFCAPrecision": "",
  "NutrSrv100gEnerPrecision": "",
  "NutrSrv100gPAmt": 0,
  "NutrSrv100gCAAmt": 0,
  "LanguageCode": "eng",
  "ProductBrands": [
    {
      "BrandID": 165,
      "Name": "YOSHIDA",
      "SiteId": 0,
      "ParentId": 0,
      "seoFriendlyName": "",
      "Created": "0001-01-01T00:00:00",
      "CreatedBy": null,
      "Updated": "0001-01-01T00:00:00",
      "UpdatedBy": null,
      "ErrorFlag": false,
      "ErrorMessage": null
    }
  ],
  "ProductAssets": [
    {
      "PID": 0,
      "Type": null,
      "RendtitionName": null,
      "Renditions": [
        {
          "Id": 0,
          "AssetId": "26255",
          "RenditionId": 0,
          "RenditionName": "120x84",
          "AssetPath": "http://assets.kraftfoods.com/KHProducts/120x84/00047496480855_A1C1.jpg",
          "Type": "Secondary Image"
        },
        {
          "Id": 0,
          "AssetId": "26255",
          "RenditionId": 0,
          "RenditionName": "1365x960",
          "AssetPath": "http://assets.kraftfoods.com/KHProducts/1365x960/00047496480855_A1C1.jpg",
          "Type": "Secondary Image"
        },
        {
          "Id": 0,
          "AssetId": "26255",
          "RenditionId": 0,
          "RenditionName": "220x225",
          "AssetPath": "http://assets.kraftfoods.com/KHProducts/220x225/00047496480855_A1C1.jpg",
          "Type": "Secondary Image"
        },
        {
          "Id": 0,
          "AssetId": "26255",
          "RenditionId": 0,
          "RenditionName": "290x194",
          "AssetPath": "http://assets.kraftfoods.com/KHProducts/290x194/00047496480855_A1C1.jpg",
          "Type": "Secondary Image"
        },
        {
          "Id": 0,
          "AssetId": "26255",
          "RenditionId": 0,
          "RenditionName": "455x320",
          "AssetPath": "http://assets.kraftfoods.com/KHProducts/455x320/00047496480855_A1C1.jpg",
          "Type": "Secondary Image"
        },
        {
          "Id": 0,
          "AssetId": "26255",
          "RenditionId": 0,
          "RenditionName": "600x250",
          "AssetPath": "http://assets.kraftfoods.com/KHProducts/600x250/00047496480855_A1C1.jpg",
          "Type": "Secondary Image"
        },
        {
          "Id": 0,
          "AssetId": "26255",
          "RenditionId": 0,
          "RenditionName": "960x300",
          "AssetPath": "http://assets.kraftfoods.com/KHProducts/960x300/00047496480855_A1C1.jpg",
          "Type": "Secondary Image"
        }
      ],
      "ID": 0,
      "AssetID": "26255",
      "UserTypeID": "ECOMMERCE_IMAGES",
      "ParentID": null,
      "Selected": false,
      "Referenced": false,
      "StartDate": "2016-10-14T00:00:00",
      "EndDate": "2025-12-31T00:00:00",
      "FileFormat": null,
      "ImageType": "PRODUCT_IMAGE  ",
      "SourceURL": "https://api.kwikeesystems.com/product_images/00047496480855_A1C1.JPG  ",
      "FileName": "00047496480855_A1C1  "
    }
  ],
  "ProductAllergens": [
    {
      "AllergenID": "3",
      "Allergen": "Soya"
    },
    {
      "AllergenID": "14",
      "Allergen": "Wheat"
    }
  ],
  "ProductVariants": [
    {
      "VariantName": "SOUTHWEST TERIYAKI",
      "SubVariant": "",
      "Count": 2,
      "DefaultProductGTIN": "00070346000095"
    }
  ],
  "SizeVariants": [
    {
      "SizeVariantOZ": 17.017000198364258,
      "Count": 1,
      "DefaultProductGTIN": "00047496480855"
    },
    {
      "SizeVariantOZ": 88.08000183105469,
      "Count": 1,
      "DefaultProductGTIN": "00047496000541"
    }
  ]
}