{
  "ErrorFlag": false,
  "ErrorMessage": "No Product Assets found",
  "AuthorizedSellingGroupsName": "Retail",
  "AllergenInformationSpecName": "Food Allergen Labeling and Consumer Protection Act of 2004",
  "AllergenRelevantProvidedFlag": false,
  "BrandName": "VELVEETA",
  "BrandOwnerGLN": "0044710044602",
  "ConsumerUnitFlag": true,
  "CountryOfProduction": "USA",
  "CountryOfSale": "USA",
  "CrossDistributionChainStatusCode": "YD",
  "CrossDistributionChainStatusName": "",
  "CubicVolumeMR3": "0.005",
  "CubicVolumeFT3": "0.179000005125999",
  "DeclaredNetContentUOMCode": "OZ",
  "DeclaredNetContent": 0,
  "DisplayReadyPackagingIndicator": true,
  "eCommProductName": "VELVEETA 38.58 OZ CHEESY SKILLETS DINNERS-LIQUID  CHEESEBURGER     1 BOX/CARTON EACH",
  "eCommProductFeature": "",
  "FirstAvailableShipDate": "1900-01-01T00:00:00",
  "FunctionalName": "DINNERS-LIQUID",
  "GeneralMktDescription": "",
  "GlobalProductClassificationCode": "10000242",
  "GrocerySnackIndicatorName": "Grocery",
  "GrossWeight": 0,
  "GrossWeightLB": 2.6510000228881836,
  "GrossWeightOZ": 42.41600036621094,
  "GTIN": "00021000050659",
  "GTINVariableWeight": false,
  "HeightMM": 200.02499389648438,
  "HeightIN": 7.875,
  "MaximumStackingWeight": 0,
  "ID": 0,
  "IngredientInformationStatement": "INGREDIENTS: CHEESE SAUCE (WHEY [FROM MILK], CANOLA OIL, CHEDDAR CHEESE [MILK, CHEESE CULTURE, SALT, ENZYMES], MILK PROTEIN CONCENTRATE, SODIUM PHOSPHATE, ENZYME MODIFIED CHEDDAR CHEESE [MILK, WATER, SODIUM PHOSPHATE, SALT, MILKFAT, ENZYMES, CHEESE CULTURE, SORBIC ACID AS A PRESERVATIVE], CONTAINS LESS THAN 2% OF SALT, WHEY PROTEIN CONCENTRATE, LACTIC ACID, SODIUM ALGINATE, SORBIC ACID AS A PRESERVATIVE, ANNATTO EXTRACT [COLOR], OLEORESIN PAPRIKA [COLOR], CELLULOSE GUM, NATURAL FLAVOR); ENRICHED",
  "IngredientInfoCrossContStatement": "",
  "IngredientInfoDoesContainStatement": "MILK, WHEAT.",
  "IngredientInfoHHServingSize": "2.5 oz (70g/ about 1/5 package)",
  "IsPackagingMarkedReturnable": false,
  "KosherSuitabilityInfoIndicator": false,
  "KosherSuitabilityCertAgency": "",
  "KosherSuitabilityInfoSymbol": "",
  "KosherSuitabilityInfoDocNumber": "",
  "KraftItemCode": "00210000506570",
  "LenghtDepthMM": 177.8000030517578,
  "LenghtDepthIN": 7,
  "Name": "38.58Z VELCHSYSKLT CHSBRGR 3PK",
  "NetWeightLB": 2.4,
  "NetWeightOZ": 38.6,
  "NextLowerLevelUnitsPerTradeUnit": "1",
  "NTRNRlvntPrvdFlag": false,
  "NutrSrv1CalAmt": "230 CAL",
  "F_NUTRSRV1_CA_AMT": "",
  "NutrSrv1CaRDA": "15.00",
  "NutrSrv1CholRDA": "3.00",
  "NutrSrv1ChoRDA": "9.00",
  "NutrSrv1EnerpfAmt": "80 CAL",
  "NutrSrv1FastatRDA": "10.00",
  "NutrSrv1FastatAmt": "2 G",
  "NutrSrv1FatAmt": "9 G",
  "NutrSrv1FatRDA": "14.00",
  "NutrSrv1FatrnAmt": "0 G",
  "NutrSrv1FibtswAmt": "1 G",
  "NutrSrv1FibtswRDA": "4.00",
  "NutrSrv1HaemRDA": "6.00",
  "NutrSrv1KAmt": "",
  "NutrSrv1KRDA": null,
  "NutrSrv1NaRDA": "38.00",
  "NutrSrv1NaAmt": "910 MG",
  "NutrSrv1PRDA": "35.00",
  "NutrSrv1Prepstate": "UNPREPARED",
  "NutrSrv1ProAmt": "8 G",
  "NutrSrv1ServSize": "70 GR",
  "NutrSrv1SugarAmt": "7 G",
  "NutrSrv1VitARDA": "0.00",
  "NutrSrv1VitCRDA": "0.00",
  "OrderableUnitFlag": true,
  "OrganicSuitabilityInfoIndicator": false,
  "PackagingLanguage": "",
  "PackagingMaterialTypeCode": "25",
  "PackagingTypeCode": "BOX/CARTON",
  "PID": 6025,
  "ParentID": "C_VELVEETA|DINNERS-LIQUID",
  "PrepAndCookSuggestion": "",
  "PrepTypeName": "",
  "ProductID": "00021000050659",
  "ProductDescriptionShort": "38.58Z VELCHSYSKLT CHSBRGR 3PK",
  "ProductDescriptionGrid": "VELVEETA 38.58 OZ CHEESY SKILLETS DINNERS-LIQUID  CHEESEBURGER     1 BOX/CARTON EACH",
  "ProductHierarchyCatalystCode": "",
  "RemoveFromKraftRecipe": false,
  "Referenced": false,
  "Selected": false,
  "seoFriendlyName": "",
  "ServingsOfTradeItemUnit": "15",
  "ServingSuggestions": "",
  "SeasonalCode": "",
  "SubVariant": "",
  "TemperatureMinFarenheit": "0",
  "ThumbnailPath": "",
  "TotalShelfLife": "300",
  "UnitDescriptorCode": "EACH",
  "UserTypeID": "CONSUMER_UNIT",
  "VariantName": "CHEESEBURGER",
  "WidthMM": 142.875,
  "WidthIN": 5.625,
  "CreatedBy": null,
  "Created": "0001-01-01T00:00:00",
  "UPC": "",
  "WilkeUPC": "002100005065",
  "UpdatedBy": null,
  "Updated": "2017-01-23T21:40:39",
  "DeclaredNetContentFO": "",
  "DeclaredNetContentPT": "",
  "DeclaredNetContentML": "",
  "DeclaredNetContentOZ": "38.58",
  "DeclaredNetContentGR": "",
  "DeclaredNetContentKG": "",
  "DeclaredNetContentLB": "",
  "DeclaredNetContent1N": "",
  "DeclaredNetContentText": "",
  "GrossWeightKG": "1.202494",
  "GrossWeightGR": "1202.494019",
  "NetWeightKG": "1.093630",
  "NetWeightGR": "1093.630005",
  "TemperatureClassificationCode": "09",
  "FactsPanelLabelType": "US - Standard Format, 2 Columns",
  "DivisionCatalyst": "20",
  "F_NUTRSRV1_BIOT_AMT": "",
  "F_NUTRSRV1_BIOT_RDA": "",
  "F_NUTRSRV1_CAL_RDA": "",
  "F_NUTRSRV1_CHO_AMT": "27 G",
  "F_NUTRSRV1_CHOAVL_AMT": "",
  "F_NUTRSRV1_CHOL_AMT": "10 MG",
  "F_NUTRSRV1_CLD_RDA": "",
  "F_NUTRSRV1_CR_RDA": "",
  "F_NUTRSRV1_CU_RDA": "",
  "F_NUTRSRV1_DIFCA_AMT": "",
  "F_NUTRSRV1_DIFCA_RDA": "",
  "F_NUTRSRV1_ENER_AMT": "",
  "F_NUTRSRV1_ENER_RDA": "",
  "F_NUTRSRV1_ENERPF_RDA": "",
  "F_NUTRSRV1_FAMS_AMT": "",
  "F_NUTRSRV1_FAPU_AMT": "",
  "F_NUTRSRV1_FAPUN3_AMT": "",
  "F_NUTRSRV1_FAPUN6_AMT": "",
  "F_NUTRSRV1_FAPUN6_RDA": "",
  "F_NUTRSRV1_FATRN_RDA": "",
  "F_NUTRSRV1_FIB_RDA": "",
  "F_NUTRSRV1_FIBINS_AMT": "",
  "F_NUTRSRV1_FIBSOL_AMT": "",
  "F_NUTRSRV1_FOL_AMT": "",
  "F_NUTRSRV1_FOL_RDA": "",
  "F_NUTRSRV1_HAEM_AMT": "",
  "F_NUTRSRV1_ID_RDA": "",
  "F_NUTRSRV1_K_AMT": "230 MG",
  "F_NUTRSRV1_K_RDA": "7.00",
  "F_NUTRSRV1_MG_AMT": "",
  "F_NUTRSRV1_MG_RDA": "",
  "F_NUTRSRV1_MN_AMT": "",
  "F_NUTRSRV1_MN_RDA": "",
  "F_NUTRSRV1_MO_RDA": "",
  "F_NUTRSRV1_NIA_AMT": "",
  "F_NUTRSRV1_NIA_RDA": "",
  "F_NUTRSRV1_NIAEQ_RDA": "",
  "F_NUTRSRV1_P_AMT": "",
  "F_NUTRSRV1_PANTAC_AMT": "",
  "F_NUTRSRV1_PANTAC_RDA": "",
  "F_NUTRSRV1_PRO_RDA": "",
  "F_NUTRSRV1_RIBF_AMT": "",
  "F_NUTRSRV1_RIBF_RDA": "",
  "F_NUTRSRV1_SATFAT_AMT": "",
  "F_NUTRSRV1_SATFAT_RDA": "",
  "F_NUTRSRV1_SE_RDA": "",
  "F_NUTRSRV1_SUGALC_AMT": "",
  "F_NUTRSRV1_SUGAR_RDA": "",
  "F_NUTRSRV1_THIA_AMT": "",
  "F_NUTRSRV1_THIA_RDA": "",
  "F_NUTRSRV1_VITAA_AMT": "",
  "F_NUTRSRV1_VITAA_RDA": "2.00",
  "F_NUTRSRV1_VITAECA_RDA": "",
  "F_NUTRSRV1_VITB12_AMT": "",
  "F_NUTRSRV1_VITB12_RDA": "",
  "F_NUTRSRV1_VITB6_AMT": "",
  "F_NUTRSRV1_VITB6_RDA": "",
  "F_NUTRSRV1_VITC_AMT": "",
  "F_NUTRSRV1_VITD_AMT": "",
  "F_NUTRSRV1_VITD_RDA": "",
  "F_NUTRSRV1_VITDCA_RDA": "",
  "F_NUTRSRV1_VITE_RDA": "",
  "F_NUTRSRV1_VITK_AMT": "",
  "F_NUTRSRV1_VITK_RDA": "",
  "F_NUTRSRV1_ZN_AMT": "",
  "F_NUTRSRV1_ZN_RDA": "",
  "F_NUTRSRV100G_ADDSUG_AMT": "",
  "F_NUTRSRV100G_BIOT_AMT": "",
  "F_NUTRSRV100G_BIOT_RDA": "",
  "F_NUTRSRV100G_CA_AMT": "",
  "F_NUTRSRV100G_CA_RDA": "",
  "F_NUTRSRV100G_CAL_AMT": "",
  "F_NUTRSRV100G_CAL_RDA": "",
  "F_NUTRSRV100G_CHO_AMT": "",
  "F_NUTRSRV100G_CHO_RDA": "",
  "F_NUTRSRV100G_CHOL_AMT": "",
  "F_NUTRSRV100G_CHOL_RDA": "",
  "F_NUTRSRV100G_CU_RDA": "",
  "F_NUTRSRV100G_DIFCA_AMT": "",
  "F_NUTRSRV100G_DIFCA_RDA": "",
  "F_NUTRSRV100G_ENER_AMT": "",
  "F_NUTRSRV100G_ENERPF_AMT": "",
  "F_NUTRSRV100G_ENERPF_RDA": "",
  "F_NUTRSRV100G_FAMS_AMT": "",
  "F_NUTRSRV100G_FAPU_AMT": "",
  "F_NUTRSRV100G_FAPUN3_AMT": "",
  "F_NUTRSRV100G_FAPUN6_AMT": "",
  "F_NUTRSRV100G_FASAT_AMT": "",
  "F_NUTRSRV100G_FASAT_RDA": "",
  "F_NUTRSRV100G_FAT_AMT": "",
  "F_NUTRSRV100G_FAT_RDA": "",
  "F_NUTRSRV100G_FATRN_AMT": "",
  "F_NUTRSRV100G_FATRN_RDA": "",
  "F_NUTRSRV100G_FIBTSW_AMT": "",
  "F_NUTRSRV100G_FIBTSW_RDA": "",
  "F_NUTRSRV100G_FOL_AMT": "",
  "F_NUTRSRV100G_FOL_RDA": "",
  "F_NUTRSRV100G_HAEM_AMT": "",
  "F_NUTRSRV100G_HAEM_RDA": "",
  "F_NUTRSRV100G_ID_RDA": "",
  "F_NUTRSRV100G_K_AMT": "",
  "F_NUTRSRV100G_K_RDA": "",
  "F_NUTRSRV100G_MG_AMT": "",
  "F_NUTRSRV100G_MG_RDA": "",
  "F_NUTRSRV100G_MN_AMT": "",
  "F_NUTRSRV100G_NA_AMT": "",
  "F_NUTRSRV100G_NA_RDA": "",
  "F_NUTRSRV100G_NIA_AMT": "",
  "F_NUTRSRV100G_NIA_RDA": "",
  "F_NUTRSRV100G_P_AMT": "",
  "F_NUTRSRV100G_P_RDA": "",
  "F_NUTRSRV100G_PANTAC_AMT": "",
  "F_NUTRSRV100G_PANTAC_RDA": "",
  "F_NUTRSRV100G_PRO_AMT": "",
  "F_NUTRSRV100G_PRO_RDA": "",
  "F_NUTRSRV100G_RIBF_AMT": "",
  "F_NUTRSRV100G_RIBF_RDA": "",
  "F_NUTRSRV100G_SATFAT_AMT": "",
  "F_NUTRSRV100G_SATFAT_RDA": "",
  "F_NUTRSRV100G_SUGALC_AMT": "",
  "F_NUTRSRV100G_SUGAR_AMT": "",
  "F_NUTRSRV100G_SUGAR_RDA": "",
  "F_NUTRSRV100G_THIA_AMT": "",
  "F_NUTRSRV100G_THIA_RDA": "",
  "F_NUTRSRV100G_VITA_AMT": "",
  "F_NUTRSRV100G_VITA_RDA": "",
  "F_NUTRSRV100G_VITAA_AMT": "",
  "F_NUTRSRV100G_VITAA_RDA": "",
  "F_NUTRSRV100G_VITB12_AMT": "",
  "F_NUTRSRV100G_VITB6_AMT": "",
  "F_NUTRSRV100G_VITB6_RDA": "",
  "F_NUTRSRV100G_VITC_AMT": "",
  "F_NUTRSRV100G_VITC_RDA": "",
  "F_NUTRSRV100G_VITD_AMT": "",
  "F_NUTRSRV100G_VITDCA_AMT": "",
  "F_NUTRSRV100G_VITE_AMT": "",
  "F_NUTRSRV100G_ZN_AMT": "",
  "F_NUTRSRV100G_ZN_RDA": "",
  "F_NUTRSRV2_CA_RDA": "15.00",
  "F_NUTRSRV2_CAL_AMT": "380 CAL",
  "F_NUTRSRV2_CHO_AMT": "",
  "F_NUTRSRV2_CHO_RDA": "",
  "F_NUTRSRV2_CHOL_AMT": "",
  "F_NUTRSRV2_CHOL_RDA": "",
  "F_NUTRSRV2_CU_RDA": "",
  "F_NUTRSRV2_DIFCA_AMT": "",
  "F_NUTRSRV2_DIFCA_RDA": "",
  "F_NUTRSRV2_ENER_AMT": "",
  "F_NUTRSRV2_ENERPF_AMT": "160 CAL",
  "F_NUTRSRV2_FAMS_AMT": "",
  "F_NUTRSRV2_FAPU_AMT": "",
  "F_NUTRSRV2_FAPUN3_AMT": "",
  "F_NUTRSRV2_FAPUN6_AMT": "",
  "F_NUTRSRV2_FASAT_AMT": "5 G",
  "F_NUTRSRV2_FASAT_RDA": "25.00",
  "F_NUTRSRV2_FAT_AMT": "17 G",
  "F_NUTRSRV2_FAT_RDA": "26.00",
  "F_NUTRSRV2_FATRN_AMT": "1 G",
  "F_NUTRSRV2_FIBTSW_AMT": "1 G",
  "F_NUTRSRV2_FIBTSW_RDA": "4.00",
  "F_NUTRSRV2_FOL_RDA": "",
  "F_NUTRSRV2_HAEM_RDA": "15.00",
  "F_NUTRSRV2_K_AMT": "530 MG",
  "F_NUTRSRV2_K_RDA": "15.00",
  "F_NUTRSRV2_MG_RDA": "",
  "F_NUTRSRV2_MN_RDA": "",
  "F_NUTRSRV2_NA_AMT": "970 MG",
  "F_NUTRSRV2_NA_RDA": "40.00",
  "F_NUTRSRV2_NIA_RDA": "",
  "F_NUTRSRV2_NIAEQ_RDA": "",
  "F_NUTRSRV2_P_RDA": "50.00",
  "F_NUTRSRV2_PRO_AMT": "",
  "F_NUTRSRV2_PRO_RDA": "",
  "F_NUTRSRV2_RIBF_RDA": "",
  "F_NUTRSRV2_SATFAT_AMT": "",
  "F_NUTRSRV2_SATFAT_RDA": "",
  "F_NUTRSRV2_SUGAR_AMT": "7 G",
  "F_NUTRSRV2_THIA_RDA": "",
  "F_NUTRSRV2_VITA_RDA": "",
  "F_NUTRSRV2_VITAA_RDA": "2.00",
  "F_NUTRSRV2_VITC_AMT": "",
  "F_NUTRSRV2_VITC_RDA": "0.00",
  "F_NUTRSRV2_VITE_RDA": "",
  "F_NUTRSRV2_ZN_RDA": "",
  "F_NUTRSRV3_CA_AMT": "",
  "F_NUTRSRV3_CA_RDA": "",
  "F_NUTRSRV3_CAL_AMT": "",
  "F_NUTRSRV3_CHO_AMT": "",
  "F_NUTRSRV3_CHO_RDA": "",
  "F_NUTRSRV3_CHOL_AMT": "",
  "F_NUTRSRV3_CHOL_RDA": "",
  "F_NUTRSRV3_DIFCA_AMT": "",
  "F_NUTRSRV3_DIFCA_RDA": "",
  "F_NUTRSRV3_ENER_AMT": "",
  "F_NUTRSRV3_ENERPF_AMT": "",
  "F_NUTRSRV3_FAMS_AMT": "",
  "F_NUTRSRV3_FAPU_AMT": "",
  "F_NUTRSRV3_FAPUN3_AMT": "",
  "F_NUTRSRV3_FAPUN6_AMT": "",
  "F_NUTRSRV3_FASAT_AMT": "",
  "F_NUTRSRV3_FASAT_RDA": "",
  "F_NUTRSRV3_FAT_AMT": "",
  "F_NUTRSRV3_FAT_RDA": "",
  "F_NUTRSRV3_FATRN_AMT": "",
  "F_NUTRSRV3_FIBTSW_AMT": "",
  "F_NUTRSRV3_FIBTSW_RDA": "",
  "F_NUTRSRV3_HAEM_AMT": "",
  "F_NUTRSRV3_HAEM_RDA": "",
  "F_NUTRSRV3_K_AMT": "",
  "F_NUTRSRV3_K_RDA": "",
  "F_NUTRSRV3_MG_RDA": "",
  "F_NUTRSRV3_MN_RDA": "",
  "F_NUTRSRV3_NA_AMT": "",
  "F_NUTRSRV3_NA_RDA": "",
  "F_NUTRSRV3_NIA_RDA": "",
  "F_NUTRSRV3_P_AMT": "",
  "F_NUTRSRV3_P_RDA": "",
  "F_NUTRSRV3_PRO_AMT": "",
  "F_NUTRSRV3_PRO_RDA": "",
  "F_NUTRSRV3_SATFAT_RDA": "",
  "F_NUTRSRV3_SUGAR_AMT": "",
  "F_NUTRSRV3_VITA_RDA": "",
  "F_NUTRSRV3_VITAA_RDA": "",
  "F_NUTRSRV3_VITC_RDA": "",
  "F_NUTRSRV3_VITE_RDA": "",
  "F_NUTRSRV1_VITE_AMT": "",
  "F_NUTRSRV2_HAEM_AMT": "",
  "F_NUTRSRV2_VITAA_AMT": "",
  "F_NUTRSRV2_CA_AMT": "",
  "NutrSrv100gDIFCAPrecision": "",
  "NutrSrv100gEnerPrecision": "",
  "NutrSrv100gPAmt": 0,
  "NutrSrv100gCAAmt": 0,
  "LanguageCode": "eng",
  "ProductBrands": [
    {
      "BrandID": 115,
      "Name": "VELVEETA",
      "SiteId": 0,
      "ParentId": 0,
      "seoFriendlyName": "",
      "Created": "0001-01-01T00:00:00",
      "CreatedBy": null,
      "Updated": "0001-01-01T00:00:00",
      "UpdatedBy": null,
      "ErrorFlag": false,
      "ErrorMessage": null
    }
  ],
  "ProductAssets": [],
  "ProductAllergens": [
    {
      "AllergenID": "15",
      "Allergen": "GLUTEN"
    },
    {
      "AllergenID": "1",
      "Allergen": "Milk"
    },
    {
      "AllergenID": "14",
      "Allergen": "Wheat"
    }
  ],
  "ProductVariants": [
    {
      "VariantName": "CHEESEBURGER",
      "SubVariant": "",
      "Count": 2,
      "DefaultProductGTIN": "00070346000095"
    }
  ],
  "SizeVariants": [
    {
      "SizeVariantOZ": 9,
      "Count": 1,
      "DefaultProductGTIN": "00021000043293"
    },
    {
      "SizeVariantOZ": 38.57600021362305,
      "Count": 1,
      "DefaultProductGTIN": "00021000050659"
    }
  ]
}